Division,WeightClassKg,Place,Name,Team,BodyweightKg,Best3SquatKg,Best3BenchKg,Best3DeadliftKg,TotalKg,Equipment,Event,Sex
Boys,51.71,1,Oscar Martel,Laredo United South,50.53,131.54,81.65,142.88,356.07,Single-ply,SBD,M
Boys,51.71,2,Everado Garcia,Roma,49.99,122.47,74.84,136.08,333.39,Single-ply,SBD,M
Boys,51.71,3,Robert VanNest,Zapata,50.26,117.93,79.38,136.08,333.39,Single-ply,SBD,M
Boys,51.71,4,Eddie Macias,Laredo Nixon,49.53,124.74,79.38,117.93,322.05,Single-ply,SBD,M
Boys,51.71,5,Rolando Flores,Roma,51.53,115.67,58.97,127.01,301.64,Single-ply,SBD,M
Boys,51.71,6,Emil Pescador,Laredo Cigarroa,51.17,117.93,72.57,108.86,299.37,Single-ply,SBD,M
Boys,51.71,7,Luis Martinez #25,Laredo Martin,51.26,102.06,47.63,111.13,260.82,Single-ply,SBD,M
Boys,55.79,1,Danny Ruiz,Zapata,54.7,181.44,77.11,192.78,451.32,Single-ply,SBD,M
Boys,55.79,2,Jackson Littles,Edinburg Idea College Prep,53.16,133.81,70.31,147.42,351.53,Single-ply,SBD,M
Boys,55.79,3,Rolando Aguilar,Laredo United,55.43,115.67,63.5,133.81,312.98,Single-ply,SBD,M
Boys,55.79,4,Jacob Martinez #4,Hebbronville,54.52,102.06,63.5,122.47,288.03,Single-ply,SBD,M
Boys,55.79,5,Richard Jimenez,Laredo Nixon,54.7,95.25,68.04,113.4,276.69,Single-ply,SBD,M
Boys,55.79,6,Jonathan Gomez #2,Laredo Cigarroa,53.98,95.25,54.43,102.06,251.74,Single-ply,SBD,M
Boys,59.87,1,Mario Saldivar Jr,Laredo Alexander,57.42,183.7,106.59,197.31,487.61,Single-ply,SBD,M
Boys,59.87,2,Jose Alcorta,Laredo United South,59.42,158.76,90.72,165.56,415.04,Single-ply,SBD,M
Boys,59.87,3,Jonathan Diaz,Laredo Martin,59.87,161.03,74.84,174.63,410.5,Single-ply,SBD,M
Boys,59.87,4,Ramiro Rangel,Laredo Cigarroa,59.87,147.42,77.11,170.1,394.63,Single-ply,SBD,M
Boys,59.87,5,Antonio Miles,Zapata,57.42,95.25,54.43,124.74,274.42,Single-ply,SBD,M
Boys,67.13,1,Josue Tobias,Laredo Nixon,66.41,208.65,131.54,233.6,573.79,Single-ply,SBD,M
Boys,67.13,2,Cesar Uribe,Zapata,66.77,185.97,99.79,192.78,478.54,Single-ply,SBD,M
Boys,67.13,3,Miguel Luna,Laredo Johnson,66.13,165.56,104.33,179.17,449.06,Single-ply,SBD,M
Boys,67.13,4,Albert Betancourt,Laredo Johnson,67.13,172.37,92.99,181.44,446.79,Single-ply,SBD,M
Boys,67.13,5,Jimmy Jimenez,Laredo United South,63.5,158.76,92.99,188.24,439.98,Single-ply,SBD,M
Boys,67.13,6,Ryan Saenz,Hebbronville,63.41,172.37,83.91,181.44,437.72,Single-ply,SBD,M
Boys,67.13,7,Marco Garcia,Roma,63.5,149.69,102.06,151.95,403.7,Single-ply,SBD,M
Boys,67.13,8,Brandon Carballo,Hebbronville,63.78,136.08,83.91,167.83,387.82,Single-ply,SBD,M
Boys,67.13,9,Andrew Nevarez,Edinburg Idea College Prep,64.23,136.08,86.18,149.69,371.95,Single-ply,SBD,M
Boys,67.13,10,Pablo Salazar,Laredo Cigarroa,66.13,129.27,70.31,151.95,351.53,Single-ply,SBD,M
Boys,67.13,11,Lloyd Soto,Laredo United,65.59,120.2,74.84,151.95,347,Single-ply,SBD,M
Boys,67.13,12,Julian Alvarado,Laredo United,61.23,131.54,68.04,138.35,337.93,Single-ply,SBD,M
Boys,67.13,13,Albert Laurel Jr,Laredo Alexander,62.51,131.54,68.04,136.08,335.66,Single-ply,SBD,M
Boys,67.13,14,Enrique Rendon,Laredo Martin,62.23,102.06,47.63,129.27,278.96,Single-ply,SBD,M
Boys,67.13,DQ,Bernie Cruz,Laredo Nixon,61.33,124.74,,,,Single-ply,SBD,M
Boys,67.13,DQ,Damian Diaz,Hebbronville,66.32,117.93,,,,Single-ply,SBD,M
Boys,74.84,1,Nathaniel McRae,Hebbronville,68.76,174.63,106.59,208.65,489.88,Single-ply,SBD,M
Boys,74.84,2,Juan Gonzalez,Laredo United South,74.66,176.9,117.93,188.24,483.08,Single-ply,SBD,M
Boys,74.84,3,Albert Garcia,Laredo Johnson,70.85,188.24,92.99,174.63,455.86,Single-ply,SBD,M
Boys,74.84,4,Jesus Palmerin,Laredo Nixon,74.57,158.76,104.33,188.24,451.32,Single-ply,SBD,M
Boys,74.84,5,Damian Garza,Roma,70.85,158.76,102.06,188.24,449.06,Single-ply,SBD,M
Boys,74.84,6,Joseph Lozano,Laredo Nixon,71.85,163.29,92.99,179.17,435.45,Single-ply,SBD,M
Boys,74.84,7,David Belland,Edinburg Idea College Prep,72.3,156.49,86.18,170.1,412.77,Single-ply,SBD,M
Boys,74.84,8,Andrew Gutierrez,Laredo United South,70.94,138.35,83.91,174.63,396.89,Single-ply,SBD,M
Boys,74.84,9,Rodolfo Garcia,Laredo Martin,72.12,138.35,72.57,140.61,351.53,Single-ply,SBD,M
Boys,74.84,10,Daniel Lozano,Laredo Cigarroa,70.58,111.13,90.72,133.81,335.66,Single-ply,SBD,M
Boys,74.84,11,Ramon Rivera,Laredo Cigarroa,69.49,97.52,52.16,115.67,265.35,Single-ply,SBD,M
Boys,74.84,DQ,John Molina,Laredo Johnson,68.95,,,,,Single-ply,SBD,M
Boys,74.84,DQ,Jacinto Mata,Laredo Johnson,72.21,,,,,Single-ply,SBD,M
Boys,82.1,1,Dominic Rodriguez,Laredo Johnson,81.83,204.12,136.08,242.67,582.87,Single-ply,SBD,M
Boys,82.1,2,Leo Benavides,Laredo Johnson,81.74,226.8,124.74,188.24,539.77,Single-ply,SBD,M
Boys,82.1,3,Ithel Carrillo,Hebbronville,82.1,197.31,136.08,185.97,519.36,Single-ply,SBD,M
Boys,82.1,4,Luis Rodriguez #8,Laredo Nixon,81.28,192.78,102.06,204.12,498.95,Single-ply,SBD,M
Boys,82.1,5,Carlos Sepulveda,Laredo United,80.83,167.83,124.74,185.97,478.54,Single-ply,SBD,M
Boys,82.1,6,Jaime Torres,Laredo Martin,79.47,181.44,90.72,183.7,455.86,Single-ply,SBD,M
Boys,82.1,7,Federico Mendez,Laredo Martin,79.65,179.17,106.59,165.56,451.32,Single-ply,SBD,M
Boys,82.1,8,Ismael Espinoza,Laredo Johnson,81.74,188.24,90.72,165.56,444.52,Single-ply,SBD,M
Boys,82.1,9,Jonathan Blanco,Laredo Martin,81.92,142.88,90.72,170.1,403.7,Single-ply,SBD,M
Boys,82.1,10,Victor Gonzalez,Laredo Cigarroa,77.29,142.88,90.72,154.22,387.82,Single-ply,SBD,M
Boys,82.1,11,Adtom Solis,Laredo Cigarroa,80.83,133.81,88.45,147.42,369.68,Single-ply,SBD,M
Boys,89.81,1,Marco Briones,Laredo United South,85.18,190.51,133.81,183.7,508.02,Single-ply,SBD,M
Boys,89.81,2,Carlos Huerta #1,Hebbronville,88.45,181.44,108.86,183.7,474,Single-ply,SBD,M
Boys,89.81,3,Mario Valdez,Laredo Nixon,83.1,163.29,90.72,161.03,415.04,Single-ply,SBD,M
Boys,89.81,4,Luis Avila,Roma,87.82,154.22,77.11,142.88,374.21,Single-ply,SBD,M
Boys,89.81,5,Gustavo Alonso,Laredo Cigarroa,83.64,138.35,83.91,147.42,369.68,Single-ply,SBD,M
Boys,99.79,1,Joseph Jimenez,Laredo United South,94.44,222.26,158.76,222.26,603.28,Single-ply,SBD,M
Boys,99.79,2,Elias Cantu,Hebbronville,95.35,208.65,140.61,213.19,562.45,Single-ply,SBD,M
Boys,99.79,3,Luis Aguirre,Laredo Martin,90.36,206.38,104.33,192.78,503.49,Single-ply,SBD,M
Boys,99.79,4,Kristian Korrodi,Laredo Alexander,99.79,183.7,115.67,201.85,501.22,Single-ply,SBD,M
Boys,99.79,5,Anthony Martinez #12,Laredo Nixon,98.43,183.7,108.86,183.7,476.27,Single-ply,SBD,M
Boys,99.79,6,Luis Canales,Laredo Alexander,99.06,185.97,97.52,192.78,476.27,Single-ply,SBD,M
Boys,99.79,7,Miguel Guantos,Laredo United South,95.8,174.63,108.86,176.9,460.4,Single-ply,SBD,M
Boys,99.79,8,Brandon Brondo,Laredo United,94.8,151.95,106.59,176.9,435.45,Single-ply,SBD,M
Boys,99.79,9,Jesse Hernandez,Laredo Alexander,95.35,154.22,97.52,183.7,435.45,Single-ply,SBD,M
Boys,99.79,10,Santino Palizo,Laredo Alexander,93.26,142.88,106.59,181.44,430.91,Single-ply,SBD,M
Boys,99.79,11,David Rivera #2,Laredo Alexander,93.17,142.88,97.52,188.24,428.64,Single-ply,SBD,M
Boys,99.79,12,Laurencio Lopez,Roma,91.63,170.1,68.04,158.76,396.89,Single-ply,SBD,M
Boys,99.79,13,Luis Jasso,Laredo United,92.35,131.54,83.91,165.56,381.02,Single-ply,SBD,M
Boys,109.77,1,Franco Arce,Zapata,101.7,294.84,142.88,244.94,682.66,Single-ply,SBD,M
Boys,109.77,2,Francisco Torrecilla,Laredo Nixon,109.77,260.82,136.08,249.48,646.37,Single-ply,SBD,M
Boys,109.77,3,Jose Marquez,Hebbronville,108.95,256.28,147.42,238.14,641.83,Single-ply,SBD,M
Boys,109.77,4,Victor Lozano,Laredo Nixon,105.69,219.99,115.67,213.19,548.85,Single-ply,SBD,M
Boys,109.77,5,Abel Mendoza,Laredo Nixon,104.6,215.46,140.61,183.7,539.77,Single-ply,SBD,M
Boys,109.77,6,Juan Davila,Laredo United South,103.78,204.12,108.86,192.78,505.76,Single-ply,SBD,M
Boys,109.77,7,Axel Martínez,Roma,101.42,183.7,124.74,181.44,489.88,Single-ply,SBD,M
Boys,109.77,8,Diego Meza,Laredo United,104.6,172.37,127.01,190.51,489.88,Single-ply,SBD,M
Boys,109.77,9,Danny Villescaz,Laredo United,102.33,124.74,88.45,170.1,383.29,Single-ply,SBD,M
Boys,109.77,10,Joseph Flores,Laredo United,102.97,142.88,70.31,165.56,378.75,Single-ply,SBD,M
Boys,109.77,11,Diego Montoya,Roma,102.42,170.1,77.11,113.4,360.61,Single-ply,SBD,M
Boys,124.74,1,Gabino Barrera,Roma,119.66,272.16,149.69,226.8,648.64,Single-ply,SBD,M
Boys,124.74,2,Michael Almedina,Zapata,112.4,204.12,124.74,235.87,564.72,Single-ply,SBD,M
Boys,124.74,3,Joseph Gomez,Laredo United,114.67,215.46,131.54,210.92,557.92,Single-ply,SBD,M
Boys,124.74,4,Myriel Jaramillo,Laredo Johnson,115.58,233.6,124.74,197.31,555.65,Single-ply,SBD,M
Boys,124.74,5,Marco Solis,Roma,115.67,226.8,131.54,174.63,532.97,Single-ply,SBD,M
Boys,124.74,6,Jorge Gutierrez,Laredo Cigarroa,118.48,192.78,102.06,226.8,521.63,Single-ply,SBD,M
Boys,124.74,7,Carlos Silva,Laredo Martin,114.31,206.38,102.06,174.63,483.08,Single-ply,SBD,M
Boys,124.74,8,Mathew Vasquez,Laredo Alexander,111.04,167.83,106.59,206.38,480.81,Single-ply,SBD,M
Boys,124.74,9,Eleazar Salvador,Laredo United South,113.94,154.22,113.4,161.03,428.64,Single-ply,SBD,M
Boys,124.74,10,Jeff Puig,Laredo Alexander,115.39,154.22,99.79,170.1,424.11,Single-ply,SBD,M
Boys,124.74,11,Juan Valadez,Laredo Martin,110.68,142.88,74.84,129.27,347,Single-ply,SBD,M
Boys,124.74,DQ,Anthony Alcorta,Laredo Martin,122.11,229.06,92.99,,,Single-ply,SBD,M
Boys,124.74+,1,Jose Salvador,Laredo United South,138.62,238.14,154.22,242.67,635.03,Single-ply,SBD,M
Boys,124.74+,2,Reynaldo Martinez,Laredo Johnson,128.73,254.01,115.67,226.8,596.47,Single-ply,SBD,M
Boys,124.74+,3,Luis Barron,Laredo Johnson,128.73,249.48,124.74,190.51,564.72,Single-ply,SBD,M
Boys,124.74+,4,Michael Moreno,Zapata,132.54,204.12,131.54,190.51,526.17,Single-ply,SBD,M
Boys,124.74+,5,Juan Montoya,Laredo Alexander,145.97,170.1,102.06,192.78,464.93,Single-ply,SBD,M
Boys,124.74+,6,Adrian Fuentes,Laredo Cigarroa,126.19,151.95,97.52,183.7,433.18,Single-ply,SBD,M
Boys,,NS,Chris Iruegas,Laredo Alexander,,,,,,Single-ply,SBD,M
Boys,,NS,Joel Barrera,Roma,,,,,,Single-ply,SBD,M
Boys,,NS,Robert Garcia #5,Zapata,,,,,,Single-ply,SBD,M
Boys,,NS,Frank Fernandez,Edinburg Idea College Prep,,,,,,Single-ply,SBD,M
Boys,,NS,Danny Villarreal,Zapata,,,,,,Single-ply,SBD,M
