Place,Name,Team,BodyweightKg,Best3SquatKg,Best3BenchKg,Best3DeadliftKg,TotalKg,Division,Sex,WeightClassKg,Equipment,Event,BirthDate
4,Ivan Kostiuk,Täby AK,58.20,180.00,129.50,205.00,514.50,Sub-Juniors,M,59,Raw,SBD,
1,Josephine Wallner,Täby AK,86.88,197.50,102.50,192.50,492.50,Sub-Juniors,F,84+,Raw,SBD,
