Place,Name,Sex,BirthDate,Age,Country,State,Equipment,Division,WeightClassKg,BodyweightLbs,Best3SquatKg,Best3BenchKg,Best3DeadliftKg,TotalKg,Event
1,Savanna Mal,F,2000-12-04,23,USA,OR,Sleeves,Amateur Open,75,165,160,82.5,165,407.5,SBD
2,Josie Macklin,F,1997-10-14,26,USA,OR,Sleeves,Amateur Open,82.5,176,145,77.5,155,377.5,SBD
3,Michelle Gallinger Schmidt,F,1970-11-25,53,USA,OR,Sleeves,Amateur Open,75,156,107.5,60,145,312.5,SBD
4,Savannah Longoria,F,1997-05-08,26,USA,OR,Sleeves,Amateur Open,82.5,180,115,55,130,300,SBD
1,Savanna Mal,F,2000-12-04,23,USA,OR,Sleeves,Pro Juniors 20-23,75,165,160,82.5,165,407.5,SBD
1,Michelle Gallinger Schmidt,F,1970-11-25,53,USA,OR,Sleeves,Pro Masters 50-54,75,156,107.5,60,145,312.5,SBD
1,Josie Macklin,F,1997-10-14,26,USA,OR,Sleeves,Pro Open,82.5,176,145,77.5,155,377.5,SBD
2,Savannah Longoria,F,1997-05-08,26,USA,OR,Sleeves,Pro Open,82.5,180,115,55,130,300,SBD
1,Kasey Croy,F,1991-09-15,32,USA,WA,Wraps,Pro Open,125,268,265,147.5,262.5,675,SBD
1,Kasey Croy,F,1991-09-15,32,USA,WA,Wraps,Pro Open,125,268,265,147.5,262.5,675,SBD
1,Connie Nightingale,F,1986-03-01,38,USA,ID,Multi-ply,Pro Open,67.5,145,205,117.5,147.5,470,SBD
1,Connie Nightingale,F,1986-03-01,38,USA,ID,Multi-ply,Pro Open,67.5,145,205,117.5,147.5,470,SBD
1,Connie Nightingale,F,1986-03-01,38,USA,ID,Multi-ply,Pro Submasters 33-39,67.5,145,205,117.5,147.5,470,SBD
1,Tryston Williams,M,1997-09-29,26,USA,OR,Sleeves,Amateur Open,110,222,197.5,137.5,252.5,587.5,SBD
2,Ethan Davis #4,M,2005-06-16,18,USA,OR,Sleeves,Amateur Open,82.5,180,165,117.5,212.5,495,SBD
3,Ryan Arnold #1,M,2002-07-31,21,USA,WA,Sleeves,Amateur Open,82.5,180,215,120,145,480,SBD
4,Craig Logman,M,2011-11-17,12,USA,OR,Sleeves,Amateur Open,100,211,137.5,75,142.5,355,SBD
5,Curtis Logman,M,2011-11-17,12,USA,OR,Sleeves,Amateur Open,90,194,137.5,70,135,342.5,SBD
1,Jesse Bronson,M,1982-04-29,41,USA,OR,Sleeves,Pro Masters 40-44,100,218,192.5,160,210,562.5,SBD
1,Tryston Williams,M,1997-09-29,26,USA,OR,Sleeves,Pro Open,110,222,197.5,137.5,252.5,587.5,SBD
2,Jesse Bronson,M,1982-04-29,41,USA,OR,Sleeves,Pro Open,100,218,192.5,160,210,562.5,SBD
3,Michael Vest,M,1990-09-27,33,USA,WA,Sleeves,Pro Open,90,191,182.5,110,195,487.5,SBD
4,Ryan Arnold #1,M,2002-07-31,21,USA,WA,Sleeves,Pro Open,82.5,180,215,120,145,480,SBD
1,Jesse Bronson,M,1982-04-29,41,USA,OR,Sleeves,Pro Open,100,218,192.5,160,210,562.5,SBD
2,Samuel Robins,M,1988-08-10,35,USA,WA,Sleeves,Pro Open,125,255,200,150,202.5,552.5,SBD
3,Michael Vest,M,1990-09-27,33,USA,WA,Sleeves,Pro Open,90,191,182.5,110,195,487.5,SBD
1,Samuel Robins,M,1988-08-10,35,USA,WA,Sleeves,Pro Submasters 33-39,125,255,200,150,202.5,552.5,SBD
1,Ethan Davis #4,M,2005-06-16,18,USA,OR,Sleeves,Pro Teen 13-19,82.5,180,165,117.5,212.5,495,SBD
2,Craig Logman,M,2011-11-17,12,USA,OR,Sleeves,Pro Teen 13,100,211,137.5,75,142.5,355,SBD
3,Curtis Logman,M,2011-11-17,12,USA,OR,Sleeves,Pro Teen 13,90,194,137.5,70,135,342.5,SBD
1,Morgan Styvar,M,1998-04-13,25,USA,OR,Wraps,Pro Open,110,231,252.5,187.5,295,735,SBD
2,Khoibeast Le,M,1991-01-22,33,USA,WA,Wraps,Pro Open,75,165,255,142.5,282.5,680,SBD
1,Morgan Styvar,M,1998-04-13,25,USA,OR,Wraps,Pro Open,110,231,252.5,187.5,295,735,SBD
2,Khoibeast Le,M,1991-01-22,33,USA,WA,Wraps,Pro Open,75,165,255,142.5,282.5,680,SBD
1,Khoibeast Le,M,1991-01-22,33,USA,WA,Wraps,Pro Submasters 33-39,75,165,255,142.5,282.5,680,SBD
1,Shaun Orta,M,1984-04-01,39,USA,WA,Multi-ply,Amateur Open,110,233,275,172.5,232.5,680,SBD
2,Joe Michelson,M,1957-09-29,66,USA,WA,Multi-ply,Amateur Open,140+,332,237.5,190,227.5,655,SBD
3,Pacey Boomer,M,2002-07-04,21,Canada,,Multi-ply,Amateur Open,90,194,270,142.5,227.5,640,SBD
4,Dante Cowell,M,1996-08-05,27,USA,MT,Multi-ply,Amateur Open,110,227,197,195,235,627,SBD
5,Daniel Leidheiser,M,1970-11-17,53,USA,WA,Multi-ply,Amateur Open,90,196,185,185,242.5,612.5,SBD
1,Jake Domer,M,2001-02-07,23,USA,CA,Multi-ply,Pro Juniors 20-23,100,207,365,267.5,287.5,920,SBD
2,Pacey Boomer,M,2002-07-04,21,Canada,,Multi-ply,Pro Juniors 20-23,90,194,270,142.5,227.5,640,SBD
1,Joe Michelson,M,1957-09-29,66,USA,WA,Multi-ply,Pro Masters 65-69,140+,332,237.5,190,227.5,655,SBD
1,Daniel Leidheiser,M,1970-11-17,53,USA,WA,Multi-ply,Pro Masters 50-54,90,196,185,185,242.5,612.5,SBD
1,Jake Domer,M,2001-02-07,23,USA,CA,Multi-ply,Pro Open,100,207,365,267.5,287.5,920,SBD
2,Jim Seratt,M,1986-08-31,37,USA,WA,Multi-ply,Pro Open,110,238,455,142.5,307.5,905,SBD
3,Bret Potter,M,1995-05-01,28,Canada,,Multi-ply,Pro Open,110,231,330,272.5,250,852.5,SBD
4,Shaun Orta,M,1984-04-01,39,USA,WA,Multi-ply,Pro Open,110,233,275,172.5,232.5,680,SBD
5,Dante Cowell,M,1996-08-05,27,USA,MT,Multi-ply,Pro Open,110,227,197,195,235,627,SBD
1,Jake Domer,M,2001-02-07,23,USA,CA,Multi-ply,Pro Open,100,207,365,267.5,287.5,920,SBD
2,Jim Seratt,M,1986-08-31,37,USA,WA,Multi-ply,Pro Open,110,238,455,142.5,307.5,905,SBD
3,Bret Potter,M,1995-05-01,28,Canada,,Multi-ply,Pro Open,110,231,330,272.5,250,852.5,SBD
1,Dave O'Neill,M,1977-03-16,47,USA,WA,Unlimited,Amateur Open,140+,379,,340,,340,B
2,Blair Fisher,M,1960-09-16,63,Canada,,Unlimited,Amateur Open,140,306,,202.5,,202.5,B
3,Corey Boomer,M,1976-07-22,47,Canada,,Unlimited,Amateur Open,140,291,,142.5,,142.5,B
DQ,Jose Mendoza #10,M,1996-01-18,28,USA,WA,Unlimited,Amateur Open,140,282,,-25,,,B
1,Kyle Bossum,M,1992-05-02,31,USA,CA,Unlimited,Amateur Open,110,238,,185,,185,B
1,William Dirk,M,1979-07-10,44,USA,WA,Unlimited,Pro Masters 40-44,125,260,,425,,425,B
2,Dave O'Neill,M,1977-03-16,47,USA,WA,Unlimited,Pro Masters 45-49,140+,379,,340,,340,B
3,Corey Boomer,M,1976-07-22,47,Canada,,Unlimited,Pro Masters 45-49,140,291,,142.5,,142.5,B
1,Daniel Logman,M,1971-08-18,52,USA,OR,Unlimited,Pro Masters 50-54,140,304,,277.5,,277.5,B
1,Blair Fisher,M,1960-09-16,63,Canada,,Unlimited,Pro Masters 60-64,140,306,,202.5,,202.5,B
1,William Dirk,M,1979-07-10,44,USA,WA,Unlimited,Pro Open,125,260,,425,,425,B
2,Dave O'Neill,M,1977-03-16,47,USA,WA,Unlimited,Pro Open,140+,379,,340,,340,B
3,Daniel Logman,M,1971-08-18,52,USA,OR,Unlimited,Pro Open,140,304,,277.5,,277.5,B
4,Kyle Bossum,M,1992-05-02,31,USA,CA,Unlimited,Pro Open,110,238,,185,,185,B
5,Emilio Paez,M,1979-07-31,44,USA,CA,Unlimited,Pro Open,140+,,,182.5,,182.5,B
DQ,Jose Mendoza #10,M,1996-01-18,28,USA,WA,Unlimited,Pro Open,140,282,,-25,,,B
1,William Dirk,M,1979-07-10,44,USA,WA,Unlimited,Pro Open,125,260,,425,,425,B
2,Daniel Logman,M,1971-08-18,52,USA,OR,Unlimited,Pro Open,140,304,,277.5,,277.5,B
3,Emilio Paez,M,1979-07-31,44,USA,CA,Unlimited,Pro Open,140+,,,182.5,,182.5,B
1,William Dirk,M,1979-07-10,44,USA,WA,Unlimited,Pro Open,125,260,,425,,425,B
2,Dave O'Neill,M,1977-03-16,47,USA,WA,Unlimited,Pro Open,140+,379,,340,,340,B
3,Daniel Logman,M,1971-08-18,52,USA,OR,Unlimited,Pro Open,140,304,,277.5,,277.5,B
4,Blair Fisher,M,1960-09-16,63,Canada,,Unlimited,Pro Open,140,306,,202.5,,202.5,B
5,Kyle Bossum,M,1992-05-02,31,USA,CA,Unlimited,Pro Open,110,238,,185,,185,B
6,Emilio Paez,M,1979-07-31,44,USA,CA,Unlimited,Pro Open,140+,,,182.5,,182.5,B
7,Corey Boomer,M,1976-07-22,47,Canada,,Unlimited,Pro Open,140,291,,142.5,,142.5,B
DQ,Jose Mendoza #10,M,1996-01-18,28,USA,WA,Unlimited,Pro Open,140,282,,-25,,,B
