Division,WeightClassKg,Place,Name,Team,BodyweightKg,Best3SquatKg,Best3BenchKg,Best3DeadliftKg,TotalKg,Equipment,Event,Sex
Boys,51.71,1,Daniel Chapa,Gregory-Portland,51.35,129.27,90.72,151.95,371.95,Single-ply,SBD,M
Boys,51.71,2,Gilbert Sanchez,San Diego,51.44,138.35,90.72,136.08,365.14,Single-ply,SBD,M
Boys,55.79,3,Robert Chapa,Gregory-Portland,51.8,127.01,74.84,161.03,362.87,Single-ply,SBD,M
Boys,51.71,4,Thomas Soto,Corpus Christi Calallen,49.8,122.47,56.7,158.76,337.93,Single-ply,SBD,M
Boys,51.71,5,Bruizer Del Bosque,Bishop,44.45,102.06,70.31,136.08,308.44,Single-ply,SBD,M
Boys,51.71,6,Christian Obregon,Dilley,48.26,106.59,63.5,102.06,272.16,Single-ply,SBD,M
Boys,51.71,DQ,Hunter McElroy,Aransas Pass,47.36,74.84,52.16,,,Single-ply,SBD,M
Boys,55.79,DQ,Frankie Garza,Port Lavaca Calhoun,51.89,,,,,Single-ply,SBD,M
Boys,55.79,1,Justin Breland,Banquete,55.7,129.27,97.52,156.49,383.29,Single-ply,SBD,M
Boys,55.79,2,Rene Rubalcava,San Diego,55.34,140.61,83.91,136.08,360.61,Single-ply,SBD,M
Boys,55.79,3,Matt Buentello,Corpus Christi Tuloso-Midway,55.79,127.01,68.04,156.49,351.53,Single-ply,SBD,M
Boys,55.79,4,Michael Casarez,Three Rivers,55.52,131.54,65.77,147.42,344.73,Single-ply,SBD,M
Boys,55.79,5,Jeff Kearns,Gregory-Portland,55.07,127.01,70.31,145.15,342.46,Single-ply,SBD,M
Boys,55.79,6,Robert Seward,Corpus Christi Calallen,52.16,115.67,63.5,138.35,317.51,Single-ply,SBD,M
Boys,55.79,7,Josh Lomas,Crystal City,52.62,106.59,65.77,136.08,308.44,Single-ply,SBD,M
Boys,55.79,8,Jonathan Starks,Banquete,53.25,99.79,56.7,102.06,258.55,Single-ply,SBD,M
Boys,55.79,9,Bryon Davidson,Corpus Christi Calallen,52.16,86.18,43.09,113.4,242.67,Single-ply,SBD,M
Boys,59.87,1,Given McClure,Corpus Christi Calallen,58.51,161.03,102.06,181.44,444.52,Single-ply,SBD,M
Boys,59.87,2,Johnny Guerra,Orange Grove,59.6,147.42,79.38,158.76,385.55,Single-ply,SBD,M
Boys,59.87,3,Aaron Gonzales,Mathis,56.52,142.88,81.65,158.76,383.29,Single-ply,SBD,M
Boys,59.87,4,Richard Brown #4,Orange Grove,58.97,145.15,70.31,163.29,378.75,Single-ply,SBD,M
Boys,59.87,5,Gabriel Ramirez,Ben Bolt-Palito Blanco,58.79,136.08,86.18,154.22,376.48,Single-ply,SBD,M
Boys,59.87,6,Rogelio Santiago,Corpus Christi Calallen,57.79,117.93,77.11,147.42,342.46,Single-ply,SBD,M
Boys,59.87,7,Steven Garza,Crystal City,59.15,127.01,72.57,142.88,342.46,Single-ply,SBD,M
Boys,59.87,8,Justin Gonzalez,San Diego,57.52,113.4,68.04,127.01,308.44,Single-ply,SBD,M
Boys,59.87,DQ,Ray Valdez,Orange Grove,59.24,136.08,,,,Single-ply,SBD,M
Boys,59.87,DQ,Hector Castillo,Corpus Christi West Oso,58.97,108.86,61.23,,,Single-ply,SBD,M
Boys,59.87,DQ,Steven Coronado,Mathis,59.15,129.27,,,,Single-ply,SBD,M
Boys,67.13,DQ,Albert Salinas,Bishop,60.06,113.4,,,,Single-ply,SBD,M
Boys,59.87,DQ,JJ Gonzalez,Gregory-Portland,58.79,,,,,Single-ply,SBD,M
Boys,67.13,1,Josh Leal,Port Lavaca Calhoun,67.04,183.7,117.93,226.8,528.44,Single-ply,SBD,M
Boys,67.13,2,Dalton Torres,Beeville Jones,64.23,206.38,106.59,188.24,501.22,Single-ply,SBD,M
Boys,74.84,3,Andy Mohl,Corpus Christi Tuloso-Midway,67.31,183.7,124.74,183.7,492.15,Single-ply,SBD,M
Boys,67.13,4,Ryan Gomez,Corpus Christi Calallen,62.96,165.56,117.93,192.78,476.27,Single-ply,SBD,M
Boys,67.13,5,Steven Leal,Corpus Christi Tuloso-Midway,66.86,172.37,97.52,185.97,455.86,Single-ply,SBD,M
Boys,67.13,6,Arturo Cervantez,Crystal City,66.5,151.95,92.99,165.56,410.5,Single-ply,SBD,M
Boys,67.13,7,Jared Reilly,Corpus Christi Calallen,66.04,158.76,88.45,154.22,401.43,Single-ply,SBD,M
Boys,67.13,8,Jay Trevino,Banquete,65.77,133.81,99.79,147.42,381.02,Single-ply,SBD,M
Boys,67.13,9,Andrew Cavazos,Corpus Christi West Oso,65.86,129.27,70.31,145.15,344.73,Single-ply,SBD,M
Boys,67.13,10,Michael Garcia #13,Alice,64.95,127.01,65.77,142.88,335.66,Single-ply,SBD,M
Boys,67.13,11,Julian Salas,Orange Grove,65.77,124.74,79.38,124.74,328.85,Single-ply,SBD,M
Boys,67.13,12,Austin Castillo,Corpus Christi Calallen,65.86,117.93,74.84,136.08,328.85,Single-ply,SBD,M
Boys,74.84,13,Mason Garcilazo,Aransas Pass,67.31,124.74,74.84,129.27,328.85,Single-ply,SBD,M
Boys,67.13,14,Jesse Canales,Dilley,66.86,106.59,83.91,136.08,326.59,Single-ply,SBD,M
Boys,67.13,15,Jacob Rodriguez #10,Crystal City,61.23,124.74,63.5,136.08,324.32,Single-ply,SBD,M
Boys,67.13,16,Lorenzo Landin,Gregory-Portland,65.5,113.4,63.5,122.47,299.37,Single-ply,SBD,M
Boys,67.13,17,Pedro Garcia,Corpus Christi Tuloso-Midway,66.68,97.52,68.04,106.59,272.16,Single-ply,SBD,M
Boys,67.13,18,Cody Salinas,Riviera Kaufer,63.41,70.31,63.5,124.74,258.55,Single-ply,SBD,M
Boys,67.13,19,Patrick Jarrett,Three Rivers,65.23,92.99,40.82,117.93,251.74,Single-ply,SBD,M
Boys,67.13,20,Ramon Garcia,Robstown,66.59,102.06,,,102.06,Single-ply,S,M
Boys,67.13,DQ,Phong Tran,Rockport-Fulton,65.95,183.7,,,,Single-ply,S,M
Boys,67.13,DQ,Rico Rodriguez,San Diego,63.59,113.4,,,,Single-ply,S,M
Boys,67.13,DQ,Lawrence Van Rumar,Odem,65.95,154.22,,,,Single-ply,S,M
Boys,67.13,DQ,Phillip Garfield,Dilley,66.77,52.16,36.29,,,Single-ply,SB,M
Boys,67.13,DQ,Vincent Valdez,Aransas Pass,65.86,83.91,,,,Single-ply,S,M
Boys,67.13,DQ,Dillion Torres,Beeville Jones,64.05,131.54,,,,Single-ply,S,M
Boys,67.13,DQ,Anthony Lee #3,Freer,64.86,,,,,Single-ply,S,M
Boys,67.13,DQ,Nicholas Adame,Freer,60.51,,,,,Single-ply,S,M
Boys,67.13,DQ,Jeremy Sauceda,Corpus Christi Tuloso-Midway,66.86,,,,,Single-ply,S,M
Boys,67.13,DQ,Antonio Camacho,Robstown,60.33,,,,,Single-ply,S,M
Boys,74.84,1,Zach Garza,Corpus Christi Calallen,73.48,254.01,138.35,254.01,646.37,Single-ply,SBD,M
Boys,74.84,2,Joey Calzada,Port Lavaca Calhoun,74.3,210.92,129.27,229.06,569.26,Single-ply,SBD,M
Boys,74.84,3,Brandon Castillo,Corpus Christi Calallen,72.21,195.04,120.2,217.72,532.97,Single-ply,SBD,M
Boys,74.84,4,Ryan Torres,Gregory-Portland,74.21,190.51,133.81,201.85,526.17,Single-ply,SBD,M
Boys,74.84,5,Javi Rojas,Kingsville King,73.57,181.44,113.4,213.19,508.02,Single-ply,SBD,M
Boys,74.84,6,Jermiah Puentes,Beeville Jones,72.57,190.51,108.86,204.12,503.49,Single-ply,SBD,M
Boys,74.84,7,Devin Lanier,Gregory-Portland,71.58,188.24,115.67,190.51,494.42,Single-ply,SBD,M
Boys,74.84,8,Adam Guerrero #1,George West,69.94,188.24,106.59,185.97,480.81,Single-ply,SBD,M
Boys,74.84,9,Nick Fisher #2,Rockport-Fulton,71.58,174.63,86.18,192.78,453.59,Single-ply,SBD,M
Boys,74.84,10,Thomas Garcia,Dilley,72.21,165.56,104.33,183.7,453.59,Single-ply,SBD,M
Boys,74.84,11,Alex Medrano,Dilley,73.39,181.44,83.91,192.78,458.13,Single-ply,SBD,M
Boys,74.84,12,Edison Flores,Dilley,70.31,170.1,92.99,163.29,426.38,Single-ply,SBD,M
Boys,74.84,13,Phillip Alvarez,George West,70.4,142.88,97.52,181.44,421.84,Single-ply,SBD,M
Boys,74.84,14,Christian Stiles,Corpus Christi Calallen,68.67,151.95,83.91,183.7,419.57,Single-ply,SBD,M
Boys,74.84,15,Jordam Boone,Kingsville King,71.67,145.15,102.06,167.83,415.04,Single-ply,SBD,M
Boys,74.84,16,Tyler Wright,Orange Grove,71.58,147.42,83.91,154.22,385.55,Single-ply,SBD,M
Boys,82.1,17,Alex Aguirre,Gregory-Portland,74.93,149.69,83.91,149.69,383.29,Single-ply,SBD,M
Boys,74.84,18,Jose Gonzalez #15,Alice,71.4,142.88,72.57,158.76,374.21,Single-ply,SBD,M
Boys,74.84,19,Beto Chavarria,Alice,69.31,149.69,83.91,136.08,369.68,Single-ply,SBD,M
Boys,74.84,20,Austin Lofthouse,Corpus Christi Tuloso-Midway,70.85,129.27,74.84,163.29,367.41,Single-ply,SBD,M
Boys,74.84,21,Gabriel Badillo,Orange Grove,69.4,136.08,77.11,149.69,362.87,Single-ply,SBD,M
Boys,74.84,22,Moses Rios,Mathis,67.95,147.42,77.11,136.08,360.61,Single-ply,SBD,M
Boys,74.84,23,Tyler Vela,Riviera Kaufer,74.21,133.81,74.84,151.95,360.61,Single-ply,SBD,M
Boys,74.84,24,Chris Hernandez,Gregory-Portland,67.59,127.01,77.11,154.22,358.34,Single-ply,SBD,M
Boys,74.84,25,Dalton Foster,Dilley,69.85,136.08,79.38,140.61,356.07,Single-ply,SBD,M
Boys,74.84,26,DJ Gonzales,Riviera Kaufer,71.76,136.08,70.31,136.08,342.46,Single-ply,SBD,M
Boys,74.84,27,Rene Perez,San Diego,72.57,151.95,65.77,108.86,326.59,Single-ply,SBD,M
Boys,74.84,28,Jon Leal,Robstown,70.03,108.86,74.84,133.81,317.51,Single-ply,SBD,M
Boys,74.84,29,Brian Hall #1,Orange Grove,74.48,92.99,61.23,142.88,297.1,Single-ply,SBD,M
Boys,74.84,30,Aaron Meinecke,Three Rivers,71.3,102.06,52.16,120.2,274.42,Single-ply,SBD,M
Boys,74.84,31,Taylor Schwartz,Corpus Christi Calallen,73.57,79.38,63.5,106.59,249.48,Single-ply,SBD,M
Boys,74.84,DQ,Raymond Gonzales #3,Beeville Jones,71.21,145.15,,,,Single-ply,SBD,M
Boys,74.84,DQ,Mario Davila,Aransas Pass,73.57,,,,,Single-ply,SBD,M
Boys,74.84,DQ,Zac Candela,Odem,70.85,,,,,Single-ply,SBD,M
Boys,74.84,DQ,Kelton Craven,Orange Grove,70.22,,,,,Single-ply,SBD,M
Boys,89.81,1,Gabriel Longoria,Corpus Christi Calallen,82.28,235.87,133.81,238.14,607.81,Single-ply,SBD,M
Boys,82.1,2,Justin Garcia,Alice,79.29,238.14,129.27,215.46,582.87,Single-ply,SBD,M
Boys,89.81,3,Genaro Trevino,Beeville Jones,82.28,215.46,154.22,204.12,573.79,Single-ply,SBD,M
Boys,82.1,4,Ryan Rodriguez,Odem,79.29,208.65,138.35,217.72,564.72,Single-ply,SBD,M
Boys,82.1,5,Marty Saenz,San Diego,75.84,176.9,102.06,231.33,510.29,Single-ply,SBD,M
Boys,82.1,6,Kameron Handy,Corpus Christi Tuloso-Midway,80.29,188.24,113.4,192.78,494.42,Single-ply,SBD,M
Boys,82.1,7,Andrew Benavides,Corpus Christi Tuloso-Midway,78.47,188.24,120.2,181.44,489.88,Single-ply,SBD,M
Boys,82.1,8,Jacob Castillo,Alice,80.65,165.56,124.74,199.58,489.88,Single-ply,SBD,M
Boys,82.1,9,Fabian Gonzales,Kingsville King,78.29,179.17,111.13,181.44,471.74,Single-ply,SBD,M
Boys,89.81,10,James Sims #3,Rockport-Fulton,82.28,176.9,83.91,190.51,451.32,Single-ply,SBD,M
Boys,82.1,11,Jacob Muniz,Three Rivers,77.84,170.1,95.25,183.7,449.06,Single-ply,SBD,M
Boys,82.1,12,Kirk Salinas,Banquete,79.83,142.88,115.67,167.83,426.38,Single-ply,SBD,M
Boys,82.1,13,Andrew Reyes,Rockport-Fulton,81.01,158.76,95.25,167.83,421.84,Single-ply,SBD,M
Boys,82.1,14,Ramsey Rivera,Corpus Christi West Oso,81.37,156.49,79.38,172.37,408.23,Single-ply,SBD,M
Boys,82.1,15,Miguel Enriquez,Gregory-Portland,80.56,149.69,90.72,161.03,401.43,Single-ply,SBD,M
Boys,89.81,16,Joey Perez,Crystal City,82.28,124.74,117.93,149.69,392.36,Single-ply,SBD,M
Boys,82.1,17,Fernando Flores,Corpus Christi Tuloso-Midway,82.1,133.81,81.65,165.56,381.02,Single-ply,SBD,M
Boys,82.1,18,Juan Ybanez,Freer,76.38,127.01,90.72,161.03,378.75,Single-ply,SBD,M
Boys,82.1,19,Ivie Gutierrez,Mathis,75.75,136.08,65.77,111.13,312.98,Single-ply,SBD,M
Boys,82.1,20,Ricky Garza,Crystal City,78.11,90.72,83.91,122.47,297.1,Single-ply,SBD,M
Boys,82.1,21,Alex Pena,Robstown,79.56,90.72,83.91,120.2,294.84,Single-ply,SBD,M
Boys,82.1,22,David Morales,Robstown,76.93,102.06,68.04,120.2,290.3,Single-ply,SBD,M
Boys,82.1,23,Faustino Alaniz,Banquete,78.74,108.86,61.23,117.93,288.03,Single-ply,SBD,M
Boys,82.1,24,Josh Brunson,Corpus Christi Tuloso-Midway,82.1,106.59,77.11,102.06,285.76,Single-ply,SBD,M
Boys,82.1,25,Jesus Carrasco,Alice,77.75,88.45,58.97,122.47,269.89,Single-ply,SBD,M
Boys,82.1,DQ,Ryan de la Cruz,Ben Bolt-Palito Blanco,81.56,183.7,,,,Single-ply,SBD,M
Boys,82.1,DQ,Riley Richardson,Gregory-Portland,80.56,108.86,,,,Single-ply,SBD,M
Boys,89.81,DQ,Trevor Hardin,Mathis,82.19,235.87,,,,Single-ply,SBD,M
Boys,89.81,1,Brandon Griffith,Port Lavaca Calhoun,87.77,244.94,163.29,226.8,635.03,Single-ply,SBD,M
Boys,89.81,2,Francisco Cisneros,Rio Hondo,88.27,192.78,170.1,226.8,589.67,Single-ply,SBD,M
Boys,89.81,3,Lazaro Smith,Beeville Jones,89.81,222.26,129.27,226.8,578.33,Single-ply,SBD,M
Boys,89.81,4,John Baldwin,Corpus Christi West Oso,85.91,231.33,127.01,217.72,576.06,Single-ply,SBD,M
Boys,89.81,5,Colton Williams,Port Lavaca Calhoun,87.18,238.14,124.74,213.19,576.06,Single-ply,SBD,M
Boys,89.81,6,David Leal,Corpus Christi Calallen,83.46,208.65,136.08,222.26,566.99,Single-ply,SBD,M
Boys,89.81,7,Alex Tanguma,Corpus Christi Calallen,83.28,172.37,172.37,181.44,526.17,Single-ply,SBD,M
Boys,89.81,8,Luis Lopez #3,San Diego,87,199.58,113.4,190.51,503.49,Single-ply,SBD,M
Boys,89.81,9,Chris Castillo,Corpus Christi Tuloso-Midway,88.9,181.44,104.33,201.85,487.61,Single-ply,SBD,M
Boys,89.81,10,Justin DeLeon,Mathis,89.36,183.7,88.45,185.97,458.13,Single-ply,SBD,M
Boys,99.79,11,Abel Gonzalez,Dilley,89.99,183.7,92.99,176.9,453.59,Single-ply,SBD,M
Boys,89.81,12,Carlos Hernandez #12,Corpus Christi West Oso,84.1,183.7,104.33,136.08,424.11,Single-ply,SBD,M
Boys,89.81,13,Zach Leal,Robstown,87.45,145.15,113.4,161.03,419.57,Single-ply,SBD,M
Boys,89.81,14,Josh Chrisman,Rockport-Fulton,83.46,151.95,102.06,158.76,412.77,Single-ply,SBD,M
Boys,89.81,15,Weston Carroll,Beeville Jones,84.37,151.95,102.06,147.42,401.43,Single-ply,SBD,M
Boys,89.81,16,Philip Barrientos,Bishop,84.1,142.88,92.99,142.88,378.75,Single-ply,SBD,M
Boys,89.81,17,Jake Baker,Three Rivers,84.37,129.27,83.91,161.03,374.21,Single-ply,SBD,M
Boys,89.81,18,Adan Serda,Odem,84.55,129.27,102.06,142.88,374.21,Single-ply,SBD,M
Boys,99.79,19,Rene Luna,Robstown,89.9,102.06,92.99,161.03,356.07,Single-ply,SBD,M
Boys,89.81,20,Joe Castillo #1,Corpus Christi West Oso,83.46,154.22,65.77,102.06,322.05,Single-ply,SBD,M
Boys,89.81,21,Adrian Arredondo,Riviera Kaufer,87.63,90.72,104.33,127.01,322.05,Single-ply,SBD,M
Boys,89.81,22,Mikael Carrion,Corpus Christi Tuloso-Midway,86.82,104.33,56.7,108.86,269.89,Single-ply,SBD,M
Boys,89.81,DQ,Omar Espinosa,Dilley,86.82,163.29,,,,Single-ply,SBD,M
Boys,89.81,DQ,Nick Pacheco,Bishop,88.45,208.65,61.23,,,Single-ply,SBD,M
Boys,89.81,DQ,Steven Chavez,Aransas Pass,85.91,219.99,,,,Single-ply,SBD,M
Boys,89.81,DQ,Lawrence Caldwell,Rio Hondo,88.9,174.63,124.74,,,Single-ply,SBD,M
Boys,89.81,DQ,Brandon Garza,Robstown,85.37,145.15,,,,Single-ply,SBD,M
Boys,89.81,DQ,Josh Davis,Rockport-Fulton,85.73,183.7,,,,Single-ply,SBD,M
Boys,89.81,DQ,Cody Garcia,Odem,83.55,,,,,Single-ply,SBD,M
Boys,89.81,DQ,Leroy Cardenas,Odem,84.28,,,,,Single-ply,SBD,M
Boys,89.81,DQ,Manuel Garza,Rio Hondo,83.19,,,,,Single-ply,SBD,M
Boys,89.81,DQ,Freddy Herandez,Corpus Christi Tuloso-Midway,89.36,,,,,Single-ply,SBD,M
Boys,99.79,DQ,Juan Rios,Crystal City,89.9,,,,,Single-ply,SBD,M
Boys,99.79,1,Oscar Ortiz,Orange Grove,98.61,263.08,124.74,240.4,628.23,Single-ply,SBD,M
Boys,99.79,2,Tim Hicks,Port Lavaca Calhoun,98.61,238.14,149.69,226.8,614.62,Single-ply,SBD,M
Boys,99.79,3,Andres Castellanos,Corpus Christi Tuloso-Midway,96.16,254.01,124.74,226.8,605.55,Single-ply,SBD,M
Boys,99.79,4,Ben Bomer,Port Lavaca Calhoun,96.39,240.4,138.35,204.12,582.87,Single-ply,SBD,M
Boys,99.79,5,Roger Rubalcava,San Diego,93.8,204.12,142.88,215.46,562.45,Single-ply,SBD,M
Boys,109.77,6,Jarred Longerot,Mathis,99.88,226.8,113.4,208.65,548.85,Single-ply,SBD,M
Boys,99.79,7,Zach Garcia,Alice,97.61,201.85,124.74,204.12,530.7,Single-ply,SBD,M
Boys,99.79,8,Matt Salazar,Corpus Christi Tuloso-Midway,99.34,215.46,124.74,183.7,523.9,Single-ply,SBD,M
Boys,99.79,9,Salo Galindo,Dilley,94.98,192.78,131.54,181.44,505.76,Single-ply,SBD,M
Boys,99.79,10,Jamie Menchaca,Carrizo Springs,92.08,185.97,131.54,185.97,503.49,Single-ply,SBD,M
Boys,99.79,11,Victor Jimenez,Crystal City,97.52,195.04,108.86,197.31,501.22,Single-ply,SBD,M
Boys,99.79,12,Victor Leal,Rio Hondo,98.16,181.44,124.74,188.24,494.42,Single-ply,SBD,M
Boys,99.79,13,Ruben Ramirez,Aransas Pass,96.34,188.24,120.2,183.7,492.15,Single-ply,SBD,M
Boys,99.79,14,Hector Perez,Crystal City,99.7,167.83,104.33,190.51,462.66,Single-ply,SBD,M
Boys,99.79,15,Michael Wiser,Corpus Christi Calallen,94.98,154.22,106.59,190.51,451.32,Single-ply,SBD,M
Boys,99.79,16,Jon Garcia,Ben Bolt-Palito Blanco,98.43,158.76,113.4,163.29,435.45,Single-ply,SBD,M
Boys,109.77,17,Marco Balboa,Alice,99.97,172.37,97.52,158.76,428.64,Single-ply,SBD,M
Boys,99.79,18,Jesse Gomez,Kingsville King,93.08,142.88,102.06,170.1,415.04,Single-ply,SBD,M
Boys,99.79,19,Luis Monsevais,Orange Grove,96.07,163.29,90.72,158.76,412.77,Single-ply,SBD,M
Boys,99.79,20,Jose Cisneros,Crystal City,93.26,158.76,61.23,181.44,401.43,Single-ply,SBD,M
Boys,99.79,21,Daniel Diaz,Three Rivers,91.17,151.95,92.99,145.15,390.09,Single-ply,SBD,M
Boys,99.79,22,Bryan Clesser,George West,92.71,142.88,97.52,149.69,390.09,Single-ply,SBD,M
Boys,99.79,23,Truman Jenkins,Rockport-Fulton,96.25,151.95,86.18,142.88,381.02,Single-ply,SBD,M
Boys,99.79,24,Kevin Leal,Freer,91.35,149.69,83.91,142.88,376.48,Single-ply,SBD,M
Boys,99.79,25,Raul Hernandez,Dilley,97.61,142.88,77.11,142.88,362.87,Single-ply,SBD,M
Boys,99.79,26,Andy Ochoa,Mathis,91.08,136.08,74.84,147.42,358.34,Single-ply,SBD,M
Boys,99.79,27,Antonio Barerra,Corpus Christi Tuloso-Midway,90.72,102.06,90.72,136.08,328.85,Single-ply,SBD,M
Boys,99.79,28,Jacob Longoria,Riviera Kaufer,96.8,106.59,79.38,120.2,306.17,Single-ply,SBD,M
Boys,99.79,29,Marcus Hinojosa,Bishop,91.53,102.06,61.23,113.4,276.69,Single-ply,SBD,M
Boys,99.79,DQ,Javier Reynaga,Corpus Christi Calallen,91.53,90.72,58.97,106.59,,Single-ply,SBD,M
Boys,99.79,DQ,Josh Pina,Odem,95.44,170.1,,,,Single-ply,SBD,M
Boys,99.79,DQ,Eric Carroll,Rockport-Fulton,97.79,183.7,113.4,,,Single-ply,SBD,M
Boys,109.77,1,Lupe Briseno,Port Lavaca Calhoun,108.14,265.35,151.95,222.26,639.57,Single-ply,SBD,M
Boys,109.77,2,Cecilio Zarate,Corpus Christi West Oso,106.96,249.48,122.47,208.65,580.6,Single-ply,SBD,M
Boys,109.77,3,Aaron Liserio,Mathis,109.23,249.48,108.86,215.46,573.79,Single-ply,SBD,M
Boys,109.77,4,Jesus Benavides,Ben Bolt-Palito Blanco,103.06,204.12,156.49,204.12,564.72,Single-ply,SBD,M
Boys,124.74,5,Chris Flores,Port Lavaca Calhoun,109.95,249.48,117.93,197.31,564.72,Single-ply,SBD,M
Boys,109.77,6,Cody Morris #3,Corpus Christi Calallen,101.97,226.8,108.86,226.8,562.45,Single-ply,SBD,M
Boys,109.77,7,Frank Trevino,San Diego,107.5,206.38,124.74,215.46,546.58,Single-ply,SBD,M
Boys,109.77,8,Jacob Moreno,Mathis,103.24,204.12,97.52,215.46,517.1,Single-ply,SBD,M
Boys,109.77,9,John Herrera,Banquete,106.68,165.56,133.81,204.12,503.49,Single-ply,SBD,M
Boys,109.77,10,Manuel Melendez,Rio Hondo,105.78,192.78,124.74,179.17,496.68,Single-ply,SBD,M
Boys,109.77,11,Tanner Bierstedt,Freer,107.86,176.9,136.08,176.9,489.88,Single-ply,SBD,M
Boys,109.77,12,Harley Vickers,Alice,106.32,213.19,113.4,158.76,485.34,Single-ply,SBD,M
Boys,109.77,13,Danny Cruz,Alice,108.5,183.7,111.13,183.7,478.54,Single-ply,SBD,M
Boys,109.77,14,Roy Aguilar,Orange Grove,109.32,179.17,104.33,183.7,467.2,Single-ply,SBD,M
Boys,109.77,15,Esteban Resendez,Alice,107.14,158.76,111.13,183.7,453.59,Single-ply,SBD,M
Boys,109.77,16,Robert Bontello,Corpus Christi Calallen,105.78,161.03,104.33,183.7,449.06,Single-ply,SBD,M
Boys,109.77,17,Dj Cowger,Bishop,105.05,165.56,115.67,158.76,439.98,Single-ply,SBD,M
Boys,109.77,18,Miguel Navarro,Rio Hondo,109.5,142.88,124.74,156.49,424.11,Single-ply,SBD,M
Boys,109.77,19,Michael Escamilla,Carrizo Springs,109.04,124.74,74.84,172.37,371.95,Single-ply,SBD,M
Boys,109.77,20,Michael Gortemiller,Aransas Pass,109.77,158.76,,,158.76,Single-ply,S,M
Boys,109.77,DQ,Justin Ybarra,Corpus Christi West Oso,109.5,192.78,,,,Single-ply,S,M
Boys,109.77,DQ,Matthew Moya,Corpus Christi West Oso,104.51,,,,,Single-ply,S,M
Boys,109.77,DQ,Vincente Aguirre,Carrizo Springs,104.87,97.52,,,,Single-ply,S,M
Boys,124.74,DQ,Brodie Ruiz,Three Rivers,109.86,,,,,Single-ply,S,M
Boys,124.74,1,Albert Ureste,Port Lavaca Calhoun,122.24,260.82,142.88,226.8,630.49,Single-ply,SBD,M
Boys,124.74,2,Frank Perez,Odem,119.39,226.8,183.7,195.04,605.55,Single-ply,SBD,M
Boys,124.74,3,D'Marco Smith,Corpus Christi Tuloso-Midway,114.76,247.21,156.49,190.51,594.21,Single-ply,SBD,M
Boys,124.74,4,Kaleb Tichkausky,Three Rivers,121.56,215.46,149.69,222.26,587.4,Single-ply,SBD,M
Boys,124.74,5,Daniel González,Robstown,120.29,204.12,129.27,192.78,526.17,Single-ply,SBD,M
Boys,124.74,6,Mario Alaniz,San Diego,117.93,192.78,108.86,217.72,519.36,Single-ply,SBD,M
Boys,124.74,7,Joseph Solis,Rockport-Fulton,112.13,199.58,108.86,183.7,492.15,Single-ply,SBD,M
Boys,124.74,8,Matt Watson #2,Corpus Christi Tuloso-Midway,114.76,147.42,117.93,163.29,428.64,Single-ply,SBD,M
Boys,124.74,9,Jeffery Garcia,Carrizo Springs,114.49,122.47,106.59,113.4,342.46,Single-ply,SBD,M
Boys,124.74,DQ,Manuel Villalobos,Corpus Christi Calallen,119.2,208.65,138.35,,,Single-ply,SBD,M
Boys,124.74,DQ,Antonio Galvan,Aransas Pass,112.58,206.38,106.59,,,Single-ply,SBD,M
Boys,124.74,DQ,Cody Lee #1,Port Lavaca Calhoun,123.01,,,,,Single-ply,SBD,M
Boys,124.74+,1,Miguel Estrada,Rockport-Fulton,133.45,249.48,154.22,251.74,655.44,Single-ply,SBD,M
Boys,124.74+,2,Ruben DelBosque,Mathis,142.7,260.82,111.13,226.8,598.74,Single-ply,SBD,M
Boys,124.74+,3,Adam Aleman,Beeville Jones,145.6,215.46,127.01,195.04,537.51,Single-ply,SBD,M
Boys,124.74+,4,Oscar O Ortiz,Orange Grove,131.09,204.12,136.08,188.24,528.44,Single-ply,SBD,M
Boys,124.74+,5,Steven Rodriguez,Corpus Christi Calallen,133.72,222.26,120.2,179.17,521.63,Single-ply,SBD,M
Boys,124.74+,6,Josh Moreno,Mathis,129.27,226.8,102.06,183.7,512.56,Single-ply,SBD,M
Boys,124.74+,7,Dylan Strickland,Corpus Christi Calallen,135.08,210.92,122.47,176.9,510.29,Single-ply,SBD,M
Boys,124.74+,8,Sergio Garcia,Corpus Christi Calallen,129,185.97,86.18,147.42,419.57,Single-ply,SBD,M
Boys,124.74+,DQ,Ryan Gutierrez,Rockport-Fulton,132.72,,,,,Single-ply,SBD,M
Boys,124.74+,DQ,Arturo Pena,Robstown,147.69,,,,,Single-ply,SBD,M
