Place,Name,Sex,BirthDate,Age,Country,State,Equipment,Division,BodyweightKg,WeightClassKg,Squat1Kg,Squat2Kg,Squat3Kg,Squat4Kg,Best3SquatKg,Bench1Kg,Bench2Kg,Bench3Kg,Best3BenchKg,Deadlift1Kg,Deadlift2Kg,Deadlift3Kg,Best3DeadliftKg,TotalKg,Event,Team
G,Collette Arnheim,F,1982-12-26,41,Australia,VIC,Raw,M40-49,71.3,75,105,115,125,,125,55,57.5,60,60,110,120,130,130,315,SBD,Girls Who Lift
1,Deborah Peterson,F,1962-01-15,62,Australia,VIC,Raw,M60-69,74.1,75,85,90,-100,,90,65,70,-72.5,70,135,145,-150,145,305,SBD,Girls Who Lift
1,Ashlee Cooper,F,1988-11-11,35,Australia,VIC,Raw,Open,63.7,67.5,95,-100,-100,,95,40,-42.5,42.5,42.5,110,115,-120,115,252.5,SBD,Girls who lift HQ
1,Hannah Brown,F,1989-12-25,34,Australia,VIC,Raw,Open,69.6,75,55,60,65,,65,-30,30,-35,30,90,95,100,100,195,SBD,Girls who lift
1,Kasey Daley,F,1991-11-09,32,Australia,NSW,Raw,Open,99.6,100,120,-130,130,,130,52.5,57.5,-62.5,57.5,110,120,130,130,317.5,SBD,One Strength
1,Huntah Young,F,2004-04-27,19,Australia,VIC,Raw,S17-19,80,82.5,100,110,-120,,110,65,70,72.5,72.5,90,100,112.5,112.5,295,SBD,Girls who Lift
1,Bec Crombie,F,1982-09-19,41,Australia,NSW,Wraps,M40-49,59.4,60,135,145,150,,150,65,67.5,71,71,135,145,150,150,371,SBD,One Strength
1,Crystal Mackay,F,1986-12-14,37,Australia,NSW,Wraps,Open,52,52,115,125,130,133,130,60,67.5,70,70,145,155,165,165,365,SBD,Hadley's Home Gym
1,Hanna Evans,F,1994-08-16,29,Australia,NSW,Wraps,Open,55.9,56,135,-152.5,-152.5,,135,55,-60,-60,55,140,-155,155,155,345,SBD,One Strength
2,Esther Wang,F,1996-11-24,27,Australia,VIC,Wraps,Open,55.2,56,115,122.5,-127.5,,122.5,42.5,-47.5,47.5,47.5,125,135,140,140,310,SBD,Girls Who Lift
1,Amy-Maree McKenzie,F,1989-11-14,34,Australia,NSW,Wraps,Open,66.6,67.5,130,140,150,,150,72.5,77.5,82.5,82.5,150,160,-170,160,392.5,SBD,One strength
2,Kyna Leong,F,1986-10-29,37,Australia,VIC,Wraps,Open,63.2,67.5,135,145,-150,,145,62.5,-67.5,-67.5,62.5,155,165,170,170,377.5,SBD,Girls Who Lift
3,Emily Hurst,F,1998-09-10,25,Australia,NSW,Wraps,Open,61.8,67.5,80,90,-100,,90,50,-60,60,60,80,90,102.5,102.5,252.5,SBD,Fitness Focus
4,Natalie Dorman,F,1988-09-14,35,Australia,QLD,Wraps,Open,66.8,67.5,50,55,60,,60,35,37.5,40,40,80,90,100,100,200,SBD,Girls Who Lift
1,Chantelle Gauci,F,1998-07-07,25,Australia,NSW,Wraps,Open,74.1,75,180,195,202.5,,202.5,80,87.5,-92.5,87.5,200,212.5,220,220,510,SBD,Whittaker Strength
1,Stevie Templer-Long,F,1988-11-02,35,Australia,NSW,Wraps,Open,80.2,82.5,140,152.5,-160,,152.5,65,75,-80,75,150,165,172.5,172.5,400,SBD,One Strength
2,Naomi Kolski,F,1988-12-12,35,Australia,VIC,Wraps,Open,77.2,82.5,115,-122.5,122.5,,122.5,57.5,60,-62.5,60,155,165,-170,165,347.5,SBD,Girls Who Lift
3,Jess Bloomfield,F,1990-07-31,33,Australia,NSW,Wraps,Open,82.3,82.5,115,120,125,,125,47.5,-50,50,50,130,-140,-140,130,305,SBD,Girls who lift
1,Morgan McNair,F,1996-07-16,27,Australia,NSW,Wraps,Open,112.8,125,140,150,160,,160,70,75,-77.5,75,140,150,-155,150,385,SBD,Girls Who Lift
1,Rhiannon Kirby,F,1995-05-31,28,Australia,VIC,Raw,Open,76.7,82.5,,,,,,87.5,-95,-95,87.5,160,170,180,180,267.5,BD,Girls Who Lift
G,Melinda Beers,F,1996-11-15,,Australia,NSW,Raw,Open,79.9,82.5,,,,,,87.5,-92.5,-92.5,87.5,112.5,120,130,130,217.5,BD,Girls who lift
1,Austin Schaapveld,M,2008-03-28,15,Australia,NSW,Raw,T14-16,57.4,60,-80,95,107.5,,107.5,60,65,72.5,72.5,85,95,110,110,290,SBD,One Strength
G,Zavier Cadorin,M,2002-05-15,21,Australia,NSW,Raw,J20-23,85.4,90,180,192.5,-200,,192.5,120,-125,-125,120,220,235,245,245,557.5,SBD,One Strength
1,Samuel Ernst,M,1990-09-28,33,Australia,NSW,Raw,Open,66.3,67.5,190,200,212.5,,212.5,135,142.5,150,150,190,202.5,212.5,212.5,575,SBD,Home gym
1,Joseph Throup,M,1994-09-08,29,Australia,NSW,Raw,Open,97.5,100,170,180,-190,-190,180,110,-115,117.5,117.5,210,230,-250,230,527.5,SBD,One Strength
1,Joel Sheasby,M,1997-04-07,26,Australia,NSW,Raw,Open,100.2,110,175,185,192.5,,192.5,95,102.5,-107.5,102.5,200,210,220,220,515,SBD,One Strength
G,Ethan McArdle,M,2004-03-17,19,Australia,NSW,Raw,S17-19,98.6,100,180,190,200,,200,100,105,-110,105,180,190,195,195,500,SBD,Fitness Focus
1,Benjamin DeGabriel,M,2008-03-30,15,Australia,NSW,Raw,T14-16,55.4,56,100,110,-115,,110,55,60,-65,60,135,145,150,150,320,SBD,One strength
G,Khaled Akkari,M,2001-10-22,22,Australia,NSW,Wraps,J20-23,81.4,82.5,175,190,200,,200,117.5,-125,125,125,215,230,242.5,242.5,567.5,SBD,Pasha pt
G,Frank Gyimah,M,2003-06-04,20,Australia,NSW,Wraps,J20-23,89.5,90,-220,230,,,230,132.5,145,150,150,277.5,-300.5,-300.5,277.5,657.5,SBD,Breakthrough Fitness
G,Volkan Yildirim,M,2003-05-03,20,Australia,NSW,Wraps,J20-23,96.4,100,-185,185,200,,200,130,135,137.5,137.5,202.5,210,220,220,557.5,SBD,Breakthrough Fitness
DQ,Jai Rogers,M,2001-03-17,22,Australia,NSW,Wraps,J20-23,105.8,110,-212.5,212.5,222.5,,222.5,97.5,-102.5,-102.5,97.5,-212.5,-212.5,-212.5,,,SBD,Team Pasha
G,Michael Boutros,M,2003-08-17,20,Australia,NSW,Wraps,J20-23,122.8,125,170,200,230,,230,142.5,150,155,155,170,200,240,240,625,SBD,Pasha PT
1,Ben Crombie,M,1977-02-09,47,Australia,NSW,Wraps,M40-49,120.2,125,265,272.5,280,,280,160,167.5,172.5,172.5,280,292.5,-302.5,292.5,745,SBD,One Strength!!!!!!!!!!!
2,Adam McInerney,M,1979-01-23,45,Australia,NSW,Wraps,M40-49,114.6,125,240,250,-260,,250,155,165,172.5,172.5,260,270,-280,270,692.5,SBD,Dig Deep Strength
1,Greg Sharp,M,1999-09-02,24,Australia,NSW,Wraps,Open,81.9,82.5,185,195,210,,210,100,110,-112.5,110,190,205,-220,205,525,SBD,One strength
1,Justen Mackay,M,1993-01-13,31,Australia,NSW,Wraps,Open,89.7,90,230,245,260,,260,175,185,-195,185,235,255,-260,255,700,SBD,Hadley's home gym
1,Aaron Ratcliffe,M,1992-12-11,31,Australia,NSW,Wraps,Open,99.6,100,260,270,,,270,200,-210,,200,275,292.5,300,300,770,SBD,Whittaker
2,Michael Sburlati,M,1988-01-22,36,Australia,NSW,Wraps,Open,95.7,100,215,230,235,,235,135,145,-150,145,200,230,-250,230,610,SBD,team pasha
1,Gavin Ratcliffe,M,1989-10-19,34,Australia,NSW,Wraps,Open,107.6,110,280,295,-305,,295,190,-200,205,205,280,-300,-300,280,780,SBD,Whittaker strength
2,Jesse Hansell,M,1997-07-03,26,Australia,NSW,Wraps,Open,103.4,110,220,235,240,,240,150,162.5,-167.5,162.5,225,240,247.5,247.5,650,SBD,Cowra Health Club
1,Jack Daley,M,1991-09-29,32,Australia,NSW,Wraps,Open,123.4,125,255,280,-300,,280,150,157.5,-162.5,157.5,240,262.5,275,275,712.5,SBD,One Strength
2,Zack DeRooy,M,1993-04-14,30,Australia,NSW,Wraps,Open,117.8,125,255,260,-270,,260,145,-152.5,,145,275,290,305,305,710,SBD,One Strength
1,Zhuojia Chen,M,2004-07-11,19,Australia,NSW,Wraps,S17-19,67.5,67.5,180,192.5,-200,,192.5,105,112.5,115,115,207.5,217.5,227.5,227.5,535,SBD,Team Cicc
2,John Mahlo,M,2005-07-25,18,Australia,NSW,Wraps,S17-19,67.5,67.5,175,190,-200,,190,110,120,-125,120,200,215,-222.5,215,525,SBD,One Strength
G,Tarek Akkari,M,2005-08-06,18,Australia,NSW,Wraps,S17-19,88.3,90,-215,215,-230,,215,132.5,142.5,-145,142.5,257.5,272.5,-275,272.5,630,SBD,Pasha pt
G,Yasser Kanj,M,2004-12-30,19,Australia,NSW,Wraps,S17-19,83.9,90,187.5,205,215,,215,105,-112.5,-112.5,105,212.5,230,245,245,565,SBD,Breakthrough Fitness/Pasha PT
1,Robert Hoxha,M,1959-12-14,64,Australia,NSW,Raw,M60-69,74.2,75,,,,,,,,,,175,182.5,-187.5,182.5,182.5,D,one strength
