Place,Name,BirthDate,Sex,BirthYear,Age,Country,State,Equipment,Division,BodyweightKg,WeightClassKg,Squat1Kg,Squat2Kg,Squat3Kg,Best3SquatKg,Squat4Kg,Bench1Kg,Bench2Kg,Bench3Kg,Best3BenchKg,Bench4Kg,Deadlift1Kg,Deadlift2Kg,Deadlift3Kg,Best3DeadliftKg,Deadlift4Kg,TotalKg,Event
1,Võ Thị Lệ,,F,,,,,Raw,Women's Raw Open,42.8,48,,,,,,25,27.5,30,30,,65,70,80,80,,110,BD
1,Nguyễn Mỹ Châu,,F,,,,,Raw,Women's Raw Open,54.8,56,,,,,,-65,65,-70,65,,155,165,170,170,,235,BD
2,Võ Nguyễn Thanh Nhi,,F,,,,,Raw,Women's Raw Open,54.6,56,,,,,,55,57.5,60,60,,150,-160,-160,150,,210,BD
3,Trần Nguyễn Gia Hân,,F,,,,,Raw,Women's Raw Open,53.5,56,,,,,,42.5,45,50,50,,95,100,105,105,,155,BD
1,Trần Thị Đoan Trang,,F,,,,,Raw,Women's Raw Open,57.55,60,,,,,,67.5,72.5,-75,72.5,,175,182.5,190,190,,262.5,BD
2,Hoa Kim Ngọc Quỳnh,,F,,,,,Raw,Women's Raw Open,58.4,60,,,,,,50,55,60,60,,105,115,122.5,122.5,,182.5,BD
1,Bùi Phúc Thiên Ân,,F,,,,,Raw,Women's Raw Open,73,60+,,,,,,37.5,42.5,50,50,,105,115,122.5,122.5,,172.5,BD
2,Phạm Thị Anh Tú,,F,,,,,Raw,Women's Raw Open,75.15,60+,,,,,,-35,37.5,42.5,42.5,,110,120,130,130,,172.5,BD
3,Phan Thị Tuyết Lan,,F,,,,,Raw,Women's Raw Open,64.35,60+,,,,,,35,37.5,40,40,,105,112.5,117.5,117.5,,157.5,BD
1,Lê Phước Nghĩa,,M,,,,,Raw,Guest Lifter,,,,,,,,130,135,140,140,,200,210,225,225,,365,BD
1,Nguyễn Thi Tấn Tài,,M,,,,,Raw,Men's Raw Open,64.4,67.5,,,,,,125,132.5,-137.5,132.5,,220,235,250,250,,382.5,BD
2,Nguyễn Lê Quí,,M,,,,,Raw,Men's Raw Open,66.8,67.5,,,,,,137.5,145,152.5,152.5,,215,225,230,230,,382.5,BD
3,Trương Vi Bình,,M,,,,,Raw,Men's Raw Open,66,67.5,,,,,,125,135,142.5,142.5,,200,220,-227.5,220,,362.5,BD
4,Phạm Hoàng Việt,,M,,,,,Raw,Men's Raw Open,66.95,67.5,,,,,,92.5,100,-107.5,100,,205,215,225,225,,325,BD
5,Hồ Anh Kiệt,,M,,,,,Raw,Men's Raw Open,65.3,67.5,,,,,,100,-107.5,-107.5,100,-107.5,200,215,-225,215,,315,BD
6,Vũ Phạm Sĩ,,M,,,,,Raw,Men's Raw Open,66.1,67.5,,,,,,95,115,-120,115,,180,195,-205,195,,310,BD
7,Võ Gia Khang,,M,,,,,Raw,Men's Raw Open,65.35,67.5,,,,,,92.5,100,-110,100,,165,180,-192.5,180,,280,BD
8,Nguyễn Minh Nhật,,M,,,,,Raw,Men's Raw Open,66.3,67.5,,,,,,75,80,85,85,,175,185,195,195,,280,BD
9,Nguyễn Gia Tịnh,,M,,,,,Raw,Men's Raw Open,65.6,67.5,,,,,,87.5,97.5,105,105,,155,162.5,-170,162.5,,267.5,BD
10,Nguyễn Huỳnh Hòa Hiệp,,M,,,,,Raw,Men's Raw Open,65.55,67.5,,,,,,85,92.5,-100,92.5,,170,-185,-187.5,170,,262.5,BD
11,Trần Di Thái,,M,,,,,Raw,Men's Raw Open,65.5,67.5,,,,,,75,82.5,-90,82.5,,155,165,172.5,172.5,,255,BD
12,Lê Bùi Minh Man,,M,,,,,Raw,Men's Raw Open,66.95,67.5,,,,,,70,75,-80,75,,140,150,155,155,,230,BD
1,Trần Quán Anh,,M,,,,,Raw,Men's Raw Open,74.35,75,,,,,,130,140,-145,140,,220,235,250,250,,390,BD
2,Trương Nguyễn Gia Khiêm,,M,,,,,Raw,Men's Raw Open,74.35,75,,,,,,115,125,130,130,,235,250,-265,250,,380,BD
3,Nguyễn Ngọc Thanh Hoàng,,M,,,,,Raw,Men's Raw Open,74.4,75,,,,,,112.5,117.5,-120,117.5,,245,260,-267.5,260,,377.5,BD
4,Hoàng Ngọc Anh,,M,,,,,Raw,Men's Raw Open,72.65,75,,,,,,110,117.5,-122.5,117.5,,225,235,245,245,,362.5,BD
5,Nguyễn Lai Thiện Nhận,,M,,,,,Raw,Men's Raw Open,72.5,75,,,,,,110,117.5,-122.5,117.5,,210,-225,-225,210,,327.5,BD
6,Nguyễn Tấn Lực,,M,,,,,Raw,Men's Raw Open,74.2,75,,,,,,115,120,-125,120,,205,-215,-215,205,,325,BD
7,Trần Tiến Đạt,,M,,,,,Raw,Men's Raw Open,73.75,75,,,,,,100,-110,-110,100,,195,210,-220,210,,310,BD
8,Nguyễn Hải Đăng,,M,,,,,Raw,Men's Raw Open,73.3,75,,,,,,95,105,-112.5,105,,155,170,182.5,182.5,,287.5,BD
9,Trương Quang Huy,,M,,,,,Raw,Men's Raw Open,71.35,75,,,,,,95,105,-110,105,,150,-152.5,-170,150,,255,BD
1,Võ Chí Cường,,M,,,,,Raw,Men's Raw Open,79.2,82.5,,,,,,145,-160,160,160,,250,262.5,-270,262.5,,422.5,BD
2,Nguyễn Quốc Lương,,M,,,,,Raw,Men's Raw Open,82.45,82.5,,,,,,132.5,-140,-140,132.5,,220,235,-245,235,,367.5,BD
3,Lê Hoàng Phúc,,M,,,,,Raw,Men's Raw Open,81.1,82.5,,,,,,120,135,-145,135,,205,225,-235,225,,360,BD
4,Cao Minh Chiến,,M,,,,,Raw,Men's Raw Open,80.5,82.5,,,,,,127.5,132.5,137.5,137.5,,192.5,202.5,207.5,207.5,,345,BD
5,Huỳnh Vĩ Minh,,M,,,,,Raw,Men's Raw Open,81.7,82.5,,,,,,127.5,132.5,137.5,137.5,,195,207.5,-217.5,207.5,,345,BD
6,Nguyễn Luc Phú Duy,,M,,,,,Raw,Men's Raw Open,78.95,82.5,,,,,,110,115,120,120,,210,222.5,-230,222.5,,342.5,BD
7,Phạm Trường An,,M,,,,,Raw,Men's Raw Open,80.2,82.5,,,,,,120,127.5,-135,127.5,,205,-215,-215,205,,332.5,BD
8,Bùi Ngọc Thắng,,M,,,,,Raw,Men's Raw Open,79.1,82.5,,,,,,105,115,-120,115,,190,205,-215,205,,320,BD
9,Lê Hữu Tài,,M,,,,,Raw,Men's Raw Open,78.45,82.5,,,,,,-120,125,-132.5,125,,190,-202.5,-202.5,190,,315,BD
10,Võ Khải Minh,,M,,,,,Raw,Men's Raw Open,81.2,82.5,,,,,,100,105,110,110,,180,195,205,205,,315,BD
11,Đoàn Anh Khoa,,M,,,,,Raw,Men's Raw Open,81.6,82.5,,,,,,95,105,-115,105,,185,192.5,-205,192.5,,297.5,BD
12,Ngô Gia Huy,,M,,,,,Raw,Men's Raw Open,78.4,82.5,,,,,,65,67.5,-75,67.5,,130,140,150,150,,217.5,BD
1,Bùi Đỗ Anh Kiệt,,M,,,,,Raw,Men's Raw Open,88.75,90,,,,,,130,150,160,160,,240,255,-270,255,,415,BD
2,Trần Phúc Lộc,,M,,,,,Raw,Men's Raw Open,87.75,90,,,,,,132.5,137.5,145,145,,240,-242.5,-270,240,,385,BD
3,Đinh Hoàng Minh Quân,,M,,,,,Raw,Men's Raw Open,84,90,,,,,,-85,87.5,100,100,,160,172.5,180,180,,280,BD
1,Nhan Minh Triết,,M,,,,,Raw,Men's Raw Open,103.7,90+,,,,,,162.5,172.5,180,180,,260,275,285,285,,465,BD
2,Nguyễn Hoàng Anh Duy,,M,,,,,Raw,Men's Raw Open,114.8,90+,,,,,,145,155,162.5,162.5,,255,270,285,285,,447.5,BD
3,Hà Mạnh Hải,,M,,,,,Raw,Men's Raw Open,93.65,90+,,,,,,140,155,-162.5,155,,225,240,260,260,,415,BD
4,Hoàng Tuấn Minh,,M,,,,,Raw,Men's Raw Open,110.3,90+,,,,,,120,-140,-142.5,120,,215,225,232.5,232.5,,352.5,BD
5,Lê Gia Lương,,M,,,,,Raw,Men's Raw Open,120.3,90+,,,,,,95,-105,-110,95,,175,185,200,200,,295,BD
6,Nguyễn Lê Gia Huy,,M,,,,,Raw,Men's Raw Open,95.7,90+,,,,,,65,75,87.5,87.5,,175,187.5,202.5,202.5,,290,BD
7,Nguyễn Phi Long,,M,,,,,Raw,Men's Raw Open,108.65,90+,,,,,,85,90,97.5,97.5,,165,175,190,190,,287.5,BD
