Place,Name,Sex,BirthDate,Age,Country,Equipment,Division,BodyweightKg,WeightClassKg,Squat1Kg,Squat2Kg,Squat3Kg,Best3SquatKg,Bench1Kg,Bench2Kg,Bench3Kg,Bench4Kg,Best3BenchKg,Deadlift1Kg,Deadlift2Kg,Deadlift3Kg,Deadlift4Kg,Best3DeadliftKg,TotalKg,Event,Team
1,Gissel Gómez,F,2007-04-22,16,Colombia,Sleeves,J14-16,46.2,48,115,122.5,125,125,55,57.5,60,,60,125,130,132.5,,132.5,317.5,SBD,ATLAS
1,Mariangel Aparicio,F,2008-06-23,15,Colombia,Sleeves,J14-16,53,56,120,-127.5,-127.5,120,-52.5,52.5,-55,,52.5,145,-155,-155,,145,317.5,SBD,ATLAS
2,Nicol Marcucci,F,2008-12-29,15,Colombia,Sleeves,J14-16,55.1,56,90,100,107.5,107.5,42.5,-45,45,,45,107.5,-115,-115,,107.5,260,SBD,ATLAS
3,Valentina Quintero,F,,16,Colombia,Sleeves,J14-16,52.5,56,75,80,-85,80,32.5,35,-37.5,,35,100,110,-120,,110,225,SBD,
1,Sara Blanco,F,2008-05-20,,Colombia,Sleeves,J14-16,56.9,60,70,75,80,80,25,30,-32.5,,30,80,90,100,-110,100,210,SBD,ATLAS
1,Ailleen Rozo,F,2006-09-12,17,Colombia,Sleeves,J17-19,51.3,52,120,130,-135,130,-50,-50,50,,50,120,130,-137.5,,130,310,SBD,SNOWDRAGON
2,Paulina Martinez,F,2007-04-02,17,Colombia,Sleeves,J17-19,50.8,52,100,105,110,110,52.5,57.5,-60,,57.5,125,130,-135,,130,297.5,SBD,POWERCARTEL
1,Valentina Ulloa,F,2004-04-23,19,Colombia,Sleeves,J17-19,55.8,56,127.5,132.5,137.5,137.5,65,70,-71,,70,130,135,137.5,,137.5,345,SBD,POWERCARTEL
2,Luna Canedo,F,2006-11-27,17,Colombia,Sleeves,J17-19,52.5,56,105,115,120,120,-52.5,-52.5,52.5,,52.5,140,-150,-150,,140,312.5,SBD,SNOWDRAGON
1,Anni Garcia,F,2005-01-25,19,Colombia,Sleeves,J17-19,60,60,127.5,-132.5,-132.5,127.5,-65,65,67.5,,67.5,135,140,-145,,140,335,SBD,BOGOTA
2,Ania Castellanos,F,2006-06-11,17,Colombia,Sleeves,J17-19,56.3,60,105,110,115,115,55,-60,-60,,55,120,-130,130,,130,300,SBD,CHIA
3,Kaliana Alegrias,F,2005-08-05,18,Colombia,Sleeves,J17-19,57.1,60,95,105,-110,105,52.5,57.5,-60,,57.5,110,120,-125,,120,282.5,SBD,SNOWDRAGON
4,Sara Caro,F,2005-08-10,,Colombia,Sleeves,J17-19,59.2,60,100,-107.5,-107.5,100,47.5,-50,50,,50,115,-120,-120,,115,265,SBD,BOYACA
5,Julexy Vargas,F,2006-10-16,,Colombia,Sleeves,J17-19,60,60,100,-110,-110,100,-52.5,52.5,57.5,,57.5,105,-112.5,-115,,105,262.5,SBD,SNOWDRAGON
1,Alexa Serrano,F,,19,Colombia,Sleeves,J17-19,65.7,67.5,130,140,-150,140,65,70,-72.5,,70,130,140,150,,150,360,SBD,
2,Wendy Alba,F,2005-08-07,18,Colombia,Sleeves,J17-19,66.9,67.5,120,130,-135,130,70,-75,-75,,70,130,-140,-150,,130,330,SBD,SNOWDRAGON
3,Lirireth Rivera,F,2004-04-26,19,Colombia,Sleeves,J17-19,65.6,67.5,95,102.5,110,110,-70,-70,70,-73,70,115,122.5,132.5,,132.5,312.5,SBD,STREGHT DISSIDENCE
1,Maria Fernanda Bolaños,F,,19,Colombia,Sleeves,J17-19,71.8,75,127.5,135,-140,135,50,52.5,-55,,52.5,140,-150,-150,,140,327.5,SBD,
2,Maykelin Jaimes,F,2007-08-14,,Colombia,Sleeves,J14-16,73.5,75,120,-127.5,-127.5,120,-50,50,-55,,50,120,130,140,,140,310,SBD,ATLAS
3,Nathalia Duran,F,2005-02-06,19,Colombia,Sleeves,J17-19,70.1,75,85,-95,95,95,42.5,45,-50,,45,100,107.5,-112.5,,107.5,247.5,SBD,ATLAS
1,Paola Berbeci,F,2006-05-15,17,Colombia,Sleeves,J17-19,84.9,90,110,120,130,130,32.5,37.5,-40,,37.5,110,120,-130,,120,287.5,SBD,ATLAS
1,Luisa Fernanda Hoyos,F,2004-01-24,20,Colombia,Sleeves,J20-23,55,56,127.5,132.5,133.5,133.5,70,-75,75,,75,150,155,-160,,155,363.5,SBD,POWERCARTEL
2,Estefani Jimenez Garcia,F,2000-12-29,23,Colombia,Sleeves,J20-23,55.7,56,90,100,105,105,45,50,-52.5,,50,100,-110,110,,110,265,SBD,SNOWDRAGON
3,Sara Quintana,F,2004-03-04,20,Colombia,Sleeves,J20-23,53,56,80,90,-100,90,-45,45,-50,,45,110,-117.5,-117.5,,110,245,SBD,SNOWDRAGON
4,Camila Zambrano,F,2002-03-13,22,Colombia,Sleeves,J20-23,53.1,56,80,92.5,-100,92.5,37.5,-40,-40,,37.5,90,95,97.5,,97.5,227.5,SBD,RAMON
1,Vanessa Carvajal,F,2003-11-26,20,Colombia,Sleeves,J20-23,64.1,67.5,105,115,-120,115,45,50,52.5,,52.5,100,110,117.5,,117.5,285,SBD,SNOWDRAGON
2,Daniela Bermon,F,2001-10-29,22,Colombia,Sleeves,J20-23,63,67.5,-110,110,-120,110,40,45,-47.5,,45,110,120,-130,,120,275,SBD,ATLAS
1,Luna Canedo,F,2006-11-27,17,Colombia,Sleeves,Open,52.5,56,105,115,120,120,-52.5,-52.5,52.5,,52.5,140,-150,-150,,140,312.5,SBD,SNOWDRAGON
2,Gabriela Minerva,F,2004-06-20,19,Colombia,Sleeves,Open,53.9,56,82.5,90,-95,90,40,45,47.5,,47.5,110,120,130,,130,267.5,SBD,RAGNAR POWER
1,Yadira Patiño,F,,41,Colombia,Sleeves,Open,59.4,60,120,127.5,-132.5,127.5,45,-52.5,52.5,,52.5,130,-135,135,,135,315,SBD,TEAM YAYO
2,Lizhet Peñaranda,F,1998-08-24,25,Colombia,Sleeves,Open,56.4,60,100,110,-115,110,45,50,52.5,,52.5,125,135,140,,140,302.5,SBD,
1,Alva Rivas,F,1998-09-10,25,Colombia,Sleeves,Open,66.2,67.5,160,170,177.5,177.5,100,-105,105,-106,105,165,175,-177.5,,175,457.5,SBD,POWERCARTEL
2,Luddy Ortega,F,1990-10-04,33,Colombia,Sleeves,Open,65.1,67.5,160,170,-177.5,170,65,70,72.5,,72.5,132.5,142.5,-0,,142.5,385,SBD,ATLAS
NS,Luis Mora,M,,,,Sleeves,J14-16,,,,,,,,,,,,,,,,,,SBD,
NS,Yhon Alexander Daza,M,,,,Sleeves,J14-16,,,,,,,,,,,,,,,,,,SBD,
1,Gregory Garzon Gonzales,M,,15,,Sleeves,J14-16,63.7,67.5,-92.5,92.5,-97.5,92.5,-62.5,62.5,-67.5,,62.5,140,147.5,-152.5,,147.5,302.5,SBD,
1,Brayan Blanco,M,,16,,Sleeves,J14-16,69.4,75,140,150,-155,150,60,65,-67.5,,65,185,195,-200,,195,410,SBD,
NS,Duberney Rios,M,,,,Sleeves,J17-19,,,,,,,,,,,,,,,,,,SBD,
NS,Jeison Suarez,M,,,,Sleeves,J17-19,,,,,,,,,,,,,,,,,,SBD,
NS,Joaquin Dominguez,M,,,,Sleeves,J17-19,,,,,,,,,,,,,,,,,,SBD,
NS,Jose Alejandro Martinez,M,,,,Sleeves,J17-19,,,,,,,,,,,,,,,,,,SBD,
NS,Sergio Caballero,M,,,,Sleeves,J17-19,,,,,,,,,,,,,,,,,,SBD,
1,Jose David Vergara,M,,17,,Sleeves,J17-19,52.2,56,115,120,125,125,70,77.5,80,,80,151,160,165,170,165,370,SBD,
2,Gabriel Tarazona,M,,18,Colombia,Sleeves,J17-19,54.9,56,-110,110,-120,110,60,65,70,,70,130,140,150,,150,330,SBD,ATLAS
3,Miguel Duarte,M,,19,Colombia,Sleeves,J17-19,54.6,56,105,112.5,117.5,117.5,62.5,-70,-70,,62.5,147.5,-157.5,-157.5,,147.5,327.5,SBD,SNOWDRAGON
4,Jhorman Delgado,M,,17,Colombia,Sleeves,J17-19,56,56,92.5,105,112.5,112.5,47.5,55,-60,,55,120,130,-140,,130,297.5,SBD,SNOWDRAGON
1,Jesús Rodríguez,M,,19,,Sleeves,J17-19,59.2,60,170,-182.5,-185,170,110,120,-125,,120,190,200,210,,210,500,SBD,
1,Diego Rodriguez,M,,19,,Sleeves,J17-19,66,67.5,165,-177.5,182.5,182.5,115,123,-125,,123,190,-200,205,,205,510.5,SBD,STRATEGIES LT
2,Sergio Beltran,M,,19,,Sleeves,J17-19,66.9,67.5,160,-167.5,-167.5,160,-105,105,-110,,105,197.5,207.5,-211,,207.5,472.5,SBD,
3,Jhon Anderson Pinto,M,,19,,Sleeves,J17-19,64.6,67.5,150,160,-162.5,160,90,97.5,-100,,97.5,195,-205,212.5,-213.5,212.5,470,SBD,
4,Santiago Ramirez,M,,17,,Sleeves,J17-19,66,67.5,150,157.5,162.5,162.5,80,-85,-85,,80,-190,190,205,213,205,447.5,SBD,
5,Dayhan Romero,M,,19,,Sleeves,J17-19,66.2,67.5,152.5,-160,162.5,162.5,90,95,-97.5,,95,165,-175,175,,175,432.5,SBD,
6,Julian Gomez,M,,18,,Sleeves,J17-19,66.6,67.5,140,150,155,155,97.5,-102.5,-102.5,,97.5,160,170,-177.5,,170,422.5,SBD,SNOWDRAGON
7,Jaime Cruz,M,,19,Colombia,Sleeves,J17-19,67.1,67.5,140,150,157.5,157.5,77.5,-82.5,-82.5,,77.5,155,165,-170,,165,400,SBD,SNOWDRAGON
8,Yormay De Pablos,M,,17,,Sleeves,J17-19,61.9,67.5,115,122.5,-135,122.5,70,-85,-85,,70,145,160,-175,,160,352.5,SBD,
9,Jose Antonio Gomez,M,,17,,Sleeves,J17-19,65.5,67.5,100,110,120,120,60,65,70,,70,125,135,-140,,135,325,SBD,
1,Sebastian Garzon,M,,18,,Sleeves,J17-19,74.7,75,185,195,202.5,202.5,112.5,120,125,,125,-250,255.5,261,,261,588.5,SBD,
2,Gero Escobar,M,,18,,Sleeves,J17-19,74.4,75,205,212.5,217.5,217.5,122.5,-127.5,-127.5,,122.5,235,-240,-245,,235,575,SBD,
3,Julian Suesca,M,,19,,Sleeves,J17-19,72.3,75,-195,195,-200,195,125,-130,-130,,125,215,222.5,-225,,222.5,542.5,SBD,
4,Miguel Santiago Ospitia,M,,18,,Sleeves,J17-19,73.7,75,142.5,155,162.5,162.5,100,107.5,115,,115,177.5,192.5,202.5,,202.5,480,SBD,
5,Neiber Araque,M,,19,,Sleeves,J17-19,75,75,-155,155,-165,155,97.5,102.5,-105,,102.5,185,-195,-195,,185,442.5,SBD,
6,Luis Alejandro Sanchez,M,,17,,Sleeves,J17-19,70.6,75,142.5,150,155,155,67.5,72.5,77.5,,77.5,180,187.5,192.5,,192.5,425,SBD,
7,Edgar Torres,M,,19,,Sleeves,J17-19,70.4,75,120,132.5,142.5,142.5,80,87.5,-92.5,,87.5,65,-0,-0,,65,295,SBD,
NS,Alejandro Ponton,M,,,,Sleeves,J20-23,,,,,,,,,,,,,,,,,,SBD,
NS,Diego Devia,M,,,,Sleeves,J20-23,,,,,,,,,,,,,,,,,,SBD,
NS,Jhan Norbey Chaparro,M,,,,Sleeves,J20-23,,,,,,,,,,,,,,,,,,SBD,
NS,Leandro Correa,M,,,,Sleeves,J20-23,,,,,,,,,,,,,,,,,,SBD,
1,Ramon Vargas,M,,23,Colombia,Sleeves,J20-23,59.3,60,230,240,-245,240,147.5,150,152.5,,152.5,255,262.5,-267.5,,262.5,655,SBD,POWERCARTEL
2,Juan Jose Ortiz Sanchez,M,,22,Colombia,Sleeves,J20-23,56.8,60,160,170,175,175,110,115,-120,,115,200,210,-217.5,,210,500,SBD,SNOWDRAGON
3,Johan Chacon Mazo,M,,22,,Sleeves,J20-23,60,60,100,120,-137.5,120,65,72.5,-75,,72.5,145,155,165,,165,357.5,SBD,
1,Dawid Chaparro,M,,21,,Sleeves,J20-23,66.9,67.5,170,180,185,185,112.5,117.5,120,,120,190,200,207.5,,207.5,512.5,SBD,
1,Antony Bernal,M,,22,,Sleeves,J20-23,74.4,75,210,215,-225,215,150,-155,-155,,150,230,245,-260,,245,610,SBD,
2,Giovanni Barrera,M,,20,Colombia,Sleeves,J20-23,75,75,177.5,192.5,200,200,132.5,-137.5,-137.5,,132.5,205,215,222.5,,222.5,555,SBD,SNOWDRAGON
3,Miguel Rizo,M,,20,Colombia,Sleeves,J20-23,74.8,75,202.5,-208.5,208.5,208.5,107.5,110,-112.5,,110,205,212.5,217.5,,217.5,536,SBD,ATLAS
4,Jibram Gutierrez,M,,22,Colombia,Sleeves,J20-23,69.6,75,160,172.5,180,180,87.5,95,-100,,95,200,220,230,,230,505,SBD,STRATEGIES LT
5,Sebastian Sanchez,M,,23,Colombia,Sleeves,J20-23,74.8,75,-160,160,170,170,100,105,-107.5,,105,170,180,-190,,180,455,SBD,SNOWDRAGON
6,Daniel Melgarejo,M,,22,Colombia,Sleeves,J20-23,73.7,75,120,130,-135,130,50,-55,-55,,50,155,165,-170,,165,345,SBD,ATLAS
1,Alberto Camargo,M,,43,,Sleeves,M40-44,71.3,75,132.5,140,-145,140,115,117.5,120,,120,-150,160,170,,170,430,SBD,STREGHT DISSIDENCE
NS,Alexander Madrid,M,,,,Sleeves,Open,,,,,,,,,,,,,,,,,,SBD,
NS,Cesar Augusto Mona,M,,,,Sleeves,Open,,,,,,,,,,,,,,,,,,SBD,
NS,Daniel Guzman,M,,,,Sleeves,Open,,,,,,,,,,,,,,,,,,SBD,
NS,David Gonzales,M,,,,Sleeves,Open,,,,,,,,,,,,,,,,,,SBD,
NS,Jairo Alexi Duarte,M,,,,Sleeves,Open,,,,,,,,,,,,,,,,,,SBD,
NS,Pablo Camacho,M,,,,Sleeves,Open,,,,,,,,,,,,,,,,,,SBD,SNOWDRAGON
1,Ramon Vargas,M,,23,Colombia,Sleeves,Open,59.3,60,230,240,-245,240,147.5,150,152.5,,152.5,255,262.5,-267.5,,262.5,655,SBD,POWERCARTEL
2,Fabián Herrera #1,M,1998-05-14,25,Colombia,Sleeves,Open,59.4,60,145,155,162.5,162.5,95,-100,100,,100,190,200,205,,205,467.5,SBD,SNOWDRAGON-STREGHT DISSIDENCE
1,Fabian Rosales,M,,25,Colombia,Sleeves,Open,73,75,205,215,225,225,135,140,-145,,140,250,260,-267.5,,260,625,SBD,YAYO
2,Jose Luis Camacho,M,,31,,Sleeves,Open,73.1,75,180,190,200,200,120,125,-127.5,,125,200,210,-220,,210,535,SBD,
3,Anthony Rondon,M,,28,,Sleeves,Open,73.6,75,180,187.5,192.5,192.5,-120,120,127.5,,127.5,190,200,-210,,200,520,SBD,
4,Jean Carlos Robles,M,,25,Colombia,Sleeves,Open,74,75,170,180,-185,180,135,-142.5,-142.5,,135,182.5,192.5,-200,,192.5,507.5,SBD,SNOWDRAGON
5,Carlos Pizarro,M,,29,,Sleeves,Open,74.4,75,170,177.5,-180,177.5,110,-115,-115,,110,180,190,200,,200,487.5,SBD,
1,Manuel Lopez,M,,15,Colombia,Sleeves,J14-16,75.3,82.5,200,205,-210,205,120,125,127.5,,127.5,260,-275,-275,,260,592.5,SBD,POWERCARTEL
2,Matias Melo,M,,15,,Sleeves,J14-16,80.6,82.5,160,170,-180,170,-90,100,105,,105,180,190,200,,200,475,SBD,
3,Juan Sebastian Meza,M,,16,,Sleeves,J14-16,81.6,82.5,125,135,145,145,60,67.5,70,,70,150,162.5,-172.5,,162.5,377.5,SBD,
NS,Alejandro Osorio,M,,,,Sleeves,J17-19,,,,,,,,,,,,,,,,,,SBD,
NS,Frank Alexander Martinez,M,,,,Sleeves,J17-19,,,,,,,,,,,,,,,,,,SBD,
1,Julian Fernando Otavo,M,,19,,Sleeves,J17-19,78,82.5,210,-217.5,-217.5,210,-142.5,142.5,-150,,142.5,75,85,105,,105,457.5,SBD,STRATEGIES LT
1,Tomas Betancur,M,,19,,Sleeves,J17-19,86,90,185,195,202.5,202.5,130,135,137.5,,137.5,190,200,-210,,200,540,SBD,SNOWDRAGON
2,Andres Felipe Moreno,M,,19,,Sleeves,J17-19,85.8,90,167.5,172.5,180,180,75,82.5,90,,90,175,182.5,192.5,,192.5,462.5,SBD,
1,Jhon Alexander Rubio,M,,18,,Sleeves,J17-19,100,100,190,200,-207.5,200,127.5,132.5,137.5,,137.5,195,205,-210,,205,542.5,SBD,SNOWDRAGON
2,Jesus Celis,M,,18,,Sleeves,J17-19,97.4,100,190,200,-205,200,100,107.5,110,,110,195,-205,210,,210,520,SBD,
NS,Camilo Astaiza,M,,,,Sleeves,J20-23,,,,,,,,,,,,,,,,,,SBD,
NS,Esteban Castro,M,,,,Sleeves,J20-23,,,,,,,,,,,,,,,,,,SBD,
NS,Juan Pablo Rivera,M,,,,Sleeves,J20-23,,,,,,,,,,,,,,,,,,SBD,
NS,Julian David Perez,M,,,,Sleeves,J20-23,,,,,,,,,,,,,,,,,,SBD,
NS,Luis Carlos Niño,M,,,,Sleeves,J20-23,,,,,,,,,,,,,,,,,,SBD,
NS,Miguel Angel Herrera,M,,,,Sleeves,J20-23,,,,,,,,,,,,,,,,,,SBD,
1,Santiago Roldan,M,,23,Colombia,Sleeves,J20-23,80.9,82.5,267.5,282.5,-290.5,282.5,155,167.5,172.5,,172.5,310,330.5,-345,,330.5,785.5,SBD,BARBELLCULTURE
2,Isco Afanador,M,,23,,Sleeves,J20-23,80.8,82.5,170,185,-190,185,100,107.5,112.5,,112.5,185,197.5,205,,205,502.5,SBD,RAMON
1,Alexis Contreras #1,M,,22,Colombia,Sleeves,J20-23,85.9,90,240,247.5,252.5,252.5,140,150,155,,155,290,305,-310,,305,712.5,SBD,
2,Ricardo Manjon,M,,23,,Sleeves,J20-23,88.1,90,195,200,-205,200,105,-110,-110,,105,222.5,230,-232.5,,230,535,SBD,
1,Victor Sanchez,M,,23,,Sleeves,J20-23,96.7,100,-265,265,270,270,150,160,-165,,160,265,275,-282.5,,275,705,SBD,
2,Sebastian Polanco,M,,20,,Sleeves,J20-23,99.5,100,215,225,-235,225,120,-127.5,127.5,,127.5,215,225,-230,,225,577.5,SBD,SNOWDRAGON
3,Juan Pablo Mena,M,,22,,Sleeves,J20-23,90.1,100,-175,175,185,185,90,95,105,,105,185,195,210,,210,500,SBD,
4,Daniel Garcia #22,M,,21,,Sleeves,J20-23,91.2,100,170,180,182.5,182.5,97.5,102.5,107.5,,107.5,190,197.5,202.5,,202.5,492.5,SBD,
NS,Alberto Camargo,M,,,,Sleeves,M40-44,,,,,,,,,,,,,,,,,,SBD,
1,Juan Carlos Agudelo,M,,42,,Sleeves,M40-44,96.6,100,235,-247.5,250,250,152.5,165,-175,,165,225,235,250,,250,665,SBD,
NS,Carlos Pizarro,M,,,,Sleeves,Open,,,,,,,,,,,,,,,,,,SBD,
NS,Daniel Perez,M,,,,Sleeves,Open,,,,,,,,,,,,,,,,,,SBD,
NS,Paolo Theran,M,,,,Sleeves,Open,,,,,,,,,,,,,,,,,,SBD,
1,Santiago Roldan,M,,23,Colombia,Sleeves,Open,80.9,82.5,267.5,282.5,-290.5,282.5,155,167.5,172.5,,172.5,310,330.5,-345,,330.5,785.5,SBD,BARBELLCULTURE
2,Edgar Camilo Becerra,M,,24,,Sleeves,Open,82.1,82.5,225,235,-245,235,125,130,132.5,,132.5,250,-260,-260,,250,617.5,SBD,
3,Josman Carrascal,M,,27,,Sleeves,Open,78.4,82.5,220,-230,-230,220,137.5,-145,145,,145,230,240,250,,250,615,SBD,
4,Jairo Duarte,M,,26,,Sleeves,Open,79.4,82.5,175,190,195,195,-140,140,-145,,140,200,215,220,,220,555,SBD,
1,Alexis Contreras #1,M,,22,Colombia,Sleeves,Open,85.9,90,240,247.5,252.5,252.5,140,150,155,,155,290,305,-310,,305,712.5,SBD,
2,Ramon Jativa,M,,31,,Sleeves,Open,89.7,90,230,240,-250,240,160,165,-167.5,,165,240,245,-250,,245,650,SBD,
3,Gabriel Leon,M,,28,,Sleeves,Open,89.8,90,215,-225,225,225,120,127.5,132.5,,132.5,260,270,280,,280,637.5,SBD,POWERCARTEL
4,Jose Stiven Olarte,M,,32,,Sleeves,Open,85.3,90,-200,200,210,210,120,122.5,130,,130,245,255,262.5,,262.5,602.5,SBD,
5,Adrian Ospitia,M,,24,,Sleeves,Open,89.9,90,220,-230,,220,147.5,155,157.5,,157.5,225,-242.5,-252.5,,225,602.5,SBD,
6,Mauricio Beltran,M,,25,,Sleeves,Open,88.8,90,190,202.5,207.5,207.5,135,137.5,-140,,137.5,195,205,215,,215,560,SBD,
7,Ricardo Manjon,M,,23,,Sleeves,Open,88.1,90,195,200,-205,200,105,-110,-110,,105,222.5,230,-232.5,,230,535,SBD,
8,Samuel Paez,M,,25,,Sleeves,Open,89.6,90,180,-195,200,200,105,110,-115,,110,175,185,200,,200,510,SBD,
9,Luis Angel Lopez,M,,24,,Sleeves,Open,88,90,192.5,200,-202.5,200,95,-100,-100,,95,195,202.5,-210,,202.5,497.5,SBD,
1,Romeo Morales,M,,33,,Sleeves,Open,99.8,100,300,-320,-320,300,160,170,182.5,,182.5,280,-290,-295,,280,762.5,SBD,
2,Yeison Arango,M,,31,Colombia,Sleeves,Open,99.8,100,250,-260,265,265,150,160,165,,165,250,265,270,,270,700,SBD,ATLAS
3,Juan Carlos Agudelo,M,,42,,Sleeves,Open,96.6,100,235,-247.5,250,250,152.5,165,-175,,165,225,235,250,,250,665,SBD,
4,Bladimir Diaz Granados,M,,26,,Sleeves,Open,94.2,100,190,200,210,210,130,135,-140,,135,230,245,260,,260,605,SBD,
5,Juan Pablo Alfonso Gerena,M,,30,Colombia,Sleeves,Open,99.6,100,210,220,222.5,222.5,135,-140,-140,,135,225,235,245,,245,602.5,SBD,SNOWDRAGON
1,Yeison Arango,M,,31,Colombia,Sleeves,Open,99.8,100,,,,,150,160,165,,165,,,,,,165,B,ATLAS
