Name,Division,BodyweightLbs,WeightClassLbs,BirthDate,Age,Best3SquatLbs,Squat4Lbs,Best3BenchLbs,Best3DeadliftLbs,Deadlift4Lbs,TotalLbs,Place,Event,Sex,Equipment
Kenna Hoffman,Amateur Teen 14-15,123,123,,14,190,,115,255,265,560,1,SBD,F,Wraps
Jennifer Breneman,Amateur Masters 40-44,148.4,148,,42,175,,150,235,,560,1,SBD,F,Raw
Samantha Bitner,Amateur Open,138.8,148,,33,230,,135,300,,665,1,SBD,F,Raw
Rachel King,Amateur Juniors 20-23,139.8,148,,21,240,,165,315,,720,1,SBD,F,Wraps
Gabby Morreale,Amateur Open,145,148,,28,270,,165,315,,750,1,SBD,F,Wraps
Susanne Fuhrman,Amateur Masters 55-59,162.4,165,,55,187.5,,115,260,,562.5,1,SBD,F,Raw
Lauren Johnson,Amateur Teen 16-17,163,165,,16,230,,120,270,,620,1,SBD,F,Raw
Sarah Keiser,Pro Open,158.2,165,,25,380,,185,375,,940,1,SBD,F,Wraps
Khelsea Borror,Amateur Open,176.6,181,,32,215,,120,300,,635,1,SBD,F,Wraps
Miranda Falk,Amateur Open,193.6,198,,34,280,,130,400,,810,1,SBD,F,Wraps
Sarah E Korty,Pro Juniors 20-23,191,198,,23,285,,245,350,,880,1,SBD,F,Wraps
Randi Showalter,Amateur Submasters 33-39,220,220,,38,250,,170,300,,720,1,SBD,F,Wraps
Alicia Marino,Amateur Open,230.2,242,,28,365,,205,315,,885,1,SBD,F,Wraps
Katie Lloyd,Amateur Open,250.4,242+,,37,235,,135,335,,705,2,SBD,F,Raw
Marissa Stauffer,Amateur Open,307,242+,,29,285,,135,300,,720,1,SBD,F,Raw
Auggie Gullo,Amateur Teen 14-15,124,132,,15,310,,200,370,,880,1,SBD,M,Raw
Richard Murphy,Amateur Masters 55-59,144.2,148,,56,340,,240,300,,880,1,SBD,M,Raw
Richard Murphy,Military Amateur Masters 50+,144.2,148,,56,340,,240,300,,880,1,SBD,M,Raw
Noah Hawk,Amateur Teen 18-19,146.6,148,,19,370,,220,500,512.5,1090,1,SBD,M,Wraps
Aaron Diffenderfer,Amateur Open,163.8,165,,30,325,,210,350,,885,2,SBD,M,Wraps
Nick Vogelsang,Amateur Open,165,165,,32,435,,300,510,,1245,1,SBD,M,Wraps
Connor Jones,Pro Juniors 20-23,163,165,,20,700,,500,675,,1875,1,SBD,M,Unlimited
Robert Brewer,Amateur Masters 40-44,180.4,181,,41,410,,255,490,,1155,1,SBD,M,Raw
Philip R Morreale,Amateur Masters 65-69,178.8,181,,66,225,,200,315,,740,1,SBD,M,Wraps
Michael Zola,Amateur Open,179.4,181,,32,390,,255,460,,1105,3,SBD,M,Wraps
Elijah Thigpen-Frazier,Amateur Open,181,181,,24,500,,305,505,,1310,2,SBD,M,Wraps
Shawn Shuck,Amateur Open,180.2,181,,38,480,,355,565,,1400,1,SBD,M,Wraps
Shawn Shuck,Amateur Submasters 33-39,180.2,181,,38,480,,355,565,,1400,1,SBD,M,Wraps
Neisen Taylor,Amateur Teen 18-19,177.2,181,,18,525,,305,470,,1300,1,SBD,M,Wraps
Jonathin Leicy,Amateur Juniors 20-23,189.6,198,,20,510,,350,555,,1415,1,SBD,M,Raw
Kris Bookamer,Military Amateur Open,197.4,198,,28,525,,370,575,,1470,1,SBD,M,Raw
Tyler Wirth,Pro Open,197.6,198,,23,470,,350,605,,1425,1,SBD,M,Raw
Michael Anderson,Amateur Juniors 20-23,188.6,198,,22,480,,265,455,,1200,1,SBD,M,Wraps
Brad Worfler,Amateur Masters 45-49,198,198,,45,410,,370,525,,1305,1,SBD,M,Wraps
Gabe Rupert,Amateur Open,191.4,198,,24,360,,300,425,,1085,3,SBD,M,Wraps
Derek Baum,Amateur Open,196.4,198,,31,405,,255,550,,1210,2,SBD,M,Wraps
Connor Putz,Amateur Open,198.4,198,,32,485,,365,570,,1420,1,SBD,M,Wraps
Ralph Talotti,Pro Open,185.8,198,,31,800,,625,585,,2010,1,SBD,M,Unlimited
Dean Moore,Pro Masters 55-59,214,220,,57,750,,410,435,,1595,1,SBD,M,Multi-ply
Kyle Knisely,Amateur Open,216,220,,29,450,,255,495,,1200,3,SBD,M,Wraps
Tony Colemire,Amateur Open,207.8,220,,36,480,,370,505,,1355,2,SBD,M,Wraps
Jeremy Cheatwood,Pro Open,220,220,,,,,,,,,DQ,SBD,M,Wraps
Nicholas Ricci,Amateur Open,219.8,220,,26,485,,315,620,,1420,1,SBD,M,Wraps
Cole Glennon,Amateur Submasters 33-39,214.6,220,,35,450,,350,525,,1325,2,SBD,M,Wraps
Tony Colemire,Amateur Submasters 33-39,207.8,220,,36,480,,370,505,,1355,1,SBD,M,Wraps
Austin Snyder,Amateur Teen 16-17,213.2,220,,16,465,,260,475,,1200,1,SBD,M,Wraps
Tony Colemire,Military Amateur Open,207.8,220,,36,480,,370,505,,1355,1,SBD,M,Wraps
Jacob Smith #31,Pro Open,217,220,,27,625,,420,655,,1700,2,SBD,M,Wraps
Dominic Cino,Pro Open,218.6,220,,34,650,,435,650,,1735,1,SBD,M,Wraps
Joseph Landow,Amateur Open,240.4,242,,31,385,,315,530,,1230,1,SBD,M,Raw
Jaret Stroup,Amateur Juniors 20-23,228,242,,23,510,,315,585,,1410,1,SBD,M,Wraps
Vivek Kalla,Amateur Open,225,242,,28,290,,145,365,,800,2,SBD,M,Wraps
Dalton Tubbs,Amateur Open,239.2,242,,24,545,,320,500,,1365,1,SBD,M,Wraps
Jakob Chu,Amateur Teen 18-19,232,242,,19,300,,200,375,,875,1,SBD,M,Wraps
Aaron Chapple,Pro Masters 40-44,232,242,,40,660,,500,680,,1840,1,SBD,M,Raw
Aaron Chapple,Pro Open,232,242,,40,660,,500,680,,1840,1,SBD,M,Raw
Tim Gale,Pro Masters 50-54,238.2,242,,,810,,,,,,DQ,SBD,M,Unlimited
Brent Gobat,Amateur Masters 40-44,258.4,275,,43,395,,220,485,,1100,1,SBD,M,Wraps
Duane Rogers,Amateur Open,246.6,275,,25,500,,350,555,,1405,2,SBD,M,Wraps
Daequan Nicholson,Amateur Open,245.2,275,,25,530,,365,585,,1480,1,SBD,M,Wraps
Jonathan Archibold,Pro Open,258.2,275,,37,535,,380,655,,1570,1,SBD,M,Wraps
Jonathan Archibold,Pro Submasters 33-39,258.2,275,,37,535,,380,655,,1570,1,SBD,M,Wraps
Mark Landau,Pro Masters 45-49,243.8,275,,48,700,,500,545,,1745,1,SBD,M,Unlimited
Jesse Korty,Pro Open,290.8,308,,29,600,,465,785,,1850,1,SBD,M,Raw
Samuel Chu,Pro Open,303.2,308,,48,635,,340,585,,1560,1,SBD,M,Wraps
Dennis Gitke,Amateur Teen 18-19,351.2,308+,,19,1010,1045,135,700,,1845,1,SBD,M,Multi-ply
Nathan Rupert,Amateur Open,341.2,308+,,27,475,,325,510,,1310,1,SBD,M,Raw
Sean Shea,Amateur Masters 40-44,330.4,308+,,44,715,,420,710,,1845,1,SBD,M,Wraps
Sean Shea,Amateur Open,330.4,308+,,44,715,,420,710,,1845,1,SBD,M,Wraps
Mike Lambert,Police Pro Masters 50-54,203,220,,53,,,215,385,,600,1,BD,M,Raw
Mike Lambert,Military Amateur Masters 50-54,203,220,,53,,,215,385,,600,1,BD,M,Raw
Matthew Zito,Amateur Teen 18-19,237.2,242,,18,,,485,530,,1015,1,BD,M,Single-ply
Matthew N Gordner,Amateur Masters 45-49,287.6,308,,48,,,345,405,,750,1,BD,M,Raw
Taylor Steinsnyder,Amateur Open,196.4,198,,30,,,145,,,145,1,B,F,Raw
Juan Martinez,Pro Open,198,198,,32,,,430,,,430,1,B,M,Raw
Devin Keller,Amateur Masters 45-49,308.4,308,,47,,,400,,,400,1,B,M,Raw
Chris Williams,Amateur Open,393.2,308+,,32,,,355,,,355,1,B,M,Raw
Juan Martinez,Pro Open,198,198,,32,,,,585,,585,1,D,M,Raw
