Place,Name,Sex,BirthDate,State,Equipment,Division,BodyweightLbs,WeightClassLbs,Squat1Lbs,Squat2Lbs,Squat3Lbs,Best3SquatLbs,Bench1Lbs,Bench2Lbs,Bench3Lbs,Best3BenchLbs,Deadlift1Lbs,Deadlift2Lbs,Deadlift3Lbs,Best3DeadliftLbs,TotalLbs,Event,Team
1,Alicia Childress,F,1987-12-29,NY,Multi-ply,Amateur Open,192,198,585,630,650,650,325,345,-360,345,410,445,465,465,1460,SBD,
1,Andrea Villalobos,F,1991-02-07,NY,Unlimited,Amateur Open,145,148,485,510,530,530,-315,-330,360,360,365,400,450,450,1340,SBD,Blue Collar Barbell
1,Elise Frazier,F,1989-04-09,MA,Multi-ply,Amateur Open,177,181,415,440,460,460,-255,255,-280,255,350,375,390,390,1105,SBD,
1,Rochelle Dubbs,F,1976-12-27,PA,Raw,Pro Masters 45-49,275.6,308,,,,,350,-370,,350,,,,,350,B,
1,Rochelle Dubbs,F,1976-12-27,PA,Raw,Pro Open,275.6,308,,,,,350,-370,,350,,,,,350,B,
1,Tiffany Biancardi,F,1995-08-15,PA,Multi-ply,Amateur Open,128,132,530,580,600,600,255,285,305,305,275,315,340,340,1245,SBD,
1,Anthony Hobaica,M,1987-07-01,NV,Single-ply,Amateur Open,196.2,198,780,860,885,885,620,-655,-655,620,640,-705,-705,640,2145,SBD,
1,Derrick Benjamin,M,1975-12-26,NY,Unlimited,Amateur Masters 45-49,245,275,730,800,-820,800,615,-630,,615,640,700,-720,700,2115,SBD,Blue Collar Barbell
1,Derrick Benjamin,M,1975-12-26,NY,Unlimited,Amateur Open,245,275,730,800,-820,800,615,-630,,615,640,700,-720,700,2115,SBD,Blue Collar Barbell
1,Jeff Holstead,M,1968-04-05,MA,Unlimited,Amateur Masters 55-59,183,198,,,,,-480,480,500,500,,,,,500,B,
1,Joe Stein,M,1995-06-02,NY,Unlimited,Amateur Open,338,308+,1125,1185,,1185,635,-675,690,690,675,745,-770,745,2620,SBD,
1,Kirby Goodrich,M,1994-11-19,VT,Multi-ply,Amateur Open,273,275,-1005,1055,,1055,565,600,620,620,655,700,-730,700,2375,SBD,
1,Mason Cooper,M,1998-12-21,PA,Multi-ply,Amateur Open,218.5,220,785,830,-870,830,-600,600,-650,600,550,-575,575,575,2005,SBD,
2,Michael Esposito,M,1990-10-26,FL,Unlimited,Amateur Open,219,220,740,-775,,740,645,-705,-705,645,555,585,615,615,2000,SBD,
2,Stephen Lusterino,M,1988-06-09,NY,Unlimited,Amateur Open,262,275,750,840,-905,840,650,700,735,735,660,700,725,725,2300,SBD,
1,Caylee Navas,F,2008-12-23,NJ,Multi-ply,Pro Open,114.5,114,300,330,360,360,210,220,-230,220,245,265,-282.5,265,845,SBD,
1,Caylee Navas,F,2008-12-23,NJ,Multi-ply,Pro Teen 13-15,114.5,114,300,330,360,360,210,220,-230,220,245,265,-282.5,265,845,SBD,
1,Elise Frazier,F,1989-04-09,MA,Multi-ply,Pro Open,177,181,415,440,460,460,-255,255,-280,255,350,375,390,390,1105,SBD,
1,Jessica Goldstein,F,,NY,Unlimited,Amateur Open,102,105,-265,275,285,285,185,-195,-195,185,220,225,230,230,700,SBD,Blue Collar Barbell
1,Jessica Goldstein,F,,NY,Unlimited,Amateur Submasters 33-39,102,105,-265,275,285,285,185,-195,-195,185,220,225,230,230,700,SBD,Blue Collar Barbell
1,Laura Galati,F,1978-05-10,NY,Raw,Pro Masters 45-49,175,181,-205,205,-215,205,-115,115,120,120,225,235,-240,235,560,SBD,
2,Rosanna Santiago,F,1987-01-10,NY,Raw,Pro Open,179,181,300,310,-320,310,125,135,-150,135,260,285,305,305,750,SBD,Blue Collar Barbell
1,Rosanna Santiago,F,1987-01-10,NY,Raw,Pro Submasters 33-39,179,181,300,310,-320,310,125,135,-150,135,260,285,305,305,750,SBD,Blue Collar Barbell
1,Stephanie Owusu,F,1989-08-15,NY,Raw,Pro Open,171.25,181,250,300,-350,300,-150,165,175,175,340,370,-400,370,845,SBD,
1,Artie Miller,M,1944-07-04,NY,Raw,Pro Masters 80+,192.5,198,-235,235,245,245,165,175,180,180,320,330,340,340,765,SBD,
1,Artie Miller,M,1944-07-04,NY,Raw,Pro Masters 80+,192.5,198,,,,,165,175,180,180,320,330,340,340,520,BD,
1,Artie Miller,M,1944-07-04,NY,Raw,Pro Masters 80+,192.5,198,,,,,,,,,320,330,340,340,340,D,
2,Camren Smith,M,2000-03-18,MA,Multi-ply,Pro Open,255.5,275,750,800,825,825,465,-500,-500,465,575,645,-710,645,1935,SBD,
1,Dakota A Parson,M,1999-04-03,PA,Unlimited,Pro Open,192.5,198,650,-680,700,700,-550,550,-600,550,550,575,-605,575,1825,SBD,
1,David Balsdon #2,M,1986-08-01,NY,Raw,Pro Submasters 33-39,237.5,242,,,,,350,375,400,400,,,,,400,B,
1,Dexter Bidot,M,1986-12-27,MA,Unlimited,Pro Open,176.5,181,-700,800,850,850,-600,-600,600,600,600,650,-700,650,2100,SBD,
1,Dexter Bidot,M,1986-12-27,MA,Unlimited,Pro Submasters 33-39,176.5,181,-700,800,850,850,-600,-600,600,600,600,650,-700,650,2100,SBD,
3,Gregor Malkasian,M,1998-06-18,NY,Multi-ply,Pro Open,212,220,535,565,605,605,435,-470,-490,435,415,455,500,500,1540,SBD,
1,Jack DeMinno,M,1995-09-21,NY,Raw,Pro Open,216.5,220,450,480,-510,480,320,335,-345,335,615,655,-685,655,1470,SBD,
4,Jake Cummings,M,2004-10-28,NY,Raw,Pro Teen 18-19,211.5,220,,,,,,,,,285,300,315,315,315,D,
1,Jonah Roach,M,2002-09-23,MA,Multi-ply,Pro Juniors 20-23,229.5,242,665,705,-750,705,400,425,-450,425,-585,585,600,600,1730,SBD,
2,Kyle Petruzzi,M,1997-11-29,NY,Raw,Pro Open,201,220,375,-410,-410,375,250,280,-300,280,370,410,435,435,1090,SBD,
1,Mark D'Amico,M,1962-08-16,CT,Multi-ply,Pro Masters 60-64,216.5,220,655,-710,750,750,475,-505,505,505,495,550,575,575,1830,SBD,
1,Mike Cummings,M,1967-07-08,NY,Raw,Pro Masters 55-59,226.5,242,,,,,,,,,455,495,525,525,525,D,
1,Mike Cummings,M,1967-07-08,NY,Raw,Pro Open,226.5,242,,,,,,,,,455,495,525,525,525,D,
1,Peter Sessa,M,1968-10-10,NY,Raw,Pro Masters 55-59,238.5,242,,,,,335,365,370,370,425,475,500,500,870,BD,Blue Collar Barbell
1,Ryan Cummings,M,2004-10-28,NY,Raw,Pro Open,188.5,198,,,,,,,,,250,285,-300,285,285,D,
3,Steve Scott,M,1990-02-21,NC,Multi-ply,Pro Open,270,275,855,900,935,935,-530,-530,530,530,645,-685,-685,645,2110,SBD,
1,Xavier Jansson,M,1999-12-01,NY,Multi-ply,Pro Open,224.5,242,-400,400,415,415,230,-260,260,260,415,435,-455,435,1110,SBD,
