Place,Name,Team,Country,Sex,BirthYear,Age,BirthDate,Division,WeightClassKg,BodyweightKg,Squat1Kg,Squat2Kg,Squat3Kg,Best3SquatKg,Bench1Kg,Bench2Kg,Bench3Kg,Best3BenchKg,Deadlift1Kg,Deadlift2Kg,Deadlift3Kg,Best3DeadliftKg,TotalKg,Event,Equipment
2,Cristian Moise,Romania,Romania,M,2001,22,,Juniors,59,58.45,220,-230,-230,220,110,120,125,125,190,200,210,210,555,SBD,Single-ply
1,Andrei Georgescu,Romania,Romania,M,2002,21,,Juniors,59,57.73,185,200,-215,200,100,107.5,110,110,190,200,207.5,207.5,517.5,SBD,Single-ply
1,Radosław Dębicki,Poland,Poland,M,2001,22,,Juniors,66,65.99,210,225,,225,152.5,-160,-160,152.5,210,-220,-220,210,587.5,SBD,Single-ply
1,Richard Borsc,Slovakia,Slovakia,M,2001,22,,Juniors,74,73.63,242.5,-245,-252.5,242.5,-162.5,162.5,167.5,167.5,220,245,257.5,257.5,667.5,SBD,Single-ply
2,Oleksandr Luzhbin,Ukraine,Ukraine,M,2004,19,,Juniors,74,73.98,245,255,265,265,145,157.5,-162.5,157.5,217.5,232.5,-242.5,232.5,655,SBD,Single-ply
3,Tobias Soerensen,Denmark,Denmark,M,2004,19,,Juniors,74,73.74,220,232.5,240,240,145,152.5,-157.5,152.5,220,232.5,-242.5,232.5,625,SBD,Single-ply
DQ,Grégory Ostyn,Belgium,Belgium,M,2001,22,,Juniors,74,73.98,-235,-245,-245,,185,-195,-195,185,265,280,-307.5,280,,SBD,Single-ply
1,Nahel Baali,France,France,M,2001,22,,Juniors,83,82.05,285,-292.5,-292.5,285,187.5,192.5,-195,192.5,265,-280,-292.5,265,742.5,SBD,Single-ply
2,Oscar Dahlkvist,Sweden,Sweden,M,2001,22,,Juniors,83,82.26,250,262.5,272.5,272.5,150,157.5,162.5,162.5,250,265,285,285,720,SBD,Single-ply
3,Kevin Schmid,Austria,Austria,M,2000,23,,Juniors,83,82.61,-250,250,-260,250,215,220,-222.5,220,230,240,250,250,720,SBD,Single-ply
DQ,Davide Cecchetti,Italy,Italy,M,2002,21,,Juniors,83,82.54,-275,-275,-275,,-215,-220,-220,,245,255,-265,255,,SBD,Single-ply
DQ,Lukas Rozehnal,Czechia,Czechia,M,2001,22,,Juniors,83,82.62,-270,-270,-270,,170,177.5,-182.5,177.5,235,-252.5,-257.5,235,,SBD,Single-ply
1,Ludvik Moen,Norway,Norway,M,2002,21,,Juniors,93,92.82,325,-335,-340,325,217.5,225,-232.5,225,252.5,272.5,-282.5,272.5,822.5,SBD,Single-ply
2,Benjamin Falgreen Andersen,Denmark,Denmark,M,2001,22,,Juniors,93,92.83,-290,-290,290,290,200,210,-217.5,210,230,240,262.5,262.5,762.5,SBD,Single-ply
3,Ondřej Smetaník,Czechia,Czechia,M,2003,20,,Juniors,93,91.44,-265,265,-280,265,-195,195,-200,195,245,260,,260,720,SBD,Single-ply
DQ,Kristian Filip Jakubec,Slovakia,Slovakia,M,2001,22,,Juniors,93,92.32,-290,-290,-290,,-175,175,-197.5,175,270,280,290,290,,SBD,Single-ply
1,Knut Einar Skaar,Norway,Norway,M,2001,22,,Juniors,105,104.98,330,350,362.5,362.5,230,242.5,250,250,300,-320,320,320,932.5,SBD,Single-ply
2,Martin Bach Thomsen,Denmark,Denmark,M,2002,21,,Juniors,105,103.46,315,327.5,335,335,230,240,247.5,247.5,255,267.5,272.5,272.5,855,SBD,Single-ply
3,Paul Bejenariu,Romania,Romania,M,2001,22,,Juniors,105,104.12,-290,290,300,300,240,247.5,-250,247.5,282.5,-300,-305,282.5,830,SBD,Single-ply
4,Dmytro Rozhanskyi,Ukraine,Ukraine,M,2004,19,,Juniors,105,99.39,305,315,-322.5,315,180,190,-195,190,282.5,300,305,305,810,SBD,Single-ply
5,David Warnquist,Sweden,Sweden,M,2002,21,,Juniors,105,104.35,272.5,285,290,290,232.5,242.5,247.5,247.5,225,240,247.5,247.5,785,SBD,Single-ply
6,Martin Hužvár,Slovakia,Slovakia,M,2002,21,,Juniors,105,97.18,275,290,305,305,167.5,-175,175,175,280,297.5,300,300,780,SBD,Single-ply
7,Adam Engsig Karsoe,Denmark,Denmark,M,2000,23,,Juniors,105,103.35,300,310,317.5,317.5,195,200,-205,200,260,-275,-275,260,777.5,SBD,Single-ply
1,Mark Dolzhenko,Ukraine,Ukraine,M,2002,21,,Juniors,120,110.39,330,350,360,360,-250,-250,250,250,270,290,-310,290,900,SBD,Single-ply
2,Lasse Justesen,Denmark,Denmark,M,2000,23,,Juniors,120,114.76,310,325,330,330,200,215,220,220,250,265,272.5,272.5,822.5,SBD,Single-ply
3,Oleksii Lisenko,Ukraine,Ukraine,M,2003,20,,Juniors,120,108.84,285,305,320,320,225,235,245,245,235,247.5,-262.5,247.5,812.5,SBD,Single-ply
4,Dominik Plaskonis,Slovakia,Slovakia,M,2000,23,,Juniors,120,119.32,312.5,-332.5,-332.5,312.5,200,-215,-215,200,250,287.5,-292.5,287.5,800,SBD,Single-ply
1,Moritz Taschner,Germany,Germany,M,2002,21,,Juniors,120+,150.13,360,375,385,385,275,285,-300,285,325,350,-365,350,1020,SBD,Single-ply
2,Šimon Král,Czechia,Czechia,M,2002,21,,Juniors,120+,137.73,300,330,-350,330,180,202.5,-210,202.5,-285,285,295,295,827.5,SBD,Single-ply
3,Philippe Parage,Luxembourg,Luxembourg,M,2001,22,,Juniors,120+,123.97,310,-322.5,325,325,180,187.5,192.5,192.5,275,285,-292.5,285,802.5,SBD,Single-ply
4,Dmytro Vovchok,Ukraine,Ukraine,M,2003,20,,Juniors,120+,131.58,280,-300,305,305,215,227.5,235,235,220,235,-245,235,775,SBD,Single-ply
1,Paweł Ośmiałowski,Poland,Poland,M,1977,46,,Open,59,58.7,220,230,-240,230,140,150,155,155,185,200,210,210,595,SBD,Single-ply
1,Hassan El Belghiti,France,France,M,1975,48,,Open,66,65.7,275,285,290,290,162.5,-167.5,-170,162.5,295,305,-320,305,757.5,SBD,Single-ply
1,Antti Savolainen,Finland,Finland,M,1978,45,,Open,74,71.88,260,-275,275,275,195,200,205,205,260,280,-300,280,760,SBD,Single-ply
6,Linus Hedberg,Sweden,Sweden,M,1981,42,,Open,83,82.6,280,-292.5,292.5,292.5,205,210,-215,210,260,272.5,-295,272.5,775,SBD,Single-ply
DQ,Kent Flaeten,Denmark,Denmark,M,1979,44,,Open,83,82.8,275,285,-290,285,-227.5,-227.5,-227.5,,220,235,247.5,247.5,,SBD,Single-ply
DQ,Sturla Abrahamsen Maeland,Norway,Norway,M,1980,43,,Open,93,91.9,-315,-315,-315,,225,-247.5,-247.5,225,260,,,260,,SBD,Single-ply
5,Tomi Määttä,Finland,Finland,M,1982,41,,Open,105,104.71,370,-380,-382.5,370,250,-257.5,-257.5,250,290,305,-315,305,925,SBD,Single-ply
DQ,Margus Silbaum,Estonia,Estonia,M,1976,47,,Open,105,105,360,-370,,360,-250,-250,-250,,315,-325,-327.5,315,,SBD,Single-ply
1,Christoph Seefeld,Germany,Germany,M,1980,42,,Open,120+,127.4,380,-392.5,-392.5,380,305,312.5,-320,312.5,305,320,-330,320,1012.5,SBD,Single-ply
DQ,Orhan Bilican,Belgium,Belgium,M,1978,45,,Open,120+,127.43,-420,-420,,,-310,-310,-310,,,,,,,SBD,Single-ply
3,Bernie McGurk,Great Britain,UK,M,1968,55,,Open,74,71.35,232.5,240,-250,240,132.5,140,-142.5,140,250,-265,267.5,267.5,647.5,SBD,Single-ply
2,Mariusz Grotkowski,Poland,Poland,M,1989,34,,Open,66,65.65,270,-280,-280,270,200,210,-215,210,250,265,-270,265,745,SBD,Single-ply
3,Gheorghe Moise,Romania,Romania,M,1995,28,,Open,66,65.55,245,-255,-255,245,120,167.5,-170,167.5,200,,,200,612.5,SBD,Single-ply
2,Andrii Stepanov,Ukraine,Ukraine,M,1992,31,,Open,74,73.9,270,-280,-280,270,155,165,-170,165,230,242.5,252.5,252.5,687.5,SBD,Single-ply
4,Teodor Eriksson,Sweden,Sweden,M,1999,24,,Open,74,73.7,-230,230,-237.5,230,-185,-185,185,185,-225,-225,232.5,232.5,647.5,SBD,Single-ply
5,Nour Kharboutli,Sweden,Sweden,M,1996,27,,Open,74,73.2,240,250,-255,250,145,155,160,160,235,-242.5,-242.5,235,645,SBD,Single-ply
1,Kjell Egil Bakkelund,Norway,Norway,M,1988,35,,Open,83,79.9,330,340,347.5,347.5,-235,235,242.5,242.5,300,-315,317.5,317.5,907.5,SBD,Single-ply
2,Vitalii Kolomiiets,Ukraine,Ukraine,M,1992,31,,Open,83,82.5,330,-342.5,342.5,342.5,230,237.5,-245,237.5,300,315,-330,315,895,SBD,Single-ply
3,Matias Viiperi,Finland,Finland,M,1994,29,,Open,83,82.2,305,-315,317.5,317.5,250,260,-265,260,272.5,290,300,300,877.5,SBD,Single-ply
4,Andriy Naniev,Ukraine,Ukraine,M,1984,39,,Open,83,82.5,335,-345,345,345,-235,235,-242.5,235,275,290,-300,290,870,SBD,Single-ply
5,Alexander Huber,Austria,Austria,M,1990,33,,Open,83,82.8,310,320,332.5,332.5,-220,220,227.5,227.5,275,292.5,-302.5,292.5,852.5,SBD,Single-ply
7,Massimo Primativo,Italy,Italy,M,1997,26,,Open,83,81.5,-275,275,290,290,172.5,-180,-180,172.5,275,290,-300,290,752.5,SBD,Single-ply
8,Zdravko Petrov,Bulgaria,Bulgaria,M,1991,32,,Open,83,80.8,-275,275,-302.5,275,-190,-190,190,190,240,257.5,-275,257.5,722.5,SBD,Single-ply
9,Andrei Nicolae Irimie,Romania,Romania,M,1990,33,,Open,83,82.3,200,215,-217.5,215,250,-262.5,-267.5,250,200,210,215,215,680,SBD,Single-ply
10,James Taylor #10,Great Britain,UK,M,1998,25,,Open,83,82.6,-245,-250,250,250,-180,-182.5,185,185,215,227.5,-235,227.5,662.5,SBD,Single-ply
DQ,Manuel Gonnermann,Germany,Germany,M,1993,30,,Open,83,82.6,-300,-300,-300,,182.5,192.5,-200,192.5,275,292.5,-302.5,292.5,,SBD,Single-ply
1,Kostiantyn Musiienko,Ukraine,Ukraine,M,1997,26,,Open,93,92.45,365,382.5,-395,382.5,305,-320,320,320,300,320,332.5,332.5,1035,SBD,Single-ply
2,Andreas Jandorek,Austria,Austria,M,1985,38,,Open,93,92.6,315,-325,325,325,250,255,-260,255,270,290,297.5,297.5,877.5,SBD,Single-ply
3,Antonio Gorga,Italy,Italy,M,1995,28,,Open,93,90.8,300,315,325,325,180,-185,-185,180,300,320,-330,320,825,SBD,Single-ply
4,Nickolaj Olsen,Denmark,Denmark,M,1994,29,,Open,93,91.17,310,315,320,320,170,175,-180,175,270,285,300,300,795,SBD,Single-ply
5,Alex Cambray Orrason,Iceland,Iceland,M,1989,34,,Open,93,92.79,317.5,-330,-330,317.5,207.5,-215,-215,207.5,-270,270,-287.5,270,795,SBD,Single-ply
6,Michal Vavrinec,Slovakia,Slovakia,M,1996,27,,Open,93,92.01,285,290,-292.5,290,-227.5,-230,230,230,260,-280,-287.5,260,780,SBD,Single-ply
DQ,Mathew Hallett,Great Britain,UK,M,1992,31,,Open,93,90.8,275,-300,-300,275,-245,-245,-245,,,,,,,SBD,Single-ply
DQ,Hugo Duarte,Great Britain,UK,M,1990,33,,Open,93,92.51,335,345,350,350,-210,-210,-210,,290,305,-322.5,305,,SBD,Single-ply
1,Oleksandr Rubets,Ukraine,Ukraine,M,1996,27,,Open,105,100.93,400,415,-425,415,-272.5,-272.5,272.5,272.5,275,305,327.5,327.5,1015,SBD,Single-ply
2,Nicki Lentz,Denmark,Denmark,M,1992,31,,Open,105,97.1,395,407.5,415,415,265,272.5,275,275,300,310,322.5,322.5,1012.5,SBD,Single-ply
3,Asgeir Hoel,Norway,Norway,M,1988,35,,Open,105,104.65,380,395,400,400,245,-252.5,252.5,252.5,320,335,-347.5,335,987.5,SBD,Single-ply
4,Martin Lange,Germany,Germany,M,1987,36,,Open,105,103.95,350,365,-375,365,250,262.5,-275,262.5,300,-315,-315,300,927.5,SBD,Single-ply
6,Kristián Slíž,Slovakia,Slovakia,M,1995,28,,Open,105,103.82,350,362.5,-370,362.5,230,237.5,-242.5,237.5,300,-315,-315,300,900,SBD,Single-ply
7,Jack Johnson #1,Great Britain,UK,M,1998,25,,Open,105,104.49,315,320,325,325,237.5,-250,250,250,300,-315,-325,300,875,SBD,Single-ply
8,Lieven De Saedeleer,Belgium,Belgium,M,1988,35,,Open,105,103,-315,315,-322.5,315,-252.5,252.5,-255,252.5,257.5,272.5,282.5,282.5,850,SBD,Single-ply
9,Matt Watson #1,Great Britain,UK,M,1991,32,,Open,105,95.94,290,300,312.5,312.5,205,212.5,217.5,217.5,215,225,-230,225,755,SBD,Single-ply
DQ,Patryk Bolek,Denmark,Denmark,M,1994,29,,Open,105,100.22,-325,325,-330,325,-230,-230,-230,,280,302.5,325,325,,SBD,Single-ply
DQ,Oliver Dahlkvist,Sweden,Sweden,M,1995,28,,Open,105,104.6,-375,-375,-375,,-280,280,-325,280,280,-290,290,290,,SBD,Single-ply
1,Sofiane Belkesir,France,France,M,1984,39,,Open,120,115.59,400,410,-415,410,275,280,-285,280,330,355,-360,355,1045,SBD,Single-ply
2,Danylo Kovalyov,Ukraine,Ukraine,M,1996,27,,Open,120,116.46,405,-417.5,-420,405,315,-325,-325,315,312.5,325,-330,325,1045,SBD,Single-ply
3,Viktor Leskovets,Ukraine,Ukraine,M,1990,33,,Open,120,110.89,-395,395,-405,395,320,335,-345,335,300,-312.5,-315,300,1030,SBD,Single-ply
4,Dominik Pahl,Germany,Germany,M,1992,31,,Open,120,119.17,365,375,-385,375,265,272.5,277.5,277.5,295,315,317.5,317.5,970,SBD,Single-ply
5,Casper Futtrup,Denmark,Denmark,M,1989,34,,Open,120,119.47,362.5,377.5,387.5,387.5,250,257.5,265,265,270,285,300,300,952.5,SBD,Single-ply
6,Jussi Kangasvieri,Finland,Finland,M,1987,36,,Open,120,107.47,325,335,,335,227.5,-235,-235,227.5,302.5,-315,-315,302.5,865,SBD,Single-ply
7,Alexander Pelovski,Bulgaria,Bulgaria,M,1991,32,,Open,120,109.45,315,330,-340,330,190,200,-210,200,-270,270,-315,270,800,SBD,Single-ply
DQ,Kasper Martinussen,Denmark,Denmark,M,1996,27,,Open,120,111.45,-320,320,330,330,-235,-235,-245,,265,-277.5,-277.5,265,,SBD,Single-ply
2,Jordan Bollard,Great Britain,UK,M,1990,33,,Open,120+,150.09,405,-412.5,-412.5,405,265,277.5,282.5,282.5,250,275,-292.5,275,962.5,SBD,Single-ply
3,Martin Dreyer,Denmark,Denmark,M,1995,28,,Open,120+,121.09,330,340,345,345,-230,230,-240,230,250,282.5,-292.5,282.5,857.5,SBD,Single-ply
DQ,Florin Lupas Ionut,Romania,Romania,M,1989,34,,Open,120+,147.42,-380,380,-395,380,-292.5,-292.5,-292.5,,282.5,292.5,-300,292.5,,SBD,Single-ply
DQ,Ákos Labát,Slovakia,Slovakia,M,1995,28,,Open,120+,147.62,-360,-360,-360,,280,-295,-295,280,300,310,-322.5,310,,SBD,Single-ply
DQ,Daniel Ordean,Romania,Romania,M,1995,28,,Open,120+,157.44,317.5,-332.5,332.5,332.5,-272.5,-272.5,-272.5,,225,-252.5,-277.5,225,,SBD,Single-ply
1,Anton Savkin,Ukraine,Ukraine,M,2005,18,,Sub-Juniors,59,57.39,200,-212.5,-212.5,200,120,-125,-125,120,-180,180,195,195,515,SBD,Single-ply
2,Radosław Rogala,Poland,Poland,M,2007,16,,Sub-Juniors,59,57.59,110,120,-130,120,65,72.5,-77.5,72.5,130,140,-145,140,332.5,SBD,Single-ply
1,Eduard Andreiev,Ukraine,Ukraine,M,2005,18,,Sub-Juniors,66,65.49,190,-210,-210,190,135,145,150,150,-170,170,-190,170,510,SBD,Single-ply
1,Mykola Hodunov,Ukraine,Ukraine,M,2007,16,,Sub-Juniors,74,72.9,-245,245,-260,245,140,147.5,-152.5,147.5,230,247.5,-262.5,247.5,640,SBD,Single-ply
2,Alex Janowicz,Poland,Poland,M,2007,16,,Sub-Juniors,74,72.59,145,152.5,160,160,-130,130,-135,130,180,202.5,-210,202.5,492.5,SBD,Single-ply
1,Davyd Rubets,Ukraine,Ukraine,M,2005,18,,Sub-Juniors,83,82.46,225,250,-265,250,165,-175,175,175,220,-235,-240,220,645,SBD,Single-ply
DQ,Vasyl' Zbandut,Ukraine,Ukraine,M,2006,17,,Sub-Juniors,93,83.45,260,285,300,300,-150,-150,-150,,245,,,245,,SBD,Single-ply
1,Gracjan Pieper,Poland,Poland,M,2006,17,,Sub-Juniors,105,100.71,235,-252.5,255,255,180,-190,-190,180,230,-245,-245,230,665,SBD,Single-ply
DQ,Eva Buxbom,Denmark,Denmark,F,1969,54,,Open,52,51.04,150,157.5,-162.5,157.5,-75,-75,-75,,150,160,-172.5,160,,SBD,Single-ply
4,Heidi Hille Arnesen,Norway,Norway,F,1970,53,,Open,84,83.94,242.5,247.5,252.5,252.5,137.5,142.5,147.5,147.5,192.5,200,207.5,207.5,607.5,SBD,Single-ply
1,Larysa Soloviova #1,Ukraine,Ukraine,F,1978,45,,Open,63,62.94,-215,-220,220,220,152.5,-160,-160,152.5,200,212.5,-220,212.5,585,SBD,Single-ply
DQ,Kathleen Compagnie,Belgium,Belgium,F,1980,43,,Open,69,66.88,-170,-170,-175,,,,,,,,,,,SBD,Single-ply
4,Kathrine Holmgaard Bak,Denmark,Denmark,F,1981,42,,Open,63,62.49,-167.5,167.5,177.5,177.5,100,105,107.5,107.5,207.5,217.5,-232.5,217.5,502.5,SBD,Single-ply
5,Jane Aaberg,Denmark,Denmark,F,1981,42,,Open,84,83.28,210,220,225,225,105,110,-112.5,110,217.5,227.5,-252,227.5,562.5,SBD,Single-ply
8,Lise Frederiksen,Denmark,Denmark,F,1982,41,,Open,84,83.18,205,215,222.5,222.5,115,120,125,125,160,175,185,185,532.5,SBD,Single-ply
5,Katja Broxtermann,Germany,Germany,F,1986,37,,Open,76,73.11,212.5,222.5,230,230,145,-150,150,150,170,177.5,185,185,565,SBD,Single-ply
1,Karolina Moszynska,Germany,Germany,F,1986,37,,Open,57,56.65,-185,190,-200,190,-117.5,120,122.5,122.5,165,172.5,-177.5,172.5,485,SBD,Single-ply
2,Ankie Timmers,Netherlands,Netherlands,F,1986,37,,Open,84,83.26,220,227.5,,227.5,177.5,185,190,190,200,207.5,215,215,632.5,SBD,Single-ply
3,Anastasiia Derevianko,Ukraine,Ukraine,F,1987,36,,Open,52,50.77,175,-182.5,-185,175,105,-110,-110,105,170,-177.5,177.5,177.5,457.5,SBD,Single-ply
4,Emma Goodwin,Great Britain,UK,F,1987,36,,Open,52,51.63,167.5,175,-177.5,175,-77.5,77.5,82.5,82.5,175,190,-195.5,190,447.5,SBD,Single-ply
6,Stefana Dumitrescu,Romania,Romania,F,1988,35,,Open,52,51.76,-120,120,130,130,60,-65,65,65,130,140,-160,140,335,SBD,Single-ply
DQ,Cathrin Monika Silberzahn,Germany,Germany,F,1988,35,,Open,69,68.53,230,237.5,242.5,242.5,-132.5,-132.5,-132.5,,192.5,-202.5,-202.5,192.5,,SBD,Single-ply
1,Jenny Marie Johansen,Norway,Norway,F,1989,34,,Open,69,67.57,212.5,222.5,230,230,125,130,135,135,190,200,205,205,570,SBD,Single-ply
1,Laura Savolainen,Sweden,Sweden,F,1989,34,,Open,52,51.52,-155,155,160,160,117.5,122.5,-125,122.5,172.5,180,-193.5,180,462.5,SBD,Single-ply
5,Lauren Elder,Great Britain,UK,F,1989,34,,Open,63,62.64,187.5,195,202.5,202.5,87.5,-92.5,-92.5,87.5,182.5,192.5,-200,192.5,482.5,SBD,Single-ply
2,Lisette I Hansen,Denmark,Denmark,F,1989,34,,Open,47,46.8,135,142.5,147.5,147.5,-80,80,-85,80,142.5,150,-155,150,377.5,SBD,Single-ply
6,Teresa Mastroianni,Italy,Italy,F,1990,33,,Open,76,73.18,-202.5,202.5,-212.5,202.5,117.5,-125,-130,117.5,185,195,-200,195,515,SBD,Single-ply
DQ,Alessia Leugio,Italy,Italy,F,1990,33,,Open,57,56,-170,-170,-170,-170,95,-100,100,100,185,-195,-195,185,,SBD,Single-ply
6,Sofia Kamlund,Sweden,Sweden,F,1990,33,,Open,84,82.1,-220,-220,220,220,-140,-140,140,140,180,190,-192.5,190,550,SBD,Single-ply
1,Marte Elverum,Norway,Norway,F,1990,33,,Open,76,74.44,230,-240,245,245,130,-135,135,135,230,242.5,250,250,630,SBD,Single-ply
5,Sandrine Quignaudon,Sweden,Sweden,F,1991,32,,Open,52,51.13,155,165,170,170,-85,85,90,90,145,152.5,160,160,420,SBD,Single-ply
2,Frida Wik,Sweden,Sweden,F,1991,32,,Open,76,75.55,210,217.5,-220,217.5,147.5,152.5,155,155,190,195,200,200,572.5,SBD,Single-ply
4,Andreea Vasilescu,Romania,Romania,F,1991,32,,Open,57,56.84,160,170,182.5,182.5,92.5,-97.5,-97.5,92.5,150,160,-170,160,435,SBD,Single-ply
7,Christie Civetta,Great Britain,UK,F,1992,31,,Open,84,83.81,-217.5,217.5,-230,217.5,132.5,137.5,142.5,142.5,175,187.5,-195,187.5,547.5,SBD,Single-ply
3,Annemia Pretzmann,Denmark,Denmark,F,1992,31,,Open,76,75.61,190,-200,200,200,155,160,-162.5,160,182.5,192.5,207.5,207.5,567.5,SBD,Single-ply
3,Amalie Larsson,Denmark,Denmark,F,1992,31,,Open,84+,100.33,232.5,-245,,232.5,130,135,140,140,190,205,-210,205,577.5,SBD,Single-ply
2,Valentina Zagoruyko,Ukraine,Ukraine,F,1992,31,,Open,84+,95.51,247.5,260,265,265,150,-160,-160,150,195,207.5,-217.5,207.5,622.5,SBD,Single-ply
1,Anna Sørlie Heranger,Norway,Norway,F,1992,31,,Open,84,83.95,250,255,260,260,155,-160,-160,155,210,217.5,220,220,635,SBD,Single-ply
2,Radostina Lulova,Bulgaria,Bulgaria,F,1993,30,,Open,63,62.32,215,225,-230,225,90,95,100,100,190,197.5,202.5,202.5,527.5,SBD,Single-ply
7,Amy Spencer,Great Britain,UK,F,1993,30,,Open,76,75.94,197.5,202.5,-207.5,202.5,110,115,-120,115,160,170,177.5,177.5,495,SBD,Single-ply
6,Romina Basting,Great Britain,UK,F,1993,30,,Open,63,61.15,162.5,-170,-170,162.5,90,97.5,105,105,-120,120,125,125,392.5,SBD,Single-ply
4,Karmen Kaljula,Estonia,Estonia,F,1994,29,,Open,76,71.64,190,200,,200,-155,155,160,160,185,197.5,205,205,565,SBD,Single-ply
2,Holly Bryans,Great Britain,UK,F,1994,29,,Open,69,68.76,210,220,-225,220,115,125,130,130,190,202.5,207.5,207.5,557.5,SBD,Single-ply
DQ,Ingvild Hansen,Norway,Norway,F,1994,29,,Open,69,67.27,195,202.5,-207.5,202.5,-157.5,-157.5,-157.5,,185,190,192.5,192.5,,SBD,Single-ply
6,Catherine Hoaresmith,Great Britain,UK,F,1995,28,,Open,57,54.8,145,155,165,165,72.5,77.5,-82.5,77.5,160,175,185,185,427.5,SBD,Single-ply
5,Lucy Hart,Great Britain,UK,F,1995,28,,Open,57,56.92,180,185,-190,185,85,90,95,95,140,150,-157.5,150,430,SBD,Single-ply
3,Blanka Bartoňková,Czechia,Czechia,F,1995,28,,Open,57,55.87,170,182.5,-190,182.5,95,100,105,105,160,170,177.5,177.5,465,SBD,Single-ply
1,Tetiana Bila,Ukraine,Ukraine,F,1996,27,,Open,47,46.46,165,175,-188.5,175,92.5,-102.5,102.5,102.5,145,152.5,157.5,157.5,435,SBD,Single-ply
3,Ines Kahrer,Austria,Austria,F,1996,27,,Open,69,68.15,-215,215,225,225,135,140,142.5,142.5,172.5,182.5,-187.5,182.5,550,SBD,Single-ply
2,Tetyana Shchavinska,Ukraine,Ukraine,F,1996,27,,Open,57,54.12,170,180,185,185,120,127.5,132.5,132.5,155,165,-167.5,165,482.5,SBD,Single-ply
8,Margarita Kirilova,Bulgaria,Bulgaria,F,1997,26,,Open,57,56.51,-145,145,150,150,82.5,85,90,90,150,157.5,-165,157.5,397.5,SBD,Single-ply
DQ,Ioana Petcu,Romania,Romania,F,1997,26,,Open,69,66.43,150,-160,167.5,167.5,-70,-75,-75,,140,150,-160,150,,SBD,Single-ply
7,Mélodie Darmon,France,France,F,1997,26,,Open,57,56.92,167.5,-175,,167.5,-95,-95,95,95,162.5,-175,-175,162.5,425,SBD,Single-ply
3,Marthe Tjelta,Norway,Norway,F,1999,24,,Open,63,62.95,195,-202.5,-202.5,195,125,132.5,137.5,137.5,175,185,-192.5,185,517.5,SBD,Single-ply
3,Daniela Stroe,Romania,Romania,F,1999,24,,Open,47,46.66,110,-115,115,115,55,60,65,65,120,130,-135,130,310,SBD,Single-ply
DQ,Zuzanna Kula,Poland,Poland,F,1999,24,,Open,57,55.14,75,85,,85,-153,-156.5,-156.5,,,,,,,SBD,Single-ply
2,Olivia Kyösti,Finland,Finland,F,1999,24,,Open,52,51.89,172.5,180,185,185,-105,105,110,110,160,167.5,-170,167.5,462.5,SBD,Single-ply
1,Karen Thrige Andersen,Denmark,Denmark,F,2000,23,,Juniors,84,82.32,-250,-250,250,250,-100,-100,100,100,150,170,185,185,535,SBD,Single-ply
2,Dariia Holovko,Ukraine,Ukraine,F,2000,23,,Juniors,43,42.08,120,-125,-125,120,57.5,60,-62.5,60,112.5,-117.5,-120,112.5,292.5,SBD,Single-ply
1,Emily Finnern,Germany,Germany,F,2000,23,,Juniors,63,62.06,-210,210,217.5,217.5,150,-155,-155,150,160,167.5,172.5,172.5,540,SBD,Single-ply
1,Juliane Slettnes,Norway,Norway,F,2001,22,,Juniors,76,71.91,220,232.5,240,240,125,132.5,-137.5,132.5,180,190,207.5,207.5,580,SBD,Single-ply
2,Sofia Räihä,Finland,Finland,F,2001,22,,Juniors,69,65.9,180,187.5,192.5,192.5,110,115,120,120,175,-180,-182.5,175,487.5,SBD,Single-ply
3,Daria Rusanenko,Ukraine,Ukraine,F,2001,22,,Juniors,84,77.17,260,276,,276,145,150,-155,150,200,-215,-215,200,626,SBD,Single-ply
2,Patricia Slizova,Slovakia,Slovakia,F,2001,22,,Juniors,84,82.8,175,-190,190,190,107.5,112.5,-115,112.5,135,150,-155,150,452.5,SBD,Single-ply
1,Sóley Margrét Jónsdóttir,Iceland,Iceland,F,2001,22,,Juniors,84+,117.95,245,260,270,270,170,182.5,-190,182.5,180,200,207.5,207.5,660,SBD,Single-ply
1,Oksana Sukhodieieva,Ukraine,Ukraine,F,2001,22,,Juniors,43,42.31,120,125,130,130,65,67.5,70,70,92.5,97.5,100,100,300,SBD,Single-ply
3,Julia Bilicka,Poland,Poland,F,2002,21,,Juniors,69,68.1,170,182.5,192.5,192.5,85,90,-95,90,170,180,-190,180,462.5,SBD,Single-ply
5,Paulina Białecka,Poland,Poland,F,2002,21,,Juniors,57,56.99,115,-127.5,-130,115,60,65,72.5,72.5,115,127.5,-132.5,127.5,315,SBD,Single-ply
3,Kateryna Muliar,Ukraine,Ukraine,F,2002,21,,Juniors,76,75.37,-205,207.5,217.5,217.5,-107.5,-110,110,110,170,182.5,195,195,522.5,SBD,Single-ply
1,Tuva Lierhagen,Norway,Norway,F,2003,20,,Juniors,84+,94.12,210,222.5,227.5,227.5,125,135,140,140,180,190,197.5,197.5,565,SBD,Single-ply
5,Olívia Lapšanská,Slovakia,Slovakia,F,2003,20,,Juniors,69,67.92,165,-175,-175,165,-80,80,85,85,145,-155,-155,145,395,SBD,Single-ply
1,Yasmina Juliette Havnen,Norway,Norway,F,2003,20,,Juniors,69,67.72,195,202.5,-210,202.5,105,110,112.5,112.5,165,175,-182.5,175,490,SBD,Single-ply
2,Veronika Bordiuh,Ukraine,Ukraine,F,2003,20,,Juniors,63,62.85,190,202.5,-212.5,202.5,110,-120,-120,110,150,160,170,170,482.5,SBD,Single-ply
2,Eleonora Pontoni,Italy,Italy,F,2003,20,,Juniors,76,75.81,-202.5,207.5,212.5,212.5,155,162.5,170,170,180,190,197.5,197.5,580,SBD,Single-ply
4,Sofiia Bzdyr,Ukraine,Ukraine,F,2003,20,,Juniors,57,55.79,130,-140,142.5,142.5,45,-65,-65,45,105,130,-137.5,130,317.5,SBD,Single-ply
1,Mariia Polianska,Ukraine,Ukraine,F,2003,20,,Juniors,52,50.13,155,-170,175,175,80,-87.5,-95,80,150,165,-170,165,420,SBD,Single-ply
3,Alexandra Cazacu,Romania,Romania,F,2003,20,,Juniors,57,56.46,150,-157.5,-157.5,150,52.5,57.5,-60,57.5,130,137.5,142.5,142.5,350,SBD,Single-ply
1,Wiktoria Cichocka,Poland,Poland,F,2004,19,,Juniors,57,53.55,145,155,165,165,65,85,90,90,140,-150,150,150,405,SBD,Single-ply
2,Lara Hinz,Germany,Germany,F,2004,19,,Juniors,84+,90.82,215,-225,-230,215,-125,127.5,132.5,132.5,185,195,200,200,547.5,SBD,Single-ply
4,Oleksandra Borshch,Ukraine,Ukraine,F,2004,19,,Juniors,69,68.55,-175,175,185,185,70,80,-92.5,80,160,170,-177.5,170,435,SBD,Single-ply
2,Mariya Kozir,Ukraine,Ukraine,F,2004,19,,Juniors,57,56.9,130,140,145,145,90,100,-105,100,130,137.5,-145,137.5,382.5,SBD,Single-ply
3,Eerika Palosaari,Finland,Finland,F,2005,18,,Sub-Juniors,52,51.65,120,-125,127.5,127.5,-80,80,82.5,82.5,120,130,-140,130,340,SBD,Single-ply
1,Valeriia Koniukhova,Ukraine,Ukraine,F,2005,18,,Sub-Juniors,43,41.92,105,110,115,115,47.5,52.5,-55,52.5,105,115,125,125,292.5,SBD,Single-ply
1,Tetiana Muzychenko,Ukraine,Ukraine,F,2005,18,,Sub-Juniors,52,50.84,-130,130,142.5,142.5,67.5,72.5,77.5,77.5,115,122.5,127.5,127.5,347.5,SBD,Single-ply
1,Alina Nikohosian,Ukraine,Ukraine,F,2005,18,,Sub-Juniors,84,83.87,160,170,180,180,95,100,105,105,125,135,142.5,142.5,427.5,SBD,Single-ply
2,Khrystyna Ulianyk,Ukraine,Ukraine,F,2005,18,,Sub-Juniors,43,39.38,80,-95,95,95,40,45,-52.5,45,80,95,-100,95,235,SBD,Single-ply
2,Natasza Rajewska,Poland,Poland,F,2006,17,,Sub-Juniors,57,54.14,-125,-125,125,125,65,67.5,-72.5,67.5,135,140,-155,140,332.5,SBD,Single-ply
1,Anastasia Artyomova,Ukraine,Ukraine,F,2006,17,,Sub-Juniors,69,67.67,150,162.5,172.5,172.5,100,107.5,-112.5,107.5,130,140,-150,140,420,SBD,Single-ply
2,Karolina Milatova,Slovakia,Slovakia,F,2006,17,,Sub-Juniors,52,51.27,120,125,-127.5,125,-65,65,70,70,130,135,145,145,340,SBD,Single-ply
4,Bianca Todorescu,Romania,Romania,F,2006,17,,Sub-Juniors,52,50.99,120,-125,-125,120,77.5,82.5,85,85,102.5,110,112.5,112.5,317.5,SBD,Single-ply
1,Sofiya Stanko,Ukraine,Ukraine,F,2006,17,,Sub-Juniors,63,59.35,150,162.5,172.5,172.5,95,105,110,110,130,137.5,145,145,427.5,SBD,Single-ply
1,Sandra Dzieżok,Poland,Poland,F,2007,16,,Sub-Juniors,57,56.61,130,137.5,142.5,142.5,70,72.5,75,75,-130,130,-142.5,130,347.5,SBD,Single-ply
2,Gracie Besant,Great Britain,UK,F,2007,16,,Sub-Juniors,69,68.32,115,125,130,130,-65,65,-70,65,150,163,-168,163,358,SBD,Single-ply
3,Ninni Kopola,Finland,Finland,F,2007,16,,Sub-Juniors,63,61.83,115,125,132.5,132.5,67.5,72.5,,72.5,110,125,127.5,127.5,332.5,SBD,Single-ply
1,Reda Laurinavičiūtė,Lithuania,Lithuania,F,2007,16,,Sub-Juniors,84+,85.74,135,145,155,155,80,-85,85,85,155,-167.5,-167.5,155,395,SBD,Single-ply
2,Ana Maria Oproiu,Romania,Romania,F,2007,16,,Sub-Juniors,47,46.44,-87.5,-87.5,87.5,87.5,37.5,42.5,-50,42.5,80,85,-90,85,215,SBD,Single-ply
1,Zuzanna Znojek,Poland,Poland,F,2008,15,,Sub-Juniors,47,46.37,85,90,95,95,42.5,47.5,50,50,85,95,100,100,245,SBD,Single-ply
2,Mariia Zbandut,Ukraine,Ukraine,F,2008,15,,Sub-Juniors,63,58.98,160,-170,170,170,-85,-85,85,85,125,-132.5,,125,380,SBD,Single-ply
