Division,WeightClassKg,Place,Name,Team,BodyweightKg,Best3SquatKg,Best3BenchKg,Best3DeadliftKg,TotalKg,Equipment,Event,Sex
Boys,51.71,1,Reese Turner,Tyler Chapel Hill,51.71,124.74,65.77,136.08,326.59,Single-ply,SBD,M
Boys,51.71,2,Ricardo Rodriguez,Athens,51.71,95.25,70.31,127.01,292.57,Single-ply,SBD,M
Boys,51.71,3,Nathan Upshaw,Rusk,48.08,113.4,54.43,106.59,274.42,Single-ply,SBD,M
Boys,51.71,4,Nathan Evans,Lindale,49.9,104.33,54.43,111.13,269.89,Single-ply,SBD,M
Boys,51.71,5,Jacob Lopez,Ferris,50.8,83.91,40.82,90.72,215.46,Single-ply,SBD,M
Boys,55.79,1,Edward Green,Daingerfield,53.07,124.74,52.16,154.22,331.12,Single-ply,SBD,M
Boys,55.79,2,Brian Ray,Diana New Diana,54.43,106.59,63.5,122.47,292.57,Single-ply,SBD,M
Boys,55.79,3,Rick Francis,Brownsboro,55.79,108.86,72.57,108.86,290.3,Single-ply,SBD,M
Boys,55.79,4,Luis Camacho,Athens,54.43,95.25,52.16,120.2,267.62,Single-ply,SBD,M
Boys,55.79,5,Anthony Arreola,Ferris,53.07,104.33,49.9,102.06,256.28,Single-ply,SBD,M
Boys,59.87,1,Logan Brown,Palestine,59.87,183.7,106.59,183.7,474,Single-ply,SBD,M
Boys,59.87,2,Jeremy Turner,Rusk,57.61,138.35,61.23,127.01,326.59,Single-ply,SBD,M
Boys,59.87,3,Dylan Thompson,Rusk,57.15,133.81,74.84,111.13,319.78,Single-ply,SBD,M
Boys,59.87,4,Ashton Griffin,Lindale,57.61,115.67,68.04,131.54,315.25,Single-ply,SBD,M
Boys,59.87,DQ,Shawn Hooks,Daingerfield,56.7,138.35,,147.42,,Single-ply,SBD,M
Boys,67.13,1,Cord Fountain,Lindale,66.68,151.95,97.52,181.44,430.91,Single-ply,SBD,M
Boys,67.13,2,Riley Foshee,Lindale,63.5,167.83,86.18,170.1,424.11,Single-ply,SBD,M
Boys,67.13,3,Chaston Bennett,Rusk,64.86,165.56,83.91,170.1,419.57,Single-ply,SBD,M
Boys,67.13,4,Cory Davis,Diana New Diana,63.05,161.03,83.91,142.88,387.82,Single-ply,SBD,M
Boys,67.13,5,Juan Hernández #9,Ferris,65.77,145.15,92.99,147.42,385.55,Single-ply,SBD,M
Boys,67.13,6,Derrick Adams,Palestine,63.96,145.15,83.91,154.22,383.29,Single-ply,SBD,M
Boys,67.13,7,Jacob Shaw,Tyler Chapel Hill,65.32,136.08,72.57,136.08,344.73,Single-ply,SBD,M
Boys,67.13,8,Daniel Salazar,Athens,64.86,106.59,86.18,145.15,337.93,Single-ply,SBD,M
Boys,67.13,9,Booker Winn,Palestine,67.13,108.86,77.11,145.15,331.12,Single-ply,SBD,M
Boys,67.13,10,Erick Garcia #6,Athens,62.14,106.59,77.11,142.88,326.59,Single-ply,SBD,M
Boys,67.13,11,Tyler Thomison,Brownsboro,63.5,122.47,68.04,127.01,317.51,Single-ply,SBD,M
Boys,67.13,12,Davis Wammack,Malakoff,65.32,108.86,,124.74,233.6,Single-ply,SD,M
Boys,67.13,DQ,Charles Norris,Oakwood,64.41,79.38,,86.18,,Single-ply,SD,M
Boys,67.13,DQ,Karson Street,Malakoff,64.86,127.01,,117.93,,Single-ply,SD,M
Boys,67.13,DQ,Eric Adams #4,Palestine,67.13,,,,,Single-ply,SD,M
Boys,74.84,1,Austin Gipson,Jacksonville,74.84,192.78,117.93,210.92,521.63,Single-ply,SBD,M
Boys,74.84,2,DeMarcus Lynch,Lindale,74.39,208.65,99.79,201.85,510.29,Single-ply,SBD,M
Boys,74.84,3,Rj Newsome,Brownsboro,71.67,181.44,111.13,179.17,471.74,Single-ply,SBD,M
Boys,74.84,4,Tre Acy,Lindale,74.84,188.24,99.79,174.63,462.66,Single-ply,SBD,M
Boys,74.84,5,Mikey Ramirez,Brownsboro,71.21,158.76,99.79,190.51,449.06,Single-ply,SBD,M
Boys,74.84,6,Chase Emerson,Rusk,74.84,190.51,102.06,156.49,449.06,Single-ply,SBD,M
Boys,74.84,7,JR Pena,Ferris,73.03,170.1,92.99,181.44,444.52,Single-ply,SBD,M
Boys,74.84,8,Edwin Mims,Daingerfield,73.94,174.63,81.65,170.1,426.38,Single-ply,SBD,M
Boys,74.84,9,Jay Reagan,Tyler Chapel Hill,73.48,154.22,95.25,156.49,405.97,Single-ply,SBD,M
Boys,74.84,10,Louis Collins #2,Oakwood,74.39,147.42,102.06,151.95,401.43,Single-ply,SBD,M
Boys,74.84,11,Christian Ward,Palestine,68.95,149.69,90.72,142.88,383.29,Single-ply,SBD,M
Boys,74.84,12,Cason Fogle,Diana New Diana,70.31,145.15,92.99,145.15,383.29,Single-ply,SBD,M
Boys,74.84,13,Cesar Garcia #2,Malakoff,68.95,136.08,77.11,140.61,353.8,Single-ply,SBD,M
Boys,74.84,14,Bryce Newman,Palestine,74.84,113.4,90.72,127.01,331.12,Single-ply,SBD,M
Boys,74.84,DQ,Jordan Harris #5,Malakoff,74.84,111.13,,122.47,,Single-ply,SBD,M
Boys,74.84,DQ,Michael Watts,Palestine,74.84,,,,,Single-ply,SBD,M
Boys,74.84,DQ,Daniel McHenry,Lindale,70.76,156.49,,,,Single-ply,SBD,M
Boys,82.1,1,Beau Brewer,Diana New Diana,78.47,204.12,145.15,199.58,548.85,Single-ply,SBD,M
Boys,82.1,2,Clay Price,Lindale,78.02,215.46,95.25,201.85,512.56,Single-ply,SBD,M
Boys,82.1,3,Austin Goulette,Rusk,81.65,188.24,129.27,192.78,510.29,Single-ply,SBD,M
Boys,82.1,4,Ray Rosales,Rusk,76.66,192.78,111.13,204.12,508.02,Single-ply,SBD,M
Boys,82.1,5,Dante Broussard,Brownsboro,79.38,183.7,102.06,179.17,464.93,Single-ply,SBD,M
Boys,82.1,6,David Overstreet,Rusk,79.83,156.49,81.65,219.99,458.13,Single-ply,SBD,M
Boys,82.1,7,Marcus Gentry,Ferris,78.02,163.29,102.06,170.1,435.45,Single-ply,SBD,M
Boys,82.1,8,Matthew Bullock,Malakoff,78.47,170.1,102.06,158.76,430.91,Single-ply,SBD,M
Boys,82.1,9,James Ruiz,Rusk,81.65,140.61,95.25,190.51,426.38,Single-ply,SBD,M
Boys,82.1,10,Brandon Wesley,Diana New Diana,78.47,151.95,99.79,163.29,415.04,Single-ply,SBD,M
Boys,82.1,11,Ezequiel Lopez,Ferris,81.65,120.2,79.38,124.74,324.32,Single-ply,SBD,M
Boys,82.1,12,Tyler Gowanlock,Diana New Diana,81.65,111.13,81.65,124.74,317.51,Single-ply,SBD,M
Boys,82.1,13,Hunter Patterson,Diana New Diana,78.93,117.93,61.23,129.27,308.44,Single-ply,SBD,M
Boys,82.1,DQ,Tad Gholston,Daingerfield,81.65,181.44,,163.29,,Single-ply,SBD,M
Boys,82.1,DQ,Christian Brummett,Oakwood,77.11,142.88,,147.42,,Single-ply,SBD,M
Boys,82.1,DQ,Rex Rollins,Tyler Chapel Hill,81.65,192.78,,,,Single-ply,SBD,M
Boys,82.1,DQ,Bobby Walker,Palestine,82.1,,,,,Single-ply,SBD,M
Boys,89.81,1,Donte Marsh,Lindale,89.36,192.78,138.35,199.58,530.7,Single-ply,SBD,M
Boys,89.81,2,Brandoyn Bell,Tyler Chapel Hill,84.82,197.31,120.2,195.04,512.56,Single-ply,SBD,M
Boys,89.81,3,Eduardo Garcia #6,Ferris,87.09,181.44,95.25,183.7,460.4,Single-ply,SBD,M
Boys,89.81,4,Dustin Higgs,Malakoff,82.55,154.22,111.13,163.29,428.64,Single-ply,SBD,M
Boys,89.81,5,Aj Carter,Oakwood,83.46,163.29,106.59,158.76,428.64,Single-ply,SBD,M
Boys,89.81,6,David Havlik,Malakoff,84.37,147.42,106.59,170.1,424.11,Single-ply,SBD,M
Boys,89.81,7,Swaide Houston,Brownsboro,89.81,158.76,88.45,176.9,424.11,Single-ply,SBD,M
Boys,89.81,8,Taylor Ligon,Diana New Diana,83.91,158.76,108.86,154.22,421.84,Single-ply,SBD,M
Boys,89.81,9,Eduardo Limon,Athens,89.81,136.08,81.65,170.1,387.82,Single-ply,SBD,M
Boys,89.81,10,Danny Garza,Athens,87.09,136.08,99.79,140.61,376.48,Single-ply,SBD,M
Boys,89.81,11,Treston Kennedy,Palestine,85.73,111.13,61.23,111.13,283.5,Single-ply,SBD,M
Boys,89.81,12,Michael Castillo,Palestine,85.73,74.84,65.77,136.08,276.69,Single-ply,SBD,M
Boys,89.81,DQ,Jacquez Anderson,Oakwood,88,188.24,,,,Single-ply,SBD,M
Boys,99.79,1,Jaren Kennedy,Tyler Chapel Hill,99.79,215.46,147.42,219.99,582.87,Single-ply,SBD,M
Boys,99.79,2,Oscar Olivarez,Brownsboro,94.35,206.38,111.13,213.19,530.7,Single-ply,SBD,M
Boys,99.79,3,Keiundas Wade,Tyler Chapel Hill,95.71,181.44,117.93,190.51,489.88,Single-ply,SBD,M
Boys,99.79,4,Martin Guerrero,Ferris,93.89,183.7,108.86,185.97,478.54,Single-ply,SBD,M
Boys,99.79,5,Taylor Woodruff,Brownsboro,95.25,183.7,99.79,192.78,476.27,Single-ply,SBD,M
Boys,99.79,6,Dillon Atkins,Tyler Chapel Hill,95.25,170.1,90.72,183.7,444.52,Single-ply,SBD,M
Boys,99.79,7,Ty Lomas,Daingerfield,92.99,199.58,90.72,142.88,433.18,Single-ply,SBD,M
Boys,99.79,8,Alex Chicas,Palestine,92.53,154.22,92.99,172.37,419.57,Single-ply,SBD,M
Boys,99.79,9,Octavian Arrington,Rusk,91.63,142.88,88.45,165.56,396.89,Single-ply,SBD,M
Boys,99.79,10,Brian DeLaCruz #2,Malakoff,90.72,136.08,83.91,167.83,387.82,Single-ply,SBD,M
Boys,99.79,11,Jontae Maxey,Palestine,97.07,136.08,90.72,127.01,353.8,Single-ply,SBD,M
Boys,99.79,12,Diego Medina,Malakoff,92.99,120.2,86.18,140.61,347,Single-ply,SBD,M
Boys,99.79,DQ,Tad Clark,Diana New Diana,97.07,,83.91,145.15,,Single-ply,SBD,M
Boys,109.77,1,Daniel Duran,Rusk,102.06,204.12,120.2,172.37,496.68,Single-ply,SBD,M
Boys,109.77,2,Cody Foster,Palestine,100.7,167.83,90.72,124.74,383.29,Single-ply,SBD,M
Boys,109.77,3,Cru Barnes,Diana New Diana,100.7,113.4,68.04,133.81,315.25,Single-ply,SBD,M
Boys,109.77,DQ,Brian Thlang,Palestine,109.77,,,,,Single-ply,SBD,M
Boys,109.77,DQ,Chance Noble,Palestine,109.77,,,,,Single-ply,SBD,M
Boys,124.74,1,Sammy Calhoun,Palestine,111.13,294.84,170.1,256.28,721.21,Single-ply,SBD,M
Boys,124.74,2,Charlie Perry,Palestine,124.74,210.92,158.76,224.53,594.21,Single-ply,SBD,M
Boys,124.74,3,Micah Simmons,Lindale,118.84,201.85,163.29,217.72,582.87,Single-ply,SBD,M
Boys,124.74,4,Dillon Croley,Brownsboro,124.74,226.8,129.27,213.19,569.26,Single-ply,SBD,M
Boys,124.74,5,Roy Chaney,Ferris,122.47,238.14,124.74,201.85,564.72,Single-ply,SBD,M
Boys,124.74,6,Willie Anderson,Palestine,112.94,204.12,117.93,215.46,537.51,Single-ply,SBD,M
Boys,124.74,7,Rashad Reddix,Palestine,121.11,197.31,136.08,192.78,526.17,Single-ply,SBD,M
Boys,124.74,8,Alberto Rios,Athens,122.02,206.38,99.79,210.92,517.1,Single-ply,SBD,M
Boys,124.74,9,Matt Guerra,Ferris,114.31,215.46,117.93,174.63,508.02,Single-ply,SBD,M
Boys,124.74,10,Brandon Upshaw,Tyler Chapel Hill,122.02,204.12,117.93,181.44,503.49,Single-ply,SBD,M
Boys,124.74,11,Michael Daley,Athens,124.28,185.97,124.74,192.78,503.49,Single-ply,SBD,M
Boys,124.74,12,Matt Foote,Lindale,111.13,208.65,115.67,174.63,498.95,Single-ply,SBD,M
Boys,124.74,DQ,Kacee Newman,Palestine,124.74,,,,,Single-ply,SBD,M
Boys,124.74,DQ,Walter Sheridan,Palestine,124.74,,,,,Single-ply,SBD,M
Boys,124.74+,1,Andrew Keheley,Malakoff,142.88,283.5,165.56,226.8,675.85,Single-ply,SBD,M
Boys,124.74+,2,Jermaine Black,Palestine,140.61,244.94,151.95,247.21,644.1,Single-ply,SBD,M
Boys,124.74+,3,Sam Schomp,Lindale,138.35,249.48,149.69,215.46,614.62,Single-ply,SBD,M
Boys,124.74+,4,Alias Sardanetta,Oakwood,126.55,238.14,108.86,215.46,562.45,Single-ply,SBD,M
Boys,124.74+,5,Daniel Smith,Tyler Chapel Hill,130.63,210.92,138.35,192.78,542.04,Single-ply,SBD,M
Boys,124.74+,6,Tedrick Tilley,Jacksonville,136.08,197.31,129.27,204.12,530.7,Single-ply,SBD,M
Boys,124.74+,7,Antonio Romo,Lindale,142.88,208.65,124.74,197.31,530.7,Single-ply,SBD,M
Boys,124.74+,8,Cameron Bailey,Athens,140.61,183.7,113.4,204.12,501.22,Single-ply,SBD,M
Boys,124.74+,9,Zack Green,Malakoff,127.91,192.78,102.06,204.12,498.95,Single-ply,SBD,M
Boys,124.74+,10,James Brooks,Tyler Chapel Hill,140.61,219.99,108.86,165.56,494.42,Single-ply,SBD,M
Boys,124.74+,11,Josue Vargas,Ferris,142.88,226.8,86.18,170.1,483.08,Single-ply,SBD,M
