Division,WeightClassKg,Place,Name,Team,BodyweightKg,Best3SquatKg,Best3BenchKg,Best3DeadliftKg,TotalKg,Equipment,Event,Sex
Boys,51.71,1,Abraham Villarreal,Belton,47.81,102.06,54.43,127.01,283.5,Single-ply,SBD,M
Boys,51.71,2,Nik Hickman,Waco Midway,49.71,86.18,65.77,102.06,254.01,Single-ply,SBD,M
Boys,51.71,3,Carmondre Davis,Temple,51.26,88.45,56.7,102.06,247.21,Single-ply,SBD,M
Boys,51.71,4,Mason Dyess,Copperas Cove,45.45,83.91,52.16,102.06,238.14,Single-ply,SBD,M
Boys,51.71,5,Curvon Cunningham,Temple,45.72,77.11,52.16,102.06,231.33,Single-ply,SBD,M
Boys,55.79,1,Isaiah Robinson #4,Waco Midway,55.61,151.95,90.72,167.83,410.5,Single-ply,SBD,M
Boys,55.79,2,Johnny Martinez,Belton,54.88,117.93,79.38,136.08,333.39,Single-ply,SBD,M
Boys,55.79,3,Quintin Cannon,Belton,55.79,113.4,74.84,145.15,333.39,Single-ply,SBD,M
Boys,55.79,4,Cameron Przybylski,Belton,54.43,97.52,63.5,104.33,265.35,Single-ply,SBD,M
Boys,55.79,5,Matt Shillinglaw,Waco Midway,55.52,95.25,58.97,108.86,263.08,Single-ply,SBD,M
Boys,55.79,6,Chase Fortenberry,Waco Midway,53.8,86.18,58.97,102.06,247.21,Single-ply,SBD,M
Boys,55.79,7,Chris Perez,Holland,54.25,127.01,83.91,113.4,324.32,Single-ply,SBD,M
Boys,55.79,7,Robert Lopez,Belton,54.98,83.91,52.16,102.06,238.14,Single-ply,SBD,M
Boys,55.79,8,Jacob Sosebee,Waco Midway,53.98,61.23,45.36,88.45,195.04,Single-ply,SBD,M
Boys,59.87,DQ,Joseph Spivey,Belton,55.88,83.91,,,,Single-ply,SBD,M
Boys,67.13,1,Jonathan Johnson,Copperas Cove,60.06,156.49,90.72,197.31,444.52,Single-ply,SBD,M
Boys,59.87,2,Pete Contreras,Belton,59.15,154.22,90.72,147.42,392.36,Single-ply,SBD,M
Boys,59.87,3,Miguel Valdez,Georgetown East View,59.24,147.42,83.91,158.76,390.09,Single-ply,SBD,M
Boys,59.87,4,Jacob Torres,Holland,59.87,120.2,97.52,129.27,347,Single-ply,SBD,M
Boys,59.87,5,Brian White #3,Belton,59.78,133.81,74.84,127.01,335.66,Single-ply,SBD,M
Boys,59.87,6,Eric Moore,Copperas Cove,58.24,127.01,74.84,127.01,328.85,Single-ply,SBD,M
Boys,74.84,1,Xavier Moffitt,Belton,67.27,174.63,102.06,238.14,514.83,Single-ply,SBD,M
Boys,74.84,2,Ryan Arnold #5,Georgetown,67.22,206.38,97.52,199.58,503.49,Single-ply,SBD,M
Boys,67.13,3,Logan Hager,Georgetown,67.04,158.76,95.25,142.88,396.89,Single-ply,SBD,M
Boys,67.13,4,Ledarian Johnson,Copperas Cove,66.68,142.88,95.25,154.22,392.36,Single-ply,SBD,M
Boys,67.13,5,Cario Attaway,Waco Midway,64.14,124.74,95.25,170.1,390.09,Single-ply,SBD,M
Boys,67.13,6,Corey Anderson #2,Holland,63.87,140.61,81.65,163.29,385.55,Single-ply,SBD,M
Boys,67.13,7,Tim Bechtold,Copperas Cove,64.05,142.88,88.45,154.22,385.55,Single-ply,SBD,M
Boys,67.13,8,Soren San Miguel,Belton,66.95,142.88,90.72,151.95,385.55,Single-ply,SBD,M
Boys,74.84,9,Ricky Martin,Belton,67.22,136.08,81.65,165.56,383.29,Single-ply,SBD,M
Boys,67.13,10,Javis Lavan,Belton,65.95,129.27,97.52,149.69,376.48,Single-ply,SBD,M
Boys,74.84,11,Ben Ogara,Holland,67.36,147.42,92.99,136.08,376.48,Single-ply,SBD,M
Boys,67.13,12,Kyran Hudlin,Waco,63.5,131.54,90.72,147.42,369.68,Single-ply,SBD,M
Boys,67.13,13,Demeatric Brandon,Belton,65.5,140.61,77.11,151.95,369.68,Single-ply,SBD,M
Boys,67.13,14,Craig Morris,Belton,61.14,131.54,77.11,147.42,356.07,Single-ply,SBD,M
Boys,67.13,15,Danny Tucker,Waco,65.77,113.4,83.91,149.69,347,Single-ply,SBD,M
Boys,74.84,16,Richard Kimble,Belton,67.27,124.74,81.65,138.35,344.73,Single-ply,SBD,M
Boys,67.13,17,Raymond Lopez,Belton,66,113.4,74.84,140.61,328.85,Single-ply,SBD,M
Boys,67.13,18,Bradley Swartzengrabber,Copperas Cove,63.41,117.93,79.38,129.27,326.59,Single-ply,SBD,M
Boys,67.13,19,Sean Bedford,Copperas Cove,66.86,117.93,65.77,142.88,326.59,Single-ply,SBD,M
Boys,67.13,20,Garrett White,Belton,66.5,99.79,68.04,138.35,306.17,Single-ply,SBD,M
Boys,67.13,DQ,Treston Womack,Waco Midway,66.68,,,,,Single-ply,SBD,M
Boys,67.13,DQ,Miquel Anderson,Waco Midway,67.13,,,,,Single-ply,SBD,M
Boys,74.84,1,Case D'Herde,Waco Midway,74.84,188.24,117.93,235.87,542.04,Single-ply,SBD,M
Boys,74.84,2,R J Nava,Georgetown,73.12,204.12,127.01,197.31,528.44,Single-ply,SBD,M
Boys,82.1,DQ,Brandon Julian,Belton,75.02,,,,,Single-ply,SBD,M
Boys,74.84,DQ,Ben Munoz,Belton,74.03,,,,,Single-ply,SBD,M
Boys,82.1,5,Stephen Snyder,Belton,74.98,165.56,99.79,197.31,462.66,Single-ply,SBD,M
Boys,82.1,6,Breone Jackson,Copperas Cove,75.02,172.37,104.33,181.44,458.13,Single-ply,SBD,M
Boys,74.84,7,Issac Collins,Temple,68.49,174.63,99.79,181.44,455.86,Single-ply,SBD,M
Boys,74.84,8,Nate Pintor,Georgetown East View,72.57,158.76,99.79,163.29,421.84,Single-ply,SBD,M
Boys,74.84,9,Scott Thompson,Georgetown East View,71.58,142.88,92.99,176.9,412.77,Single-ply,SBD,M
Boys,74.84,10,Andy Owen,Waco Midway,74.48,154.22,95.25,161.03,410.5,Single-ply,SBD,M
Boys,74.84,11,Joe Warehime,Belton,74.84,151.95,104.33,151.95,408.23,Single-ply,SBD,M
Boys,74.84,12,Jeff Carr #1,Temple,70.67,147.42,90.72,165.56,403.7,Single-ply,SBD,M
Boys,74.84,13,Austin Wagner,Belton,74.75,138.35,97.52,158.76,394.63,Single-ply,SBD,M
Boys,74.84,14,John Allen,Copperas Cove,68.4,154.22,86.18,149.69,390.09,Single-ply,SBD,M
Boys,74.84,15,Austin Youngblood,Belton,72.57,136.08,83.91,170.1,390.09,Single-ply,SBD,M
Boys,74.84,16,Leno Santos,Holland,68.95,138.35,95.25,149.69,383.29,Single-ply,SBD,M
Boys,74.84,17,Denarius Brubon,Copperas Cove,74.48,115.67,70.31,124.74,310.71,Single-ply,SBD,M
Boys,74.84,DQ,Trent Foster,Belton,70.85,136.08,,,,Single-ply,SBD,M
Boys,74.84,DQ,Harrell Henderson,Waco Midway,73.66,197.31,102.06,,,Single-ply,SBD,M
Boys,82.1,1,Korey Chatman,Waco Midway,79.83,217.72,127.01,229.06,573.79,Single-ply,SBD,M
Boys,82.1,2,Tevin Jones,Belton,81.96,190.51,106.59,206.38,503.49,Single-ply,SBD,M
Boys,82.1,3,Anthony Clark #2,Copperas Cove,81.28,185.97,108.86,199.58,494.42,Single-ply,SBD,M
Boys,82.1,4,Karim Sarhani,Copperas Cove,76.84,149.69,108.86,185.97,444.52,Single-ply,SBD,M
Boys,82.1,5,Chris Terry,Temple,79.29,163.29,88.45,181.44,433.18,Single-ply,SBD,M
Boys,82.1,6,Hunter McVeigh,Copperas Cove,82.1,147.42,102.06,167.83,417.3,Single-ply,SBD,M
Boys,82.1,7,Tye Hill,Georgetown,76.57,154.22,97.52,158.76,410.5,Single-ply,SBD,M
Boys,82.1,8,Anthony Zamora,Belton,78.56,142.88,86.18,181.44,410.5,Single-ply,SBD,M
Boys,82.1,9,La Darius Thomas,Temple,78.65,161.03,102.06,136.08,399.16,Single-ply,SBD,M
Boys,82.1,10,William Curry,Belton,78.38,147.42,99.79,136.08,383.29,Single-ply,SBD,M
Boys,82.1,11,Austin Abbey,Copperas Cove,79.38,133.81,86.18,156.49,376.48,Single-ply,SBD,M
Boys,82.1,DQ,Marcelo Ferrer,Belton,81.83,113.4,,,,Single-ply,SBD,M
Boys,82.1,DQ,Ryan Johnson #16,Belton,80.83,,,,,Single-ply,SBD,M
Boys,89.81,1,Michael Hicks,Temple,87.36,226.8,131.54,235.87,594.21,Single-ply,SBD,M
Boys,89.81,2,Roderick Harris,Waco,89.81,226.8,113.4,197.31,537.51,Single-ply,SBD,M
Boys,99.79,3,Devin Mercer,Waco Midway,89.9,181.44,129.27,226.8,537.51,Single-ply,SBD,M
Boys,89.81,4,Nikka Davis,Waco,86,201.85,124.74,204.12,530.7,Single-ply,SBD,M
Boys,89.81,5,Ryan Vincent,Belton,86.64,176.9,127.01,213.19,517.1,Single-ply,SBD,M
Boys,99.79,6,Floyd Shook,Waco Midway,89.99,197.31,131.54,188.24,517.1,Single-ply,SBD,M
Boys,89.81,7,DArtagan Seay,Temple,88.09,174.63,122.47,208.65,505.76,Single-ply,SBD,M
Boys,89.81,8,Enrique Orellana,Belton,89.45,190.51,131.54,181.44,503.49,Single-ply,SBD,M
Boys,89.81,9,Chase McCosham,Belton,86.09,181.44,113.4,206.38,501.22,Single-ply,SBD,M
Boys,89.81,10,Rion Gibson,Holland,87.45,170.1,122.47,181.44,474,Single-ply,SBD,M
Boys,89.81,11,Gage Parker,Georgetown,86.45,174.63,122.47,156.49,453.59,Single-ply,SBD,M
Boys,89.81,12,Levi Reeves,Georgetown East View,89.72,181.44,88.45,179.17,449.06,Single-ply,SBD,M
Boys,89.81,13,Ryan Cox,Belton,85.91,181.44,104.33,158.76,444.52,Single-ply,SBD,M
Boys,89.81,14,Russell Mendoza,Belton,88.27,172.37,99.79,172.37,444.52,Single-ply,SBD,M
Boys,89.81,15,John Edwards,Belton,87.18,161.03,117.93,149.69,428.64,Single-ply,SBD,M
Boys,89.81,16,Ryan Johnson #23,Georgetown,88.45,156.49,102.06,154.22,412.77,Single-ply,SBD,M
Boys,89.81,17,Cody Garrett,Belton,89.18,154.22,79.38,165.56,399.16,Single-ply,SBD,M
Boys,89.81,18,Derrick Juptner,Georgetown,85.55,142.88,88.45,129.27,360.61,Single-ply,SBD,M
Boys,89.81,19,Jake Martinez,Georgetown,86,136.08,106.59,108.86,351.53,Single-ply,SBD,M
Boys,89.81,20,Dillon Haney,Holland,84.91,127.01,86.18,133.81,347,Single-ply,SBD,M
Boys,89.81,21,Arturo Rodriguez,Georgetown East View,83.01,117.93,79.38,136.08,333.39,Single-ply,SBD,M
Boys,89.81,22,Keifer Donovan,Copperas Cove,88.27,124.74,70.31,129.27,324.32,Single-ply,SBD,M
Boys,99.79,1,Xavier Bryant,Temple,99.43,249.48,151.95,238.14,639.57,Single-ply,SBD,M
Boys,99.79,2,Brent Marona,Copperas Cove,97.16,256.28,117.93,222.26,596.47,Single-ply,SBD,M
Boys,99.79,3,David Lopez #5,Temple,98.25,226.8,142.88,215.46,585.13,Single-ply,SBD,M
Boys,99.79,4,Josh Owens,Waco,94.98,219.99,122.47,226.8,569.26,Single-ply,SBD,M
Boys,99.79,5,Rayshawn Jones,Belton,98.57,215.46,113.4,226.8,555.65,Single-ply,SBD,M
Boys,99.79,6,David Vicars,Georgetown,91.81,183.7,124.74,204.12,512.56,Single-ply,SBD,M
Boys,109.77,7,Cody Caswell,Belton,99.93,163.29,117.93,226.8,508.02,Single-ply,SBD,M
Boys,99.79,8,John Lara,Belton,90.63,204.12,122.47,172.37,498.95,Single-ply,SBD,M
Boys,99.79,9,Jon Ladner,Waco Midway,96.25,192.78,124.74,181.44,498.95,Single-ply,SBD,M
Boys,99.79,10,Chase Mims,Waco Midway,96.62,181.44,122.47,192.78,496.68,Single-ply,SBD,M
Boys,99.79,11,Deshaun Sellers,Temple,90.54,183.7,115.67,192.78,492.15,Single-ply,SBD,M
Boys,99.79,12,Paul Crewford,Georgetown East View,98.61,170.1,124.74,131.54,426.38,Single-ply,SBD,M
Boys,99.79,13,Jake Blankenship,Georgetown,94.8,165.56,97.52,158.76,421.84,Single-ply,SBD,M
Boys,99.79,14,Josh Turner #6,Waco Midway,90.63,151.95,102.06,163.29,417.3,Single-ply,SBD,M
Boys,99.79,15,Brandon Gangloff,Belton,97.34,167.83,104.33,145.15,417.3,Single-ply,SBD,M
Boys,99.79,16,Cameron Horton,Georgetown,96.98,158.76,79.38,174.63,412.77,Single-ply,SBD,M
Boys,99.79,17,William Brummett,Holland,92.9,154.22,97.52,149.69,401.43,Single-ply,SBD,M
Boys,99.79,18,Jacob Alarcon,Belton,93.89,133.81,79.38,142.88,356.07,Single-ply,SBD,M
Boys,99.79,19,Dameion Cavazos,Georgetown,94.62,131.54,81.65,108.86,322.05,Single-ply,SBD,M
Boys,99.79,DQ,Kyle Webster,Copperas Cove,95.53,165.56,,,,Single-ply,SBD,M
Boys,109.77,DQ,Demarkes Mathis,Temple,104.96,,,,,Single-ply,SBD,M
Boys,109.77,2,Lorenzo Martinez,Georgetown,107.32,256.28,140.61,231.33,628.23,Single-ply,SBD,M
Boys,109.77,3,James Judie,Temple,102.6,231.33,115.67,235.87,582.87,Single-ply,SBD,M
Boys,109.77,4,Koby Williams,Belton,109.5,213.19,131.54,204.12,548.85,Single-ply,SBD,M
Boys,109.77,5,Derrick Moore,Waco,100.52,215.46,117.93,210.92,544.31,Single-ply,SBD,M
Boys,124.74,6,Jimmy Ayala,Waco Midway,109.86,204.12,133.81,190.51,528.44,Single-ply,SBD,M
Boys,109.77,7,OC Beasley,Waco,102.24,183.7,117.93,219.99,521.63,Single-ply,SBD,M
Boys,109.77,8,Aaron Johnson #15,Georgetown,109.23,195.04,102.06,156.49,453.59,Single-ply,SBD,M
Boys,109.77,9,Landon East,Holland,100.24,165.56,120.2,154.22,439.98,Single-ply,SBD,M
Boys,109.77,10,Austin Le Buef,Waco Midway,103.69,142.88,68.04,154.22,365.14,Single-ply,SBD,M
Boys,109.77,DQ,Evan Allison,Holland,100.52,,,,,Single-ply,SBD,M
Boys,124.74,1,Tanner Morgan,Temple,119.48,249.48,140.61,240.4,630.49,Single-ply,SBD,M
Boys,124.74,2,Rodarius Birks,Belton,124.1,272.16,133.81,224.53,630.49,Single-ply,SBD,M
Boys,124.74,3,Richard Carvajal,Waco,123.2,244.94,129.27,229.06,603.28,Single-ply,SBD,M
Boys,124.74,4,Brandon Sullivan,Belton,118.02,219.99,142.88,226.8,589.67,Single-ply,SBD,M
Boys,124.74,5,Donshay Johnson,Temple,118.39,260.82,124.74,201.85,587.4,Single-ply,SBD,M
Boys,124.74,6,Phil Auma,Copperas Cove,119.48,226.8,136.08,213.19,576.06,Single-ply,SBD,M
Boys,124.74,7,Darius Joiner,Temple,112.58,219.99,142.88,204.12,566.99,Single-ply,SBD,M
Boys,124.74,8,Mj Morris,Waco Midway,115.21,226.8,122.47,208.65,557.92,Single-ply,SBD,M
Boys,124.74,9,Justin Green,Copperas Cove,114.58,192.78,142.88,199.58,535.24,Single-ply,SBD,M
Boys,124.74,10,Justin Murphy,Belton,115.67,176.9,129.27,215.46,521.63,Single-ply,SBD,M
Boys,124.74,11,Cody Ullestad,Georgetown,111.13,192.78,124.74,190.51,508.02,Single-ply,SBD,M
Boys,124.74,12,Travis Fritz,Holland,112.85,188.24,102.06,179.17,469.47,Single-ply,SBD,M
Boys,124.74,13,Remmington Weis,Copperas Cove,113.31,183.7,99.79,179.17,462.66,Single-ply,SBD,M
Boys,124.74,14,Zach Shackleford,Belton,112.22,133.81,97.52,170.1,401.43,Single-ply,SBD,M
Boys,124.74,DQ,Cody Shuffield,Georgetown,111.13,165.56,,,,Single-ply,SBD,M
Boys,124.74+,1,Andrew Billings #1,Waco,143.15,340.19,215.46,294.84,850.49,Single-ply,SBD,M
Boys,124.74+,2,Davonte Moore,Temple,139.34,306.17,185.97,265.35,757.5,Single-ply,SBD,M
Boys,124.74+,3,Freddie Johnson,Temple,152.68,272.16,149.69,260.82,682.66,Single-ply,SBD,M
Boys,124.74+,4,Ronnie Jefferson,Temple,130.82,233.6,131.54,226.8,591.94,Single-ply,SBD,M
Boys,124.74+,5,Jose Reyes,Georgetown,132.45,217.72,124.74,217.72,560.19,Single-ply,SBD,M
Boys,124.74+,6,Dalton Hays,Waco Midway,133.36,226.8,127.01,158.76,512.56,Single-ply,SBD,M
