Name,Equipment,Sex,BirthDate,BodyweightKg,Age,Division,WeightClassKg,Squat1Kg,Squat2Kg,Squat3Kg,Best3SquatKg,Bench1Kg,Bench2Kg,Bench3Kg,Best3BenchKg,Deadlift1Kg,Deadlift2Kg,Deadlift3Kg,Best3DeadliftKg,Deadlift4Kg,TotalKg,Event,Place
Yanina Delvalle,Wraps,F,1978-08-29,54.6,44,M 40-44,56,70,90,102.5,102.5,50,55,57.5,57.5,90,105,115,115,,275,SBD,1
Antares Martinez,Wraps,F,1995-12-29,54.3,27,Open,56,100,110,120,120,60,65,-70,65,120,127.5,135,135,,320,SBD,1
Candela Soria,Wraps,F,2002-12-19,59.7,20,Jun,60,85,95,-105,95,47.5,-52.5,-55,47.5,100,107.5,115,115,,257.5,SBD,1
Micaela Yurrebaso,Wraps,F,2002-08-24,62.3,20,Jun,67.5,80,90,-105,90,45,52.5,57.5,57.5,85,95,-105,95,,242.5,SBD,3
Juana Ferez,Wraps,F,2000-08-09,65.9,22,Jun,67.5,110,-120,-120,110,40,45,-50,45,110,120,130,130,,285,SBD,1
Daira Drake,Wraps,F,2003-06-18,70.5,19,Tn 18-19,75,100,110,117.5,117.5,50,55,-60,55,105,115,120,120,,292.5,SBD,1
Yamila Maldonado,Wraps,F,2000-02-16,65.3,23,Jun,67.5,85,-95,-100,85,45,50,-55,50,100,110,120,120,,255,SBD,2
Natali Calderon,Raw,F,2002-03-01,66.3,21,Jun,67.5,65,75,85,85,40,45,-47.5,45,90,100,110,110,,240,SBD,1
Micaela Petrigliano,Wraps,F,1993-11-30,66.7,29,Open,67.5,167.5,177.5,,177.5,80,85,-92.5,85,165,175,185,185,,447.5,SBD,1
Macarena Bracco,Wraps,F,1988-03-03,68.2,35,Open,75,100,110,120,120,50,57.5,62.5,62.5,100,110,120,120,,302.5,SBD,1
Romina Rampi,Wraps,F,1983-02-23,70.1,40,M 40-44,75,105,115,125,125,55,60,65,65,-120,132.5,145,145,,335,SBD,1
Marcela Perez,Wraps,F,1979-02-09,74.7,44,M 40-44,75,85,95,100,100,45,50,-55,50,100,110,115,115,,265,SBD,2
Florencia Branca,Wraps,F,1999-02-08,80.7,24,Open,82.5,152.5,-162.5,162.5,162.5,62.5,70,-75,70,152.5,162.5,172.5,172.5,,405,SBD,1
Vanessa Leones,Wraps,F,1979-04-24,91.2,44,Open,90+,175,185,195,195,92.5,97.5,-100,97.5,180,190,-200,190,,482.5,SBD,1
Gabriel Verdun,Wraps,M,2003-03-18,55.5,20,Jun,56,95,105,110,110,60,65,67.5,67.5,105,115,120,120,,297.5,SBD,1
Cristian Giulani,Raw,M,1989-04-30,58.6,34,Open,60,120,130,140,140,90,-95,95,95,170,180,-185,180,,415,SBD,1
Agustin Andrada,Raw,M,1999-05-23,73.9,24,Open,75,115,125,135,135,87.5,95,105,105,145,157.5,170,170,,410,SBD,1
Nicolas Bilyk,Wraps,M,2007-11-07,71.1,15,Tn 13-15,75,125,135,145,145,65,70,-75,70,130,140,150,150,,365,SBD,1
Alvaro Ruiz,Raw,M,2008-03-28,77.9,15,Tn 13-15,82.5,-120,-120,120,120,100,107.5,-112.5,107.5,155,167.5,-172.5,167.5,,395,SBD,1
Ciro Romitti,Wraps,M,2007-04-05,71.5,16,Tn 16-17,75,130,140,-150,140,65,72.5,-80,72.5,140,150,155,155,,367.5,SBD,2
Francisco Milesi,Wraps,M,2005-10-27,78.3,17,Tn 16-17,82.5,150,160,170,170,90,100,105,105,180,195,205,205,,480,SBD,1
Juan Richard,Raw,M,2007-04-20,77.9,16,Tn 16-17,82.5,150,160,170,170,85,95,-100,95,160,170,180,180,,445,SBD,1
Sergio Gomez,Wraps,M,2005-07-07,73.4,17,Tn 16-17,75,150,160,170,170,75,82.5,90,90,140,150,165,165,,425,SBD,1
Lautaro Lambertucci,Wraps,M,2005-03-08,90,18,Tn 18-19,90,180,-195,200,200,100,110,,110,210,225,-240,225,,535,SBD,1
Maximo Ramirez,Wraps,M,2005-08-17,90,17,Tn 16-17,90,170,180,195,195,85,95,-105,95,180,190,200,200,,490,SBD,1
Agustin Bonafede,Raw,M,2005-01-31,79.6,18,Tn 18-19,82.5,140,155,-165,155,-80,-95,-95,,140,170,185,185,,,SBD,DQ
Matías Videla,Wraps,M,2010-08-08,54.6,12,SubJun,56,85,90,95,95,-40,40,47.5,47.5,90,100,-107.5,100,,242.5,SBD,1
Joaquín Luppo,Wraps,M,2007-08-29,98.8,15,Tn 13-15,100,-95,95,-105,95,53,57.5,60,60,120,130,140,140,150.5,295,SBD,1
Josue Cervelli,Wraps,M,1999-05-12,57,24,Open,60,90,100,110,110,55,65,-70,65,105,110,120,120,,295,SBD,1
Nicolas Contreras,Wraps,M,2000-11-27,73.1,22,Jun,75,170,182.5,190,190,95,105,110,110,180,195,207.5,207.5,,507.5,SBD,2
Juan Ignacio Romero,Wraps,M,2002-06-07,69.6,20,Jun,75,190,200,-210,200,110,117.5,-120,117.5,190,195,200,200,,517.5,SBD,1
Gonzalo Gariglio,Wraps,M,1999-11-04,80.3,23,Jun,82.5,170,185,-192.5,185,105,117.5,-125,117.5,200,210,-220,210,,512.5,SBD,1
Ignacio Imobedor,Wraps,M,2003-05-14,80.4,20,Jun,82.5,-160,160,-185,160,105,107.5,110,110,160,175,,175,,445,SBD,2
Franco Bruno,Wraps,M,1999-11-01,83,23,Jun,90,205,-212.5,,205,122.5,-130,-130,122.5,195,205,,205,,532.5,SBD,2
Agustin Ercolano,Wraps,M,2001-05-28,89.4,21,Jun,90,210,-220,-230,210,107.5,117.5,-125,117.5,210,220,230,230,,557.5,SBD,1
Alex Luppo,Wraps,M,2000-05-23,97.6,23,Jun,100,147.5,157.5,-165,157.5,-72.5,72.5,77.5,77.5,160,170,180,180,,415,SBD,1
Matias Muñoz,Wraps,M,2001-06-26,109.1,21,Jun,110,217.5,225,235,235,122.5,-130,135,135,220,230,240,240,,610,SBD,2
Thiago Erdocia,Wraps,M,2001-12-06,109.9,21,Jun,110,240,-252.5,,240,165,175,185,185,250,265,280,280,,705,SBD,1
Joaquín Díaz,Wraps,M,2002-01-25,146.1,21,Jun,140+,240,260,-270,260,140,150,-160,150,230,240,,240,,650,SBD,1
Martin Dos Santos,Raw,M,1972-12-31,81.9,50,M 50-54,82.5,150,-165,170,170,110,120,-130,120,185,195,205,205,,495,SBD,1
Daniel Luciani,Wraps,M,1971-10-23,93,51,M 50-54,100,140,150,160,160,95,107.5,112.5,112.5,175,185,200,200,,472.5,SBD,1
Guillermo Walter Tabares,Wraps,M,1960-12-07,106.2,62,M 60-64,110,-205,205,,205,-110,,,,-200,,,,,,SBD,DQ
Andrés Elvira,Wraps,M,1979-04-25,73.9,44,M 40-44,75,175,190,200,200,112.5,120,125,125,180,190,-200,190,,515,SBD,1
Sergio Kimmel,Wraps,M,1979-01-02,90,44,M 40-44,90,230,-250,250,250,120,130,132.5,132.5,230,-250,250,250,,632.5,SBD,1
Nazareno Papaleo,Wraps,M,1982-12-01,98.4,40,M 40-44,100,190,202.5,215,215,100,112.5,122.5,122.5,190,205,220,220,,557.5,SBD,1
German Orpianessi,Wraps,M,1980-11-11,107.3,42,M 40-44,110,210,220,230,230,140,150,160,160,230,245,255,255,,645,SBD,1
Santiago Cuellar,Wraps,M,1978-12-25,121.3,44,M 40-44,125,-182.5,182.5,195,195,145,152.5,160,160,240,250,255,255,,610,SBD,1
Dante Bordet,Wraps,M,1979-11-26,128.2,43,M 40-44,140,160,175,185,185,110,120,-130,120,200,215,230,230,,535,SBD,2
Juan Manavella,Wraps,M,1977-11-30,114.9,45,M 45-49,125,240,260,280,280,140,150,-160,150,240,260,280,280,,710,SBD,1
Daniel Varela,Wraps,M,1987-03-05,73.9,36,Open,75,-220,-220,-220,,,,,,,,,,,,SBD,DQ
Enzo Ramis,Wraps,M,1985-10-30,77.8,37,Open,82.5,170,180,192.5,192.5,85,90,100,100,170,182.5,195,195,,487.5,SBD,4
Maximiliano Amaya,Wraps,M,1988-07-11,78.4,34,Open,82.5,160,170,180,180,90,95,100,100,170,190,195,195,,475,SBD,5
Julio Travaglia,Wraps,M,1980-09-21,79.9,42,Open,82.5,212.5,-220,-220,212.5,127.5,135,-140,135,220,240,-250,240,,587.5,SBD,2
Franco Van Pamellen,Wraps,M,1998-06-03,80.5,24,Open,82.5,160,175,185,185,105,115,-120,115,175,190,210,210,,510,SBD,3
Esteban Giordano,Raw,M,1999-05-04,81.5,24,Open,82.5,140,155,162.5,162.5,110,120,-127.5,120,170,180,-200,180,,462.5,SBD,1
Facundo Orfo,Wraps,M,1987-06-01,81.9,35,Open,82.5,260,-275,,260,137.5,145,-152.5,145,230,-245,,230,,635,SBD,1
Gonzalo Carrera,Wraps,M,1985-07-29,82.4,37,Open,82.5,150,157.5,165,165,85,95,-102.5,95,190,200,-210,200,,460,SBD,6
Mauricio Mesarra,Wraps,M,1992-12-08,90,30,Open,90,240,250,262.5,262.5,115,125,135,135,240,252.5,-265,252.5,,650,SBD,1
Luciano Gonzales,Wraps,M,1996-10-04,88.1,26,Open,90,200,215,225,225,115,120,125,125,225,235,-245,235,,585,SBD,2
Rodrigo Benitez,Wraps,M,1992-04-23,87.6,31,Open,90,100,140,180,180,60,85,-105,85,100,150,190,190,,455,SBD,3
Ernesto Giovanini,Wraps,M,1991-10-27,94.1,31,Open,100,190,205,212.5,212.5,125,132.5,-137.5,132.5,205,215,-225,215,,560,SBD,2
Ramiro Colonna,Wraps,M,1991-07-02,99.1,31,Open,100,200,215,-225,215,107.5,115,125,125,232.5,247.5,-257.5,247.5,,587.5,SBD,1
Joel Bustos,Wraps,M,1996-07-13,106.2,26,Open,110,255,267.5,280,280,130,140,150,150,260,275,285,285,,715,SBD,1
Roberto Torres Perez,Wraps,M,1990-06-28,113,32,Open,125,195,207.5,212.5,212.5,90,100,105,105,205,215,222.5,222.5,,540,SBD,2
Ivan Lencina,Wraps,M,1985-05-07,128,38,Open,140,230,240,250,250,130,137.5,140,140,260,280,-290,280,,670,SBD,3
Galo Fernandez,Wraps,M,1999-06-09,123.5,23,Open,125,260,-275,-275,260,-160,-160,-160,,,,,,,,SBD,DQ
Nestor Tejada,Wraps,M,1989-02-14,122.6,34,Open,125,200,212.5,220,220,115,125,135,135,200,-212.5,220,220,,575,SBD,1
Gonzalo Calarco,Wraps,M,1986-07-22,127.5,36,Open,140,280,295,310,310,152.5,162.5,172.5,172.5,250,260,-270,260,,742.5,SBD,1
Ulises Pontiel,Wraps,M,1997-01-23,137.3,26,Open,140,190,200,202.5,202.5,90,100,-105,100,200,210,215,215,,517.5,SBD,4
Mario Martinez,Wraps,M,1979-11-07,125.7,43,M 40-44,140,-250,250,270,270,150,160,165,165,250,270,280,280,-291,715,SBD,1
Mario Martinez,Wraps,M,1979-11-07,125.7,43,Open,140,-250,250,270,270,150,160,165,165,250,270,280,280,-291,715,SBD,2
Apolo Lambertini,Raw,M,2007-06-28,64.3,15,Tn 13-15,67.5,,,,,-90,90,-97.5,90,,,,,,90,B,1
Roque Gallardo,Raw,M,1972-03-01,72.7,51,M 50-54,75,,,,,80,92.5,,92.5,,,,,,92.5,B,1
Kevin Forneris,Raw,M,2002-09-27,82.1,20,Jun,82.5,,,,,130,135,-140,135,,,,,,135,B,1
Cristian Albornoz,Raw,M,1980-10-18,80.4,42,M 40-44,82.5,,,,,127.5,-132.5,-132.5,127.5,,,,,,127.5,B,1
Lucas Basualdo,Raw,M,1981-02-20,109.1,42,M 40-44,110,,,,,95,100,110,110,,,,,,110,B,1
Mónica Calcagno,Raw,F,1984-02-29,52.4,39,Open,56,,,,,35,37.5,40,40,77.5,85,92.5,92.5,,132.5,BD,1
Mario Martinez,Raw,M,1979-11-07,125.7,43,M 40-44,140,,,,,150,160,165,165,250,270,280,280,,445,BD,1
Mario Martinez,Raw,M,1979-11-07,125.7,43,Open,140,,,,,150,160,165,165,250,270,280,280,,445,BD,1
Cesar Simioni,Raw,M,1999-10-03,74.8,23,Jun,75,,,,,,,,,200,210,-220,210,,210,D,1
Alejandro Perez,Raw,M,1971-08-16,99.3,51,M 50-54,100,,,,,,,,,215,227.5,235,235,,235,D,1
