Division,WeightClassKg,Place,Name,Team,BodyweightKg,Best3SquatKg,Best3BenchKg,Best3DeadliftKg,TotalKg,Equipment,Event,Sex,BirthDate
Boys,51.71,1,Dashel Burrows,Sharyland Pioneer,45.09,104.33,56.7,102.06,263.08,Single-ply,SBD,M,
Boys,55.79,1,Luis Garcia #9,Sharyland Pioneer,55.75,158.76,86.18,172.37,417.3,Single-ply,SBD,M,
Boys,59.87,1,Isaias Salinas,McAllen Memorial,59.87,149.69,97.52,163.29,410.5,Single-ply,SBD,M,
Boys,59.87,2,Angel Rivera,McAllen Memorial,57.15,151.95,97.52,145.15,394.63,Single-ply,SBD,M,
Boys,59.87,3,Zuriel Garcia,Pharr Valley View,57.7,122.47,102.06,142.88,367.41,Single-ply,SBD,M,
Boys,59.87,4,Victor Vasquez,Sharyland Pioneer,59.87,127.01,72.57,124.74,324.32,Single-ply,SBD,M,
Boys,59.87,5,Matthew Sanchez #4,Mission Veterans Memorial,58.51,117.93,58.97,117.93,294.84,Single-ply,SBD,M,
Boys,59.87,6,Marco Eli Gutierrez,Sharyland Pioneer,59.87,74.84,52.16,90.72,217.72,Single-ply,SBD,M,
Boys,67.13,1,Mario Marquez,Mission,66.22,249.48,124.74,235.87,610.08,Single-ply,SBD,M,
Boys,67.13,2,Patricio Chavez,Mission Sharyland,64.05,226.8,122.47,215.46,564.72,Single-ply,SBD,M,
Boys,67.13,3,Eduardo Ordaz,Mission Veterans Memorial,65.05,136.08,86.18,151.95,374.21,Single-ply,SBD,M,
Boys,67.13,4,Diego Perez #6,Edinburg Quest College Prep,63.05,147.42,68.04,156.49,371.95,Single-ply,SBD,M,
Boys,67.13,5,Thomas Marina,Sharyland Pioneer,64.41,136.08,70.31,142.88,349.27,Single-ply,SBD,M,
Boys,67.13,6,Jimmy Quintero,Mission,65.86,122.47,86.18,138.35,347,Single-ply,SBD,M,
Boys,67.13,7,Pablo López,Mission Veterans Memorial,62.41,124.74,77.11,127.01,328.85,Single-ply,SBD,M,
Boys,74.84,1,Luis De Hoyos,Mission Veterans Memorial,74.53,258.55,127.01,226.8,612.35,Single-ply,SBD,M,
Boys,74.84,2,Leonardo Perez #1,Mission,70.76,217.72,127.01,201.85,546.58,Single-ply,SBD,M,
Boys,74.84,3,Brandon Compian,San Benito,73.84,158.76,102.06,176.9,437.72,Single-ply,SBD,M,
Boys,74.84,4,Pierce Guardo,San Benito,74.8,167.83,104.33,163.29,435.45,Single-ply,SBD,M,
Boys,74.84,5,Jese Navarro,San Benito,73.3,154.22,113.4,158.76,426.38,Single-ply,SBD,M,
Boys,74.84,6,Elijah Hernandez,San Benito,72.57,165.56,104.33,154.22,424.11,Single-ply,SBD,M,
Boys,74.84,7,Dylon Ybarra,San Benito,69.13,127.01,106.59,158.76,392.36,Single-ply,SBD,M,
Boys,74.84,8,Enrique Ordaz,Mission Veterans Memorial,70.94,142.88,88.45,147.42,378.75,Single-ply,SBD,M,
Boys,74.84,9,Marcus Saurez,San Benito,74.75,133.81,81.65,158.76,374.21,Single-ply,SBD,M,
Boys,74.84,10,Hiker Melo,Edinburg Quest College Prep,68.76,122.47,54.43,120.2,297.1,Single-ply,SBD,M,
Boys,74.84,DQ,Jorge Gomez,Edinburg Quest College Prep,74.66,,,,,Single-ply,SBD,M,
Boys,74.84,DQ,Rolando Saenz,Mission Sharyland,74.39,,,,,Single-ply,SBD,M,
Boys,74.84,DQ,Sergio Perez,Mission Sharyland,74.39,219.99,129.27,,,Single-ply,SBD,M,
Boys,82.1,1,Jude Jaime,Mission,77.66,167.83,113.4,195.04,476.27,Single-ply,SBD,M,
Boys,82.1,2,Diego Mercado,Mission Veterans Memorial,77.88,167.83,99.79,158.76,426.38,Single-ply,SBD,M,
Boys,89.81,1,Zeke Cuadros,Mission,89.18,249.48,147.42,217.72,614.62,Single-ply,SBD,M,
Boys,89.81,2,Mauricio Galindo,Mission Sharyland,88,242.67,147.42,201.85,591.94,Single-ply,SBD,M,
Boys,89.81,3,Francisco Castillo,Mission Veterans Memorial,89.58,215.46,151.95,204.12,571.53,Single-ply,SBD,M,
Boys,89.81,4,Anthony Del Angel,Sharyland Pioneer,89.72,183.7,111.13,195.04,489.88,Single-ply,SBD,M,
Boys,89.81,5,Seth DeLeon,San Benito,85.91,183.7,111.13,190.51,485.34,Single-ply,SBD,M,
Boys,89.81,6,Juan Fuentes,McAllen Memorial,85.64,192.78,108.86,170.1,471.74,Single-ply,SBD,M,
Boys,89.81,7,Nate Claudio,San Benito,89.81,158.76,113.4,158.76,430.91,Single-ply,SBD,M,
Boys,89.81,8,Jesús Flores,Pharr Valley View,85.55,138.35,92.99,131.54,362.87,Single-ply,SBD,M,
Boys,89.81,DQ,Diego Nelson,McAllen Memorial,89.81,161.03,,,,Single-ply,SBD,M,
Boys,99.79,1,Isaiah Baker,Mission Veterans Memorial,99.34,217.72,120.2,217.72,555.65,Single-ply,SBD,M,
Boys,99.79,2,Victor Carbajal,Mission Sharyland,95.25,213.19,124.74,215.46,553.38,Single-ply,SBD,M,
Boys,99.79,3,Daniel González,Mission Sharyland,95.25,204.12,136.08,179.17,519.36,Single-ply,SBD,M,
Boys,99.79,4,Robert Trevino,San Benito,90.81,206.38,106.59,204.12,517.1,Single-ply,SBD,M,
Boys,99.79,5,Damien Barrera,McAllen Memorial,98.79,195.04,140.61,167.83,503.49,Single-ply,SBD,M,
Boys,99.79,6,Diego Trevino,Mission Sharyland,94.62,174.63,113.4,190.51,478.54,Single-ply,SBD,M,
Boys,99.79,7,Israel Nicanor,Sharyland Pioneer,99.34,185.97,90.72,181.44,458.13,Single-ply,SBD,M,
Boys,99.79,8,Josh Lang,McAllen Memorial,97.52,156.49,102.06,136.08,394.63,Single-ply,SBD,M,
Boys,99.79,DQ,Cristian Hernandez #1,Mission,95.25,,,,,Single-ply,SBD,M,
Boys,109.77,1,Christopher Casiano,Mission Veterans Memorial,109.32,267.62,183.7,222.26,673.58,Single-ply,SBD,M,
Boys,109.77,2,Camilo Galaviz,Sharyland Pioneer,106.41,174.63,95.25,170.1,439.98,Single-ply,SBD,M,
Boys,109.77,3,Art Silva,Mission,108.68,124.74,74.84,156.49,356.07,Single-ply,SBD,M,
Boys,109.77,DQ,Jj Johnson,McAllen Memorial,105.05,,,,,Single-ply,SBD,M,
Boys,109.77,DQ,Diego Ochoa,Mission Sharyland,108.77,,,,,Single-ply,SBD,M,
Boys,109.77,DQ,Edgar Bautista,Sharyland Pioneer,107.59,226.8,,,,Single-ply,SBD,M,
Boys,124.74,1,Brandon Alanis,Mission Sharyland,114.31,206.38,111.13,192.78,510.29,Single-ply,SBD,M,
Boys,124.74,2,Hector Naverez,Pharr Valley View,118.98,172.37,92.99,163.29,428.64,Single-ply,SBD,M,
Boys,124.74,DQ,Ethan Hinojosa,Sharyland Pioneer,117.93,90.72,,,,Single-ply,SBD,M,
Boys,124.74,DQ,Ashton Guzman,Mission,111.13,,,,,Single-ply,SBD,M,
Boys,139.71,1,Marcos De Ochoa,McAllen Memorial,139.66,294.84,149.69,249.48,694,Single-ply,SBD,M,
Boys,139.71,DQ,Jayden Morales,Mission,136.71,217.72,145.15,,,Single-ply,SBD,M,
Boys,139.71,DQ,Nathaniel Villegas,Mission Veterans Memorial,136.26,204.12,113.4,,,Single-ply,SBD,M,
Boys,139.71+,1,Fernando Gonzales,San Benito,152.59,208.65,120.2,183.7,512.56,Single-ply,SBD,M,
Boys,139.71+,2,Michael Garza #5,Mission,143.88,102.06,74.84,136.08,312.98,Single-ply,SBD,M,
