Place,Name,BirthDate,Sex,BirthYear,Age,Country,State,Equipment,Division,BodyweightKg,WeightClassKg,Squat1Kg,Squat2Kg,Squat3Kg,Best3SquatKg,Bench1Kg,Bench2Kg,Bench3Kg,Best3BenchKg,Deadlift1Kg,Deadlift2Kg,Deadlift3Kg,Best3DeadliftKg,TotalKg,Event
1,Basira Khan,,F,,,Australia,,Raw,Open,60.78,63,135,142.5,147.5,147.5,72.5,75,77.5,77.5,162.5,175,180,180,405,SBD
2,Cassandra Palermo,,F,,,Australia,,Raw,Open,60.62,63,125,-130,130,130,72.5,77.5,-80,77.5,177.5,187.5,-195,187.5,395,SBD
1,Chloe Caisley,,F,,,Australia,,Raw,Open,67.7,69,145,157.5,162.5,162.5,92.5,97.5,100,100,160,172.5,180,180,442.5,SBD
2,Steph Iosia,,F,,,Australia,,Raw,Open,68.62,69,137.5,145,-150,145,87.5,92.5,-95,92.5,175,190,200,200,437.5,SBD
3,Alessia Vinciguerra,,F,,,Australia,,Raw,Open,68.7,69,145,157.5,-162.5,157.5,72.5,-77.5,-77.5,72.5,160,167.5,-177.5,167.5,397.5,SBD
1,Hailey Hill,,F,,,Australia,,Raw,Open,71.36,76,165,180,187.5,187.5,80,85,87.5,87.5,157.5,175,-182.5,175,450,SBD
2,Abbey Monaghan,,F,,,Australia,,Raw,Open,74.16,76,140,150,152.5,152.5,92.5,97.5,-102.5,97.5,155,170,177.5,177.5,427.5,SBD
1,Alexis Hayto,,F,,,Australia,,Raw,Open,81.34,84,142.5,152.5,-160,152.5,95,97.5,100,100,165,175,177.5,177.5,430,SBD
2,Kristy Ireland,,F,,,Australia,,Raw,Open,80.72,84,162.5,172.5,-177.5,172.5,75,77.5,80,80,150,162.5,175,175,427.5,SBD
1,Bryan Huynh,,M,,,Australia,,Raw,Open,73.24,74,205,217.5,227.5,227.5,145,150,152.5,152.5,240,252.5,-260,252.5,632.5,SBD
2,Duy Nguyen,,M,,,Australia,,Raw,Open,73.9,74,205,217.5,222.5,222.5,130,-142.5,-142.5,130,-260,260,-282.5,260,612.5,SBD
1,Tsur Tsaban,,M,,,Australia,,Raw,Open,82.38,83,217.5,227.5,-232.5,227.5,140,147.5,-150,147.5,245,262.5,280,280,655,SBD
2,Dimitri Tsagaris,,M,,,Australia,,Raw,Open,81.58,83,215,225,230,230,162.5,170,-175,170,225,245,252.5,252.5,652.5,SBD
1,Adam Jones #1,,M,,,Australia,,Raw,Open,92.5,93,285,302.5,310,310,152.5,160,162.5,162.5,300,320,-330,320,792.5,SBD
2,Callan Gibbons,,M,,,Australia,,Raw,Open,92.52,93,265,280,287.5,287.5,165,170,-172.5,170,295,312.5,325,325,782.5,SBD
1,Taj Smith,,M,,,Australia,,Raw,Open,118.06,120,265,280,290,290,157.5,162.5,167.5,167.5,305,330,-350,330,787.5,SBD
2,Semisi Amato,,M,,,Australia,,Raw,Open,118.98,120,285,-300,-300,285,175,182.5,-185,182.5,275,290,-300,290,757.5,SBD
