Place,Name,Sex,BirthYear,Equipment,Division,BodyweightKg,WeightClassKg,Squat1Kg,Squat2Kg,Squat3Kg,Best3SquatKg,Bench1Kg,Bench2Kg,Bench3Kg,Best3BenchKg,Deadlift1Kg,Deadlift2Kg,Deadlift3Kg,Best3DeadliftKg,TotalKg,Event,Tested,BirthDate
1,Adriel Cardozo,M,1998,Raw,Open,58,59,150,157.5,-162.5,157.5,105,110,112.5,112.5,182.5,192.5,-205,192.5,462.5,SBD,Yes,
2,Darío Ahrens,M,1989,Raw,Open,58.45,59,160,-167.5,167.5,167.5,90,95,-97.5,95,180,-190,-190,180,442.5,SBD,Yes,
1,Juan Ignacio Bernaldez,M,2007,Raw,Sub-Juniors,58.55,59,145,155,162.5,162.5,93,98.5,105,105,170,182.5,186,186,453.5,SBD,Yes,
2,Ben Leanza,M,2006,Raw,Sub-Juniors,57.6,59,140,142.5,-155,142.5,75,-80,-80,75,-135,135,145,145,362.5,SBD,Yes,
3,Fabricio Garcia,M,2008,Raw,Sub-Juniors,55.65,59,-100,-100,100,100,60,70,72.5,72.5,100,-400,-400,100,272.5,SBD,Yes,
4,Solis Bautista,M,2006,Raw,Sub-Juniors,56.75,59,70,75,80,80,50,55,-57.5,55,-95,-95,95,95,230,SBD,Yes,
1,Damian Cataldo,M,1999,Raw,Open,64.3,66,160,-162.5,165,165,102.5,110,-115,110,212.5,217.5,-222.5,217.5,492.5,SBD,Yes,
1,Francisco Olguin,M,2006,Raw,Sub-Juniors,63.15,66,177.5,185,187.5,187.5,105,111.5,117.5,117.5,207.5,220,230,230,535,SBD,Yes,
2,David Duran,M,2006,Raw,Sub-Juniors,65.7,66,170,-180,-190,170,100,105,112.5,112.5,185,195,-202.5,195,477.5,SBD,Yes,
3,Gonzalo García,M,2006,Raw,Sub-Juniors,64.55,66,140,150,-160,150,105,-110,110,110,180,190,-200,190,450,SBD,Yes,
4,Facundo Encinas,M,2007,Raw,Sub-Juniors,63.3,66,-150,150,-160,150,60,70,77.5,77.5,200,215,-225,215,442.5,SBD,Yes,
5,Vitto Grasso,M,2006,Raw,Sub-Juniors,61.4,66,150,160,170,170,95,-105,-105,95,155,165,175,175,440,SBD,Yes,
1,Alberto Avolio,M,1964,Raw,Masters 3,60.1,66,50,-400,-400,50,50,-400,-400,50,100,-400,-400,100,200,SBD,Yes,
1,Bruno Sofiatto,M,1978,Raw,Masters 1,64.2,66,125,137.5,150,150,92.5,100,105,105,125,135,-400,135,390,SBD,Yes,
1,Tomas Arce,M,2002,Raw,Juniors,64.95,66,190,200,-210,200,110,115,120,120,220,232.5,242.5,242.5,562.5,SBD,Yes,
2,Mauro Ponce,M,2005,Raw,Juniors,66,66,165,177.5,185,185,97.5,105,112.5,112.5,195,-212.5,225,225,522.5,SBD,Yes,
3,Valentin Lopez,M,2005,Raw,Juniors,63.65,66,175,185,192.5,192.5,107.5,117.5,120,120,180,190,207.5,207.5,520,SBD,Yes,
2,Olguin Franco,M,1999,Raw,Open,73.45,74,220,-222.5,-235.5,220,120,125,-127.5,125,220,230,-256.5,230,575,SBD,Yes,
1,Alvaro Ruiz Garcia,M,2008,Raw,Sub-Juniors,73,74,145,155,165,165,120,127.5,-132.5,127.5,190,200,-210,200,492.5,SBD,Yes,
2,Juan Viegas,M,2007,Raw,Sub-Juniors,72.9,74,160,170,180,180,95,-100,105,105,185,200,-215,200,485,SBD,Yes,
3,Tomas Gonzalez,M,2007,Raw,Sub-Juniors,71.5,74,157.5,170,180,180,90,-102.5,102.5,102.5,182.5,195,-217.5,195,477.5,SBD,Yes,
4,Agustin Gatica,M,2006,Raw,Sub-Juniors,72.85,74,145,147.5,162.5,162.5,80,90,100,100,165,180,-190,180,442.5,SBD,Yes,
5,Jonas Carrizo,M,2006,Raw,Sub-Juniors,69.65,74,132.5,140,-145,140,75,80,90,90,170,-185,-185,170,400,SBD,Yes,
1,Nahuel Manzelli,M,1990,Raw,Open,72.45,74,225,235,241,241,135,-140,-140,135,210,217.5,225,225,601,SBD,Yes,
DQ,Yago Cordoba,M,1999,Raw,Open,71.1,74,180,190,-200,190,105,110,-117.5,110,-215,-220,-220,-215,,SBD,Yes,
1,Carlos Burgos,M,1964,Raw,Masters 3,73,74,145,165,-185,165,100,110,-300,110,180,200,220,220,495,SBD,Yes,
1,Luis Virgini,M,1981,Raw,Masters 1,73.45,74,172.5,180,185,185,110,115,120,120,190,200,210,210,515,SBD,Yes,
1,Zaporta Santiago,M,2003,Raw,Juniors,72.95,74,185,-200,200,200,115,120,127.5,127.5,205,-207.5,-207.5,205,532.5,SBD,Yes,
2,Benjamin Gorosito,M,2002,Raw,Juniors,70.65,74,170,-180,180,180,100,105,-110,105,200,215,225,225,510,SBD,Yes,
3,Nicolas Mendez,M,2005,Raw,Juniors,72.8,74,165,175,-185,175,95,100,-105,100,220,230,-235,230,505,SBD,Yes,
4,Ramiro Castagnaro,M,2004,Raw,Juniors,72.75,74,160,172.5,180,180,97.5,102.5,-105,102.5,-200,220,-235,220,502.5,SBD,Yes,
5,Valentino Gonella,M,2005,Raw,Juniors,72.75,74,150,-160,-160,150,110,115,-117.5,115,180,190,-200,190,455,SBD,Yes,
6,Braian Casas,M,2002,Raw,Juniors,70.75,74,145,152.5,162.5,162.5,95,100,-105,100,-160,160,177.5,177.5,440,SBD,Yes,
1,Jose Centanaro,M,1954,Raw,Masters 4,73.7,74,,,,,40,82.5,90,90,,,,,90,B,Yes,
1,Gimenez Ramiro,M,1995,Raw,Open,82.1,83,220,230,240,240,157.5,-162.5,162.5,162.5,-250,250,265,265,667.5,SBD,Yes,
2,Luca Marcantoni,M,2000,Raw,Open,80.6,83,197.5,210,215,215,135,140,145,145,205,220,230,230,590,SBD,Yes,
3,Gregorio Lavaque,M,1999,Raw,Open,78.3,83,180,190,-195,190,130,-140,147.5,147.5,215,230,242.5,242.5,580,SBD,Yes,
4,Sebastian Maciel,M,1998,Raw,Open,82.6,83,210,-225,-225,210,122.5,-130,-130,122.5,215,-232.5,,215,547.5,SBD,Yes,
5,Santiago Sadir,M,1999,Raw,Open,81.3,83,187.5,-197.5,197.5,197.5,105,110,115,115,210,227.5,-245,227.5,540,SBD,Yes,
6,Julian Perez Franco,M,1999,Raw,Open,80.8,83,185,195,-200,195,95,97.5,-100,97.5,-195,-195,195,195,487.5,SBD,Yes,
7,Ezequiel Landolfi,M,1991,Raw,Open,81.35,83,155,-165,-165,155,100,110,-115,110,170,185,-192.5,185,450,SBD,Yes,
1,Alejo Montenegro,M,2006,Raw,Sub-Juniors,81.9,83,210,225,-232.5,225,110,-115,-115,110,240,260,-270,260,595,SBD,Yes,
2,Richard Juan Pedro,M,2007,Raw,Sub-Juniors,82.8,83,-195,210,-220,210,100,107.5,115,115,-200,215,-225,215,540,SBD,Yes,
3,Facundo Trionfetti,M,2006,Raw,Sub-Juniors,82.9,83,150,160,170,170,110,-112.5,112.5,112.5,205,210,215,215,497.5,SBD,Yes,
4,Juan Cruz Valdi,M,2007,Raw,Sub-Juniors,81.7,83,160,-170,-170,160,100,105,-117.5,105,180,195,207.5,207.5,472.5,SBD,Yes,
5,Ignacio Rodriguez,M,2006,Raw,Sub-Juniors,82.1,83,145,152.5,160,160,90,95,-100,95,185,200,210,210,465,SBD,Yes,
6,Lucas Audicio,M,2007,Raw,Sub-Juniors,80.1,83,140,150,-160,150,90,100,105,105,150,160,-175,160,415,SBD,Yes,
DQ,Jeremias Chein,M,2008,Raw,Sub-Juniors,81.5,83,-180,-190,-190,-180,102.5,,,102.5,215,230,-250,230,,SBD,Yes,
1,Roberto Alessio,M,1958,Raw,Masters 3,82.9,83,75,,,75,60,,,60,180,190,,190,325,SBD,Yes,
1,Miguel Palomas,M,1967,Raw,Masters 2,82.5,83,160,175,185,185,95,105,110,110,160,180,205,205,500,SBD,Yes,
1,Hernan Cesan,M,1983,Raw,Masters 1,81.6,83,180,190,200,200,110,120,-125,120,180,190,202.5,202.5,522.5,SBD,Yes,
2,Damian Mattia,M,1983,Raw,Masters 1,77.8,83,180,190,-200,190,107.5,-110,-110,107.5,185,195,-230,195,492.5,SBD,Yes,
1,Valentin Arriaga,M,2001,Raw,Juniors,81.4,83,220,235,245,245,135,140,145,145,-256,256,284,284,674,SBD,Yes,
2,Thiago Gianico,M,2002,Raw,Juniors,82.2,83,210,220,-225,220,135,-142.5,-142.5,135,-256.5,256.5,-285,256.5,611.5,SBD,Yes,
3,Franco Centeno,M,2001,Raw,Juniors,81.2,83,190,-200,200,200,120,125,127.5,127.5,-237.5,237.5,257.5,257.5,585,SBD,Yes,
4,Tobias Malnatti,M,2003,Raw,Juniors,82.9,83,210.5,217.5,-222.5,217.5,120,127.5,-132.5,127.5,220,230,240,240,585,SBD,Yes,
5,Tobias Merlino,M,2002,Raw,Juniors,81.6,83,200,210,-217.5,210,120,-127.5,127.5,127.5,222.5,235,-237.5,235,572.5,SBD,Yes,
6,Rodrigo Alcaraz,M,2004,Raw,Juniors,81.8,83,180,190,195,195,130,-135,135,135,200,-215,-215,200,530,SBD,Yes,
7,Nicolas Nieto,M,2003,Raw,Juniors,82,83,170,180,-190,180,100,105,-110,105,190,202.5,-207.5,202.5,487.5,SBD,Yes,
DQ,Lucas Villa,M,2003,Raw,Juniors,80.85,83,-190,190,195,195,120,,,120,-205,-205,,,,SBD,Yes,
1,Luca Marcantoni,M,2000,Raw,Open,80.6,83,,,,,135,140,145,145,,,,,145,B,Yes,
2,Gabriel Rosa,M,1999,Raw,Open,82.9,83,,,,,120,132.5,-135,132.5,,,,,132.5,B,Yes,
3,Hernan Cesan,M,1983,Raw,Masters 1,81.6,83,,,,,110,120,-125,120,,,,,120,B,Yes,
4,Roberto Alessio,M,1958,Raw,Masters 3,82.9,83,,,,,60,,,60,,,,,60,B,Yes,
1,Adrian Rivadera,M,2002,Raw,Open,91.6,93,255,267.5,272.5,272.5,155,-165,170,170,290,305.5,-317.5,305.5,748,SBD,Yes,
2,Dante Rodriguez,M,1997,Raw,Open,91.7,93,235,250,-260,250,140,152.5,-157.5,152.5,270,290,306,306,708.5,SBD,Yes,
3,Gonzalo García,M,1995,Raw,Open,90.5,93,255,-267.5,-267.5,255,127.5,135,140,140,280,-295,-297.5,280,675,SBD,Yes,
4,Federico Garro,M,1996,Raw,Open,91.9,93,225,-240,245,245,130,140,145,145,250,262.5,-267.5,262.5,652.5,SBD,Yes,
5,Gabriel Banegas,M,1994,Raw,Open,91.5,93,200,210,-215,210,117.5,125,135,135,230,245,255,255,600,SBD,Yes,
6,Juan Jose Sequera,M,1996,Raw,Open,92.35,93,167.5,180,190,190,110,117.5,-120,117.5,197.5,-210,-220,197.5,505,SBD,Yes,
DQ,Facundo Kohli,M,2003,Raw,Open,92.45,93,255,265,275,275,160,-165,-165,160,-255,-255,,,,SBD,Yes,
1,Hugo Agostino,M,1964,Raw,Masters 3,83.1,93,150,160,,160,100,110,-117.5,110,-120,,,,270,SBD,Yes,
1,Oscar Aristi,M,1966,Raw,Masters 2,91.6,93,180,192.5,202.5,202.5,122.5,127.5,-132.5,127.5,-175,190,207.5,207.5,537.5,SBD,Yes,
2,Carlos Arrua,M,1972,Raw,Masters 2,90.5,93,180,190,201.5,201.5,105,115,122.5,122.5,185,197.5,-215,197.5,521.5,SBD,Yes,
1,Nicolas Vazquez,M,1982,Raw,Masters 1,86.7,93,180,200,218,218,160,-170,170,170,200,-220,-225.5,200,588,SBD,Yes,
2,Guillermo Lucero,M,1982,Raw,Masters 1,88.4,93,170,190,-200,190,110,115,122.5,122.5,210,235,-242.5,235,547.5,SBD,Yes,
3,Daniel Romero,M,1984,Raw,Masters 1,91.6,93,165,-185,-200,165,110,115,120,120,155,170,185,185,470,SBD,Yes,
1,Gegundez Lautaro,M,2006,Raw,Sub-Juniors,93,93,185,201,-202.5,201,125,135,142.5,142.5,240,251.5,-267.5,251.5,595,SBD,Yes,
1,Adrian Rivadera,M,2002,Raw,Juniors,91.6,93,255,267.5,272.5,272.5,155,-165,170,170,290,305.5,-317.5,305.5,748,SBD,Yes,
1,Nicolas Duran,M,2001,Raw,Juniors,90.7,93,210,225,-240,225,135,-140,-140,135,210,-230,235,235,595,SBD,Yes,
2,Mauro Gutierrez,M,2005,Raw,Juniors,91.6,93,-200,200,215,215,95,102.5,107.5,107.5,220,240,-275,240,562.5,SBD,Yes,
3,Matías Suarez,M,2004,Raw,Juniors,91.1,93,-195,195,210,210,115,122.5,-125,122.5,210,-220,-230,210,542.5,SBD,Yes,
4,Alejandro Medina,M,2004,Raw,Juniors,89.6,93,175,-187.5,187.5,187.5,110,117.5,-125,117.5,180,200,-215,200,505,SBD,Yes,
5,Olivares Rodrigo,M,2003,Raw,Juniors,89.6,93,170,180,-187.5,180,100,107.5,112.5,112.5,200,205,-210,205,497.5,SBD,Yes,
DQ,Facundo Kohli,M,2003,Raw,Juniors,92.45,93,255,265,275,275,160,-165,-165,160,-255,-255,,,,SBD,Yes,
1,Matías Suarez,M,1995,Raw,Open,86.1,93,,,,,105,112.5,117.5,117.5,,,,,117.5,B,Yes,
1,Diego Carriqueo,M,1980,Raw,Masters 1,90.6,93,,,,,160,-170,-170,160,,,,,160,B,Yes,
2,Hugo Daniel Pognante,M,1977,Raw,Masters 1,90.1,93,,,,,110,120,127.5,127.5,,,,,127.5,B,Yes,
1,Oscar Aristi,M,1966,Raw,Masters 2,91.6,93,,,,,122.5,127.5,-132.5,127.5,,,,,127.5,B,Yes,
1,Hugo Agostino,M,1964,Raw,Masters 3,83.1,93,,,,,100,110,-117.5,110,,,,,110,B,Yes,
1,Luciano Cassará,M,1998,Raw,Open,104.2,105,260,270,277.5,277.5,170,180,187.5,187.5,280,292.5,-301,292.5,757.5,SBD,Yes,
2,Santiago Beiras,M,1988,Raw,Open,99,105,250,265,270,270,170,185,-190,185,270,290,-312.5,290,745,SBD,Yes,
3,Victor Navarro,M,1990,Raw,Open,102.8,105,225,230,235,235,130,135,-137.5,135,270,285,-301.5,285,655,SBD,Yes,
4,Juan Kloster,M,1999,Raw,Open,93.8,105,217.5,225,-230,225,135,142.5,-150,142.5,240,250,-260,250,617.5,SBD,Yes,
5,Pedro Rafael Mura,M,1995,Raw,Open,102.55,105,215,235,-255,235,120,-130,132.5,132.5,70,100,,100,467.5,SBD,Yes,
6,Marcos Andre Lugo,M,2000,Raw,Open,102.65,105,125,140,-160,140,100,-110,-110,100,180,195,-210,195,435,SBD,Yes,
1,Hector Ledezma,M,1963,Raw,Masters 3,97.3,105,70,90,-110,90,70,80,-90,80,120,140,-160,140,310,SBD,Yes,
1,Pablo Marcelo Gomez,M,1983,Raw,Masters 1,99.9,105,220,-240,250,250,130,-140,150,150,220,240,260,260,660,SBD,Yes,
2,Fabian Nieto,M,1978,Raw,Masters 1,100.2,105,-70,-70,70,70,110,115,-117.5,115,145,155,162.5,162.5,347.5,SBD,Yes,
1,Maximo Maritano,M,2006,Raw,Sub-Juniors,99.8,105,215,230,240,240,132.5,135,-140,135,250,265,275,275,650,SBD,Yes,
1,Maximiliano Zeballos,M,2002,Raw,Juniors,103.5,105,262.5,272.5,-280,272.5,170,180,-190,180,290,310,320,320,772.5,SBD,Yes,
2,Diego El Hilon,M,2002,Raw,Juniors,103.25,105,240,255,260,260,152.5,162.5,167.5,167.5,262.5,275,290,290,717.5,SBD,Yes,
3,Natanael Chocobar,M,2005,Raw,Juniors,101.6,105,220,-245,-255,220,110,125,-127.5,125,250,280,290,290,635,SBD,Yes,
4,Patricio Falco,M,2002,Raw,Juniors,100.4,105,195,205,-215,205,125,130,135,135,250,260,262.5,262.5,602.5,SBD,Yes,
5,Maximo Perez,M,2004,Raw,Juniors,101.65,105,200,205,210,210,115,120,125,125,210,220,230,230,565,SBD,Yes,
6,Federico Navarreta,M,2005,Raw,Juniors,96.2,105,175,182.5,-190,182.5,85,92.5,97.5,97.5,225,-237.5,240,240,520,SBD,Yes,
7,Thiago Román Núñez,M,2005,Raw,Juniors,100,105,155,165,-175,165,95,100,107.5,107.5,160,-170,,160,432.5,SBD,Yes,
DQ,Axel Arancibia,M,2002,Raw,Juniors,101,105,235,247.5,257.5,257.5,147.5,155,160,160,-272.5,-285.5,-285.5,-272.5,,SBD,Yes,
1,Diego El Hilon,M,2002,Raw,Juniors,103.25,105,,,,,152.5,162.5,167.5,167.5,,,,,167.5,B,Yes,
1,Diego El Hilon,M,2002,Raw,Open,103.25,105,,,,,152.5,162.5,167.5,167.5,,,,,167.5,B,Yes,
1,Hector Ledezma,M,1963,Raw,Masters 3,97.3,105,,,,,70,80,-90,80,,,,,80,B,Yes,
1,Fabricio Leonel Mora,M,2000,Raw,Open,117.85,120,275,287.5,-300,287.5,175,-185,185,185,305,-328,-328,305,777.5,SBD,Yes,
2,Alejandro Cantatore,M,1980,Raw,Open,115.7,120,220,230,-240.5,230,120,-127.5,127.5,127.5,220,230,-240,230,587.5,SBD,Yes,
1,Alejandro Cantatore,M,1980,Raw,Masters 1,115.7,120,220,230,-240.5,230,120,-127.5,127.5,127.5,220,230,-240,230,587.5,SBD,Yes,
1,Julián Suarez,M,1990,Raw,Open,118.15,120,,,,,150,162.5,-170,162.5,,,,,162.5,B,Yes,
1,Franco Jose Leo Menazzi,M,1997,Raw,Open,169.4,120+,310,325,340,340,215,230,-240,230,315,330,-350,330,900,SBD,Yes,
2,Brian Borgia,M,1994,Raw,Open,132.6,120+,-205,210,-225,210,140,150,160,160,210,220,230,230,600,SBD,Yes,
1,Miguel Fasano,M,1968,Raw,Masters 2,145.35,120+,160,180,197.5,197.5,130,140,-150,140,210,230,245,245,582.5,SBD,Yes,
1,Agustin Paz Baltazar,M,2001,Raw,Juniors,136,120+,180,190,200,200,115,120,-125,120,230,245,255,255,575,SBD,Yes,
1,Miguel Fasano,M,1968,Raw,Masters 2,145.35,120+,,,,,130,140,-150,140,,,,,140,B,Yes,
1,Carlos Castillo,M,1979,Raw,Masters 1,123.5,120+,,,,,110,120,-140,120,,,,,120,B,Yes,
1,Kiara Zambrano,F,2009,Raw,Sub-Juniors,40.6,43,50,55,-62.5,55,27.5,32.5,35,35,65,75,80,80,170,SBD,Yes,
1,Madelein Canto,F,1989,Raw,Open,46.8,47,110,115,120,120,65,70,72.5,72.5,137.5,145,150,150,342.5,SBD,Yes,1989-07-22
1,Leticia Arocio,F,1975,Raw,Masters 1,46.7,47,65,72.5,76,76,37.5,42.5,-48,42.5,80,100,111,111,229.5,SBD,Yes,
1,Karen Olguin,F,2001,Raw,Juniors,46.55,47,90,-95.5,95.5,95.5,58,62.5,67.5,67.5,97.5,102.5,107.5,107.5,270.5,SBD,Yes,
1,Carolina Fernández,F,1994,Raw,Open,51.9,52,-110,110,120,120,45,50,-52.5,50,120,130,140,140,310,SBD,Yes,
1,Luciana Antonella Paz,F,1999,Raw,Open,48.3,52,90,97.5,-100,97.5,50,55,-57.5,55,115,125,132.5,132.5,285,SBD,Yes,
1,Claribel Rivero,F,2003,Raw,Juniors,51.4,52,115,-122.5,125,125,55,-65,65,65,135,145.5,-153.5,145.5,335.5,SBD,Yes,
2,Nicole Martina Olivera,F,2005,Raw,Juniors,50.3,52,90,-100,-100,90,45,47.5,50,50,125,-135,140,140,280,SBD,Yes,
3,Avril Michelle Dufour,F,2004,Raw,Juniors,50,52,85,-90,-90,85,45,47.5,50,50,105,-112,115,115,250,SBD,Yes,
4,Melanie Buriano,F,2003,Raw,Juniors,47.6,52,70,-72.5,-72.5,70,25,30,-32.5,30,90,100,105,105,205,SBD,Yes,
1,Magali Lemos,F,2006,Raw,Sub-Juniors,51,52,85,95.5,105,105,47.5,55.5,60.5,60.5,100,110,120,120,285.5,SBD,Yes,
1,Jazmín Luna,F,2006,Raw,Sub-Juniors,56.65,57,-100,100,105.5,105.5,42.5,47.5,52.5,52.5,-102.5,102.5,-121.5,102.5,260.5,SBD,Yes,
1,Guadalupe Cabral,F,1997,Raw,Open,55.9,57,115,120,125,125,80,85,86.5,86.5,157.5,162.5,165,165,376.5,SBD,Yes,
2,Tatiana Giménez,F,1988,Raw,Open,55.8,57,80,90,105,105,62.5,67.5,70,70,90,110,120,120,295,SBD,Yes,
3,Julieta Sánchez,F,1996,Raw,Open,56.35,57,97.5,-102.5,102.5,102.5,57.5,60,62.5,62.5,117.5,125,130,130,295,SBD,Yes,
1,Mariela Di Nápoli,F,1978,Raw,Masters 1,53.4,57,100,105,-110,105,57.5,60,62.5,62.5,110,118,125,125,292.5,SBD,Yes,
1,Luisina Saez,F,2003,Raw,Juniors,55.75,57,122.5,127.5,132.5,132.5,70,75,77.5,77.5,120,127.5,-132.5,127.5,337.5,SBD,Yes,
2,Juanita Alfonso,F,2004,Raw,Juniors,53.3,57,130,-140,-140,130,37.5,47.5,50,50,135,137.5,150,150,330,SBD,Yes,
3,Iara Vallejos,F,2001,Raw,Juniors,55.7,57,107.5,-117.5,-125,107.5,47.5,55,57.5,57.5,105,115,125,125,290,SBD,Yes,
DQ,Rocío Diaz,F,2001,Raw,Juniors,57,57,-110,-110,110,110,67.5,75,80,80,135,145,152.5,152.5,,SBD,Yes,
1,Xiomara Dieguez,F,1991,Raw,Open,54.75,57,,,,,55,57.5,-60,57.5,,,,,57.5,B,Yes,
1,Nazarena Diaz,F,2000,Raw,Open,59.2,63,130,137.5,-145,137.5,67.5,72.5,75,75,150,160,170,170,382.5,SBD,Yes,
2,Florencia Belén,F,1999,Raw,Open,62.45,63,92.5,100,105,105,50,55,-60,55,112.5,122.5,-127.5,122.5,282.5,SBD,Yes,
3,Giaimo Delfina Sol,F,1999,Raw,Open,59.75,63,92.5,102.5,107.5,107.5,42.5,47.5,-52.5,47.5,105,112.5,115,115,270,SBD,Yes,
1,Melina Grittini,F,1978,Raw,Masters 1,62.2,63,110,115.5,120,120,70,72.5,75,75,117.5,122.5,135,135,330,SBD,Yes,
2,Antonela Lamenza,F,1984,Raw,Masters 1,60.65,63,112.5,117.5,-122.5,117.5,52.5,-57.5,-57.5,52.5,115,-120,120,120,290,SBD,Yes,
1,Giuliana Relling,F,2002,Raw,Juniors,61.3,63,120,-130,-132.5,120,62.5,67.5,70,70,-162.5,162.5,175,175,365,SBD,Yes,
2,Guadalupe Charchir,F,2001,Raw,Juniors,61.55,63,-127.5,130,137.5,137.5,60,62.5,65,65,-142.5,-145,152.5,152.5,355,SBD,Yes,
1,Maia Dietz,F,2006,Raw,Sub-Juniors,62.4,63,130,-140,-140,130,60,62.5,-65,62.5,130,140,-150,140,332.5,SBD,Yes,
1,Jimena Colomba,F,1984,Raw,Masters 1,61.6,63,,,,,50,57.5,60,60,,,,,60,B,Yes,
1,Antonella Garri,F,1999,Raw,Open,68.1,69,120,132.5,137.5,137.5,75,-82.5,-82.5,75,155,166,-170,166,378.5,SBD,Yes,
2,Regina Cicerone,F,2000,Raw,Open,67.65,69,-145,-145,145,145,65,70,75,75,140,-150,150,150,370,SBD,Yes,
1,Mirta Celes,F,1969,Raw,Masters 2,66.9,69,100,107.5,-110,107.5,40,45,-50,45,-110,110,121.5,121.5,274,SBD,Yes,
2,Ana Maria Montenegro,F,1971,Raw,Masters 2,66.1,69,60,67.5,75,75,30,35,40,40,70,80,95,95,210,SBD,Yes,
1,Paola Vallejos,F,1982,Raw,Masters 1,67.5,69,105,-112.5,112.5,112.5,52.5,-60,-60,52.5,115,122.5,127.5,127.5,292.5,SBD,Yes,
1,Kira Yashnyk,F,2004,Raw,Juniors,67.95,69,122.5,130,-135,130,62.5,67.5,-70,67.5,130,137.5,142.5,142.5,340,SBD,Yes,2004-11-10
1,Martina Vivares,F,2007,Raw,Sub-Juniors,68.4,69,-145,145,150,150,65,70,75,75,-160,160,-172.5,160,385,SBD,Yes,
2,Yesuliana Sangermes,F,2004,Raw,Juniors,64.55,69,105,112.5,115,115,50,-52.5,-52.5,50,-135,135,-145,135,300,SBD,Yes,
1,Valentina Bonahora,F,2000,Raw,Open,75.6,76,162.5,172.5,-177.5,172.5,75,80,85,85,190,202.5,210,210,467.5,SBD,Yes,
2,Ferreira Lourdes,F,2003,Raw,Open,75.65,76,-160,160,170,170,76.5,84,85.5,85.5,170,180,-185,180,435.5,SBD,Yes,
1,Graciela Wamba,F,1953,Raw,Masters 4,75.1,76,50,55,-60,55,40,-45,45,45,95,100,105,105,205,SBD,Yes,
1,Lorena Mansilla,F,1979,Raw,Masters 1,75.05,76,80,100,-115,100,45,50,-55,50,90,100,,100,250,SBD,Yes,
1,Ferreira Lourdes,F,2003,Raw,Juniors,75.65,76,-160,160,170,170,76.5,84,85.5,85.5,170,180,-185,180,435.5,SBD,Yes,
2,Analía Paoli Agustina,F,2005,Raw,Juniors,74.25,76,155,165,172.5,172.5,70,-75,-75,70,-165,180,-193,180,422.5,SBD,Yes,
3,Valentina Mendoza,F,2002,Raw,Juniors,75.35,76,120,-127.5,-127.5,120,65,70,-75,70,165,177.5,-185,177.5,367.5,SBD,Yes,
1,Maria Jose Civetta,F,1964,Raw,Masters 3,74.1,76,,,,,45,47.5,50,50,,,,,50,B,Yes,
1,Cristina Haug,F,1999,Raw,Open,81.7,84,140,150,155,155,75,80,-82.5,80,155,165,172.5,172.5,407.5,SBD,Yes,
2,Natalia Hornos Nilda,F,1985,Raw,Open,77.5,84,132.5,137.5,142.5,142.5,77.5,80,82.5,82.5,150,155,162.5,162.5,387.5,SBD,Yes,
3,Melina Sanchez,F,1993,Raw,Open,81.15,84,145,-152.5,-152.5,145,55,62.5,-67.5,62.5,160,167.5,172.5,172.5,380,SBD,Yes,
4,Kin Aluminé,F,1999,Raw,Open,82.25,84,-112.5,112.5,120,120,65,70,-72.5,70,135,145,-147.5,145,335,SBD,Yes,
5,Cecilia Martinez,F,1998,Raw,Open,79.2,84,65,72.5,77.5,77.5,35,37.5,40,40,95,-97.5,105,105,222.5,SBD,Yes,
1,Verónica Arregues,F,1973,Raw,Masters 2,82.65,84,120,127.5,-135,127.5,50,55,-57.5,55,140,150,160,160,342.5,SBD,Yes,
1,Ailen Mendoza,F,2003,Raw,Juniors,80.35,84,155,165,-170,165,70,78,81,81,160.5,170,-175,170,416,SBD,Yes,
2,Lucila Valenti,F,2002,Raw,Juniors,83.25,84,135,145,150,150,65,70,72.5,72.5,145,157.5,167.5,167.5,390,SBD,Yes,
1,Guadalupe Martinez,F,2009,Raw,Sub-Juniors,81.8,84,90,100,-120,100,37.5,45,-50,45,95,105,110,110,255,SBD,Yes,
1,Laura Torres,F,1995,Raw,Open,119.3,84+,150,157.5,162.5,162.5,97.5,102.5,107.5,107.5,160,170,175,175,445,SBD,Yes,
2,Ludmila Koch,F,1988,Raw,Open,145.1,84+,155,-170,-170,155,65,75,80,80,160,180,195,195,430,SBD,Yes,
3,Eliana López,F,1987,Raw,Open,106.7,84+,157.5,-165,165,165,85,90,-95,90,160,170,-180,170,425,SBD,Yes,
1,Lourdes Poblete,F,2002,Raw,Juniors,95,84+,160,170,180,180,75,82.5,90,90,145,155,170,170,440,SBD,Yes,
2,Camila Vaughan,F,2001,Raw,Juniors,123.1,84+,135,142.5,150,150,82.5,-90,90,90,160,-162.5,-182.5,160,400,SBD,Yes,
1,Malena Amarilla,F,2006,Raw,Sub-Juniors,103.45,84+,125,-135,142.5,142.5,58,63,-68.5,63,140,153,163,163,368.5,SBD,Yes,
2,Gabriela Martinez,F,2010,Raw,Sub-Juniors,90.4,84+,90,100,-120,100,35,40,-45,40,95,97.5,-120,97.5,237.5,SBD,Yes,
1,Veronica Rengelman,F,1977,Raw,Masters 1,101.85,84+,,,,,80,85,90,90,,,,,90,B,Yes,
1,Lorena Mansilla,F,1979,Single-ply,Masters 1,75.7,76,80,95,115,115,-45,55,62.5,62.5,80,100,,100,277.5,SBD,Yes,
1,Agustina Insaurralde,F,1999,Single-ply,Open,82.8,84,125,135,140,140,45,50,-52.5,50,130,135,140,140,330,SBD,Yes,
1,Veronica Rosalia Alarcon,F,1990,Single-ply,Open,123.5,84+,110,120,130,130,50,60,70,70,120,130,140,140,340,SBD,Yes,
1,Alberto Avolio,M,1964,Single-ply,Masters 3,60.15,66,60,,,60,50,,,50,110,130,150,150,260,SBD,Yes,
1,Sebastián Villagra,M,1986,Single-ply,Open,73.15,74,255,265,,265,155,165,175,175,240,-250,250,250,690,SBD,Yes,
2,Omar Oros,M,1987,Single-ply,Open,73.75,74,242.5,-252.5,252.5,252.5,172.5,-182.5,185,185,215,225,,225,662.5,SBD,Yes,
3,Kevin Claver Gallino,M,1995,Single-ply,Open,73.55,74,120,135,140,140,75,90,-95,90,160,170,-182.5,170,400,SBD,Yes,
1,Axel Noguera,M,2006,Single-ply,Sub-Juniors,71.1,74,100,110,115,115,50,55,60,60,135,145,-155,145,320,SBD,Yes,
1,Carlos Burgos,M,1964,Single-ply,Masters 3,73.3,74,160,170,180,180,110,115,120,120,180,200,220,220,520,SBD,Yes,
1,Pablo Andres Barbara,M,1984,Single-ply,Masters 1,78.55,83,160,180,190,190,110,120,130,130,160,180,200,200,520,SBD,Yes,
1,Roberto Alessio,M,1958,Single-ply,Masters 3,82.9,83,140,150,160,160,80,85,,85,200,-215,,200,445,SBD,Yes,
1,Juan Alvarez,M,1994,Single-ply,Open,77.85,83,215,225,-232.5,225,115,125,135,135,215,-230,-230,215,575,SBD,Yes,
1,Pablo Andres Barbara,M,1984,Single-ply,Masters 1,78.55,83,,,,,110,120,130,130,,,,,130,B,Yes,
1,Cristian Casanova,M,1990,Single-ply,Open,89.7,93,240,250,-255,250,150,170,175,175,215,-225,225,225,650,SBD,Yes,
1,Pablo Rivera,M,1971,Single-ply,Masters 2,86.45,93,190,200,-210,200,125,135,-145,135,200,215,220,220,555,SBD,Yes,
1,Gabriel Jatib,M,1995,Single-ply,Open,98.1,105,220,235,,235,145,155,167.5,167.5,190,210,220,220,622.5,SBD,Yes,
1,Matias Sosa,M,1987,Single-ply,Open,109.1,120,170,180,190,190,110,117.5,125,125,170,180,187.5,187.5,502.5,SBD,Yes,
1,Horacio Gomez,M,1963,Single-ply,Masters 3,119.2,120,130,140,150,150,100,110,,110,180,200,225,225,485,SBD,Yes,
1,Julián Suarez,M,1990,Single-ply,Open,118.8,120,,,,,155,165,175,175,,,,,175,B,Yes,
