Division,WeightClassKg,Place,Name,Team,BodyweightKg,Best3SquatKg,Best3BenchKg,Best3DeadliftKg,TotalKg,Equipment,Event,Sex
Boys,51.71,1,Adam Morton,Louise,46.77,113.4,52.16,113.4,278.96,Single-ply,SBD,M
Boys,51.71,2,Chris Dickson,East Bernard,50.3,113.4,63.5,95.25,272.16,Single-ply,SBD,M
Boys,51.71,3,Cameron Sides,El Maton Tidehaven,50.98,95.25,54.43,106.59,256.28,Single-ply,SBD,M
Boys,51.71,4,Rafael Sustaita,El Maton Tidehaven,50.35,86.18,54.43,108.86,249.48,Single-ply,SBD,M
Boys,51.71,5,Kelton Rodriguez,Louise,49.17,90.72,49.9,97.52,238.14,Single-ply,SBD,M
Boys,51.71,6,Kayden Kurtz,Vanderbilt Industrial,45.31,86.18,47.63,102.06,235.87,Single-ply,SBD,M
Boys,51.71,7,Tristen Stanley,Kountze,44.18,68.04,43.09,83.91,195.04,Single-ply,SBD,M
Boys,51.71,8,Brent Meguess,Winnie East Chambers,41.96,74.84,38.56,70.31,183.7,Single-ply,SBD,M
Boys,51.71,DQ,Joshua McNeely,Kountze,39.92,,,,,Single-ply,SBD,M
Boys,51.71,DQ,Brandon Myers,Kountze,44.45,52.16,,,,Single-ply,SBD,M
Boys,55.79,1,Isais Gonzales,Anahuac,53.52,127.01,77.11,147.42,351.53,Single-ply,SBD,M
Boys,55.79,2,Trenton Thedford,Vanderbilt Industrial,54.75,142.88,79.38,127.01,349.27,Single-ply,SBD,M
Boys,59.87,3,Daniel Santillan,Vanderbilt Industrial,55.97,122.47,65.77,140.61,328.85,Single-ply,SBD,M
Boys,55.79,4,Colten Smith,Kountze,54.79,113.4,65.77,138.35,317.51,Single-ply,SBD,M
Boys,55.79,5,Chris Garza #3,Ganado,54.39,129.27,79.38,106.59,315.25,Single-ply,SBD,M
Boys,55.79,6,Bradley McGill,Vanderbilt Industrial,55.07,106.59,74.84,120.2,301.64,Single-ply,SBD,M
Boys,55.79,7,Jake Buzek,Edna,54.93,117.93,74.84,102.06,294.84,Single-ply,SBD,M
Boys,59.87,DQ,Eddie Ramos,Ganado,55.88,124.74,,,,Single-ply,SBD,M
Boys,55.79,DQ,Matthew Galvez,El Maton Tidehaven,54.25,111.13,88.45,,,Single-ply,SBD,M
Boys,55.79,DQ,Toni Guillen,Kountze,55.07,,,,,Single-ply,SBD,M
Boys,59.87,1,Taylor Kibodeaux,Buna,58.51,181.44,95.25,158.76,435.45,Single-ply,SBD,M
Boys,67.13,2,Victor Lara-Cortez,Corrigan-Camden,60.01,163.29,86.18,176.9,426.38,Single-ply,SBD,M
Boys,59.87,3,Michael Hernandez #6,East Bernard,59.01,158.76,74.84,181.44,415.04,Single-ply,SBD,M
Boys,67.13,4,Logan Rhame,Anahuac,60.06,149.69,97.52,165.56,412.77,Single-ply,SBD,M
Boys,59.87,5,Gerard Rhodes,Newton,59.28,142.88,61.23,154.22,358.34,Single-ply,SBD,M
Boys,59.87,6,David Nunes,Edna,58.56,142.88,72.57,140.61,356.07,Single-ply,SBD,M
Boys,67.13,7,Quinten Kahla,Winnie East Chambers,59.96,124.74,74.84,131.54,331.12,Single-ply,SBD,M
Boys,59.87,NS,David Lindsey,Saratoga West Hardin,,,,,,Single-ply,SBD,M
Boys,59.87,NS,Andrew Weight,Van Vleck,,,,,,Single-ply,SBD,M
Boys,59.87,NS,Drew Ryan,Kountze,,,,,,Single-ply,SBD,M
Boys,67.13,DQ,Devin Allen,Hitchcock,60.06,115.67,,,,Single-ply,SBD,M
Boys,67.13,DQ,Jesús Flores,Winnie East Chambers,60.1,129.27,,,,Single-ply,SBD,M
Boys,67.13,1,Tanner Surratt,Louise,66.04,201.85,124.74,208.65,535.24,Single-ply,SBD,M
Boys,74.84,2,Caleb Jones #6,Van Vleck,67.31,190.51,113.4,190.51,494.42,Single-ply,SBD,M
Boys,67.13,3,Mason Burch,Buna,65.95,188.24,95.25,199.58,483.08,Single-ply,SBD,M
Boys,67.13,4,Kristian Grifaldo,Edna,61.51,181.44,90.72,167.83,439.98,Single-ply,SBD,M
Boys,67.13,5,Brandon Maraggia,Vanderbilt Industrial,63.91,147.42,86.18,163.29,396.89,Single-ply,SBD,M
Boys,67.13,NS,Adan Hernandez,Danbury,,,,,,Single-ply,SBD,M
Boys,67.13,NS,Osvaldo Sardina,Danbury,,,,,,Single-ply,SBD,M
Boys,67.13,DQ,Isiah Owens,Kountze,63.46,188.24,,,,Single-ply,SBD,M
Boys,67.13,DQ,Justin Kelley,Saratoga West Hardin,65.59,,,,,Single-ply,SBD,M
Boys,67.13,DQ,Dean Bagby,Van Vleck,64.46,147.42,95.25,,,Single-ply,SBD,M
Boys,74.84,1,Martice Henry,Anahuac,74.39,183.7,127.01,222.26,532.97,Single-ply,SBD,M
Boys,74.84,2,Michael Byerly,Newton,74.21,183.7,138.35,208.65,530.7,Single-ply,SBD,M
Boys,82.1,3,Kendrick Whittington,Anahuac,75.07,181.44,124.74,217.72,523.9,Single-ply,SBD,M
Boys,74.84,4,Keegan Mitchell,Corrigan-Camden,68.63,192.78,117.93,190.51,501.22,Single-ply,SBD,M
Boys,74.84,5,Denzell Banks,Edna,73.48,201.85,95.25,204.12,501.22,Single-ply,SBD,M
Boys,82.1,6,Justin Releford,Woodville,75.02,204.12,102.06,192.78,498.95,Single-ply,SBD,M
Boys,74.84,7,Josh George,Hitchcock,74.66,183.7,111.13,188.24,483.08,Single-ply,SBD,M
Boys,74.84,8,Kolton Mullins,Buna,68.22,181.44,104.33,185.97,471.74,Single-ply,SBD,M
Boys,74.84,NS,Cody Marcontell,Saratoga West Hardin,,,,,,Single-ply,SBD,M
Boys,74.84,DQ,Beau Burleson,Woodville,72.03,,,,,Single-ply,SBD,M
Boys,82.1,1,Brandon Johnson,Newton,78.7,233.6,133.81,229.06,596.47,Single-ply,SBD,M
Boys,82.1,2,Chris Sweat,Anahuac,81.65,201.85,131.54,215.46,548.85,Single-ply,SBD,M
Boys,82.1,3,Taylor Reddell,Winnie East Chambers,79.7,208.65,124.74,204.12,537.51,Single-ply,SBD,M
Boys,82.1,4,Corey Mitchell,Woodville,79.92,172.37,111.13,215.46,498.95,Single-ply,SBD,M
Boys,82.1,5,Joshua Sims,Winnie East Chambers,81.92,183.7,115.67,181.44,480.81,Single-ply,SBD,M
Boys,82.1,6,Cesar Garcia #1,East Bernard,81.19,158.76,104.33,190.51,453.59,Single-ply,SBD,M
Boys,89.81,7,Aric Matura,East Bernard,82.28,167.83,113.4,170.1,451.32,Single-ply,SBD,M
Boys,82.1,8,Jared Zbranek,El Maton Tidehaven,78.29,170.1,102.06,165.56,437.72,Single-ply,SBD,M
Boys,82.1,NS,Ashton Whittle,Kountze,,,,,,Single-ply,SBD,M
Boys,82.1,DQ,Jack Perry,Vanderbilt Industrial,81.01,,,,,Single-ply,SBD,M
Boys,89.81,1,Haden Armstrong,Corrigan-Camden,86.55,208.65,136.08,229.06,573.79,Single-ply,SBD,M
Boys,89.81,2,Joe Woodson,El Maton Tidehaven,84.87,204.12,124.74,238.14,566.99,Single-ply,SBD,M
Boys,89.81,3,Blaine Acevedo,Winnie East Chambers,83.46,210.92,140.61,199.58,551.11,Single-ply,SBD,M
Boys,89.81,4,Cade Cihal,Ganado,87.72,190.51,111.13,210.92,512.56,Single-ply,SBD,M
Boys,89.81,5,Garrett Derouen,Woodville,87.63,188.24,122.47,199.58,510.29,Single-ply,SBD,M
Boys,89.81,6,Tj Combs,Hitchcock,83.87,174.63,102.06,195.04,471.74,Single-ply,SBD,M
Boys,89.81,DQ,Justin Artis,Anahuac,86.64,204.12,129.27,,,Single-ply,SBD,M
Boys,89.81,DQ,Ty Tamplin,Buna,86.59,,,,,Single-ply,SBD,M
Boys,89.81,DQ,Jeff McDonald,Van Vleck,88.5,,,,,Single-ply,SBD,M
Boys,89.81,DQ,Ernest Hafford,Kountze,89.36,,,,,Single-ply,SBD,M
Boys,99.79,1,Anthony Hadnot,Newton,95.84,240.4,122.47,240.4,603.28,Single-ply,SBD,M
Boys,99.79,2,Hunter Rising,Winnie East Chambers,98.2,217.72,151.95,233.6,603.28,Single-ply,SBD,M
Boys,99.79,3,Mason Davis,Vanderbilt Industrial,98.79,197.31,131.54,208.65,537.51,Single-ply,SBD,M
Boys,99.79,4,Jordan Darr,East Bernard,97.93,190.51,115.67,215.46,521.63,Single-ply,SBD,M
Boys,99.79,5,Henry Guzman,Corrigan-Camden,90.17,199.58,104.33,201.85,505.76,Single-ply,SBD,M
Boys,99.79,6,Nick Rhame,Buna,95.84,204.12,115.67,172.37,492.15,Single-ply,SBD,M
Boys,99.79,7,Tim Burley,Corrigan-Camden,96.03,185.97,97.52,201.85,485.34,Single-ply,SBD,M
Boys,99.79,8,Calub Osborn,Danbury,98.97,185.97,102.06,181.44,469.47,Single-ply,SBD,M
Boys,99.79,DQ,Alex Tamez,Louise,93.76,,,,,Single-ply,SBD,M
Boys,99.79,DQ,Marcus Escobedo,Hitchcock,90.9,,,,,Single-ply,SBD,M
Boys,109.77,1,Dalton Ford,Buna,108.23,290.3,172.37,274.42,737.09,Single-ply,SBD,M
Boys,109.77,2,Hosea Bottley,Kountze,103.19,240.4,149.69,265.35,655.44,Single-ply,SBD,M
Boys,109.77,3,Austin Lee,East Bernard,106.32,190.51,142.88,183.7,517.1,Single-ply,SBD,M
Boys,109.77,4,Jarred Lezak,Winnie East Chambers,107.73,199.58,120.2,188.24,508.02,Single-ply,SBD,M
Boys,109.77,5,Danny Calixto,El Maton Tidehaven,101.83,192.78,120.2,181.44,494.42,Single-ply,SBD,M
Boys,109.77,6,Anthony Norman,Edna,105.64,181.44,111.13,190.51,483.08,Single-ply,SBD,M
Boys,109.77,7,Colin Dusek,East Bernard,107.95,172.37,104.33,199.58,476.27,Single-ply,SBD,M
Boys,109.77,8,Josh Chevalier,Kountze,109.13,170.1,102.06,158.76,430.91,Single-ply,SBD,M
Boys,109.77,DQ,Case Silliman,Ganado,100.61,222.26,,,,Single-ply,SBD,M
Boys,109.77,DQ,Barrett Franzen,Winnie East Chambers,108.5,,,,,Single-ply,SBD,M
Boys,124.74,1,Michael Garcia #14,Ganado,113.99,247.21,174.63,231.33,653.17,Single-ply,SBD,M
Boys,124.74,2,Kyle McCrary,Winnie East Chambers,118.57,240.4,154.22,210.92,605.55,Single-ply,SBD,M
Boys,124.74,3,Dillon Sharp,Buna,116.98,244.94,138.35,215.46,598.74,Single-ply,SBD,M
Boys,124.74,4,Logan Robinson,Edna,121.11,217.72,127.01,226.8,571.53,Single-ply,SBD,M
Boys,124.74,5,Devontae Green,Newton,117.53,219.99,140.61,183.7,544.31,Single-ply,SBD,M
Boys,124.74,6,Gayland Steubing,Warren,117.93,190.51,108.86,195.04,494.42,Single-ply,SBD,M
Boys,124.74,NS,Devin Sangwin,Kountze,,,,,,Single-ply,SBD,M
Boys,124.74,DQ,Brodyrick Lomax,Hitchcock,123.65,,,,,Single-ply,SBD,M
Boys,124.74,DQ,Will Malek,Ganado,122.56,176.9,124.74,,,Single-ply,SBD,M
Boys,124.74,DQ,Blaise Manak,Buna,122.7,199.58,,,,Single-ply,SBD,M
Boys,124.74,DQ,Dave Lewis,Newton,113.85,199.58,115.67,,,Single-ply,SBD,M
Boys,124.74,DQ,Robert Ryan,Saratoga West Hardin,111.22,199.58,,,,Single-ply,SBD,M
Boys,124.74+,1,Anthony Parks,Ganado,135.49,247.21,163.29,231.33,641.83,Single-ply,SBD,M
Boys,124.74+,2,Zach Kennedy,Corrigan-Camden,134.76,272.16,138.35,229.06,639.57,Single-ply,SBD,M
Boys,124.74+,3,Gage Walters,Kountze,140.8,231.33,174.63,215.46,621.42,Single-ply,SBD,M
Boys,124.74+,4,Garrett Jarrell,Buna,149.91,226.8,138.35,240.4,605.55,Single-ply,SBD,M
Boys,124.74+,5,Denton Lesak,Ganado,135.26,249.48,122.47,226.8,598.74,Single-ply,SBD,M
Boys,124.74+,6,Hunter Bergeron,Anahuac,125.65,215.46,124.74,213.19,553.38,Single-ply,SBD,M
Boys,124.74+,7,Gray Laskoskie,Hitchcock,142.93,204.12,145.15,190.51,539.77,Single-ply,SBD,M
Boys,124.74+,8,Brent Minter,Newton,143.79,229.06,102.06,197.31,528.44,Single-ply,SBD,M
Boys,124.74+,9,Robert Geissen,Danbury,127.69,201.85,104.33,199.58,505.76,Single-ply,SBD,M
Boys,124.74+,10,Eric Mills,Hitchcock,135.35,201.85,113.4,185.97,501.22,Single-ply,SBD,M
